<?xml version="1.0" encoding="utf-8"?>
<!-- Generator: Adobe Illustrator 19.1.0, SVG Export Plug-In . SVG Version: 6.00 Build 0)  -->
<svg version="1.1" id="Слой_1" xmlns="http://www.w3.org/2000/svg" xmlns:xlink="http://www.w3.org/1999/xlink" x="0px" y="0px"
	 viewBox="-19.6 104.3 163.1 24.9" style="enable-background:new -19.6 104.3 163.1 24.9;" xml:space="preserve">
<style type="text/css">
	.st0{fill:#595959;}
</style>
<g>
	<path class="st0" d="M76,110.7h-0.6c-0.1,0-0.1,0-0.1,0c-0.1,0-0.1,0.1-0.1,0.2v5.1c0,0.1,0,0.1,0.1,0.1c0,0.1,0.1,0.1,0.2,0.1h0.6
		c0.1,0,0.1,0,0.2,0s0.1-0.1,0.1-0.2v-5.1c0-0.1,0-0.1,0-0.2C76.2,110.8,76.1,110.7,76,110.7z"/>
	<path class="st0" d="M74,112c-0.2-0.1-0.5-0.2-0.9-0.2c-0.6,0-1,0.2-1.3,0.6c-0.1,0.3-0.2,0.6-0.2,1v1.3c0,0.7,0.2,1.1,0.7,1.4
		c0.3,0.2,0.7,0.2,1.1,0.2c0.1,0,0.3,0,0.5,0s0.4-0.1,0.5-0.1s0.1-0.1,0.1-0.1V116v-0.7c0-0.1-0.1-0.2-0.2-0.1
		c-0.1,0.1-0.3,0.1-0.4,0.1s-0.3,0.1-0.5,0.1c-0.3,0-0.4-0.1-0.6-0.2c-0.1-0.1-0.2-0.3-0.2-0.5v-0.3c0,0,0,0,0-0.1h0.1h1.6
		c0.1,0,0.1,0,0.2,0c0,0,0.1-0.1,0.1-0.2v-0.7C74.6,112.7,74.4,112.3,74,112z M72.7,113.5c0,0-0.1,0-0.1-0.1v-0.2
		c0-0.2,0-0.3,0.1-0.4s0.2-0.1,0.3-0.1c0.1,0,0.3,0.1,0.3,0.2c0,0.1,0.1,0.2,0.1,0.3v0.2h0.1L72.7,113.5z"/>
	<path class="st0" d="M69.1,117.4c0.8,0,1.3-0.2,1.5-0.6c0.1-0.2,0.2-0.7,0.2-1.2v-3.4c0-0.1,0-0.2-0.1-0.2c0.2-0.1,0.1-0.1,0.1-0.1
		h-0.7c-0.1,0-0.1,0-0.1,0.1v0.1c0,0,0,0-0.1,0.1c-0.1-0.1-0.2-0.1-0.3-0.2c-0.1-0.1-0.3-0.1-0.5-0.1c-0.5,0-0.7,0.2-0.9,0.5
		c-0.1,0.2-0.1,0.5-0.1,0.9v1.2c0,0.5,0.1,0.8,0.2,1c0.2,0.4,0.5,0.6,0.9,0.6c0.1,0,0.3,0,0.4-0.1c0.1,0,0.2-0.1,0.3-0.2
		c0,0,0,0,0,0.1v0.1c0,0.1,0,0.2-0.1,0.3s-0.3,0.2-0.7,0.2c-0.1,0-0.3,0-0.5,0s-0.3-0.1-0.5-0.1c-0.1,0-0.1,0-0.1,0.1v0.6
		c0,0.1,0.1,0.1,0.1,0.2C68.3,117.4,68.6,117.4,69.1,117.4z M69.8,115c-0.1,0.1-0.2,0.2-0.3,0.2c-0.1,0-0.3-0.1-0.3-0.2
		c0-0.1,0-0.2,0-0.3v-1.4c0-0.1,0-0.3,0-0.3c0.1-0.1,0.2-0.2,0.3-0.2c0.2,0,0.3,0.1,0.3,0.2c0,0.1,0.1,0.2,0.1,0.3v1.4
		C69.9,114.8,69.9,114.9,69.8,115z"/>
	<path class="st0" d="M65.7,116.2c0,0,0.1-0.1,0.1-0.2v-2.6c0-0.2,0-0.3,0.1-0.4c0.1-0.1,0.2-0.2,0.3-0.2c0.1,0,0.2,0,0.3,0.1
		c0.1,0.1,0.1,0.1,0.1,0.3v2.8c0,0.1,0,0.1,0,0.1c0,0.1,0.1,0.1,0.2,0.1h0.6c0.1,0,0.1,0,0.2,0c-0.1,0-0.1-0.1-0.1-0.2v-3.1
		c0-0.4-0.1-0.7-0.3-0.9c-0.2-0.1-0.4-0.2-0.7-0.2c-0.2,0-0.3,0-0.5,0.1c-0.1,0-0.2,0.1-0.2,0.1c-0.1,0-0.1,0.1-0.1,0.1
		s-0.1,0-0.1-0.1v-0.1h-0.1h-0.7c-0.1,0-0.1,0-0.1,0c-0.1,0-0.1,0.1-0.1,0.2v3.9c0,0.1,0,0.1,0.1,0.1c0,0.1,0.1,0.1,0.2,0.1h0.6
		C65.6,116.2,65.6,116.2,65.7,116.2z"/>
	<path class="st0" d="M62.8,116.1C62.9,116.1,62.9,116.1,62.8,116.1c0.1,0.1,0.2,0.1,0.3,0.1h0.7c0.1,0,0.2,0,0.2-0.1
		c0,0,0-0.1,0-0.2V113c0-0.4-0.1-0.7-0.2-0.9c-0.2-0.3-0.7-0.4-1.2-0.4s-0.8,0.1-1,0.1c-0.1,0.1-0.2,0.2-0.2,0.3v0.5
		c0,0.1,0.1,0.1,0.1,0.1s0.1,0,0.2,0c0,0,0.1-0.1,0.2-0.1s0.1,0,0.2-0.1c0.1,0,0.2,0,0.3,0c0.1,0,0.3,0,0.3,0.1
		c0.1,0.1,0.1,0.1,0.1,0.2c0,0.1,0,0.1-0.1,0.1l-0.2,0.1c-0.5,0.2-0.8,0.4-1,0.5c-0.3,0.3-0.5,0.7-0.5,1.2s0.1,0.8,0.3,1
		c0.2,0.2,0.5,0.3,0.8,0.3c0.1,0,0.2,0,0.3,0C62.6,116.2,62.7,116.2,62.8,116.1z M62.2,114.9c0-0.2,0.1-0.4,0.1-0.5
		c0.1-0.1,0.2-0.2,0.3-0.3l0.1-0.1c0.1,0,0.1,0,0.1,0s0,0,0,0.1v1c0,0.1,0,0.1-0.1,0.2s-0.2,0.1-0.3,0.1c-0.1,0-0.2-0.1-0.3-0.1
		C62.2,115.1,62.2,115,62.2,114.9z"/>
	<path class="st0" d="M54.3,116.2C54.3,116.3,54.3,116.3,54.3,116.2l0.2,0.2c0.1,0,0.1,0,0.1,0c0.1,0,0.1,0,0.1-0.1l3.1-5.2
		c0-0.1,0-0.1,0-0.1c0-0.1,0-0.1-0.1-0.2l-0.2-0.1h-0.1c-0.1,0-0.1,0-0.2,0.1l-3,5.2C54.3,116.1,54.3,116.1,54.3,116.2z"/>
	<path class="st0" d="M58,116c0.1-0.2,0.2-0.6,0.2-1.1c0-0.6-0.1-1-0.2-1.1c-0.1-0.2-0.3-0.3-0.7-0.3c-0.3,0-0.6,0.1-0.7,0.3
		c-0.1,0.2-0.2,0.6-0.2,1.1c0,0.6,0.1,0.9,0.2,1.1s0.4,0.3,0.7,0.3C57.7,116.3,57.9,116.2,58,116z M57.2,115.5c0-0.1,0-0.3,0-0.6
		v-0.2c0-0.2,0-0.3,0-0.4s0.1-0.1,0.1-0.1c0.1,0,0.1,0,0.1,0.1s0.1,0.2,0.1,0.5v0.1v0.2c0,0.2,0,0.3,0,0.4c0,0.1-0.1,0.1-0.1,0.1
		C57.3,115.7,57.2,115.6,57.2,115.5z"/>
	<path class="st0" d="M54.9,113.5c0.4,0,0.6-0.1,0.7-0.3s0.2-0.5,0.2-1.1s-0.1-0.9-0.2-1.1s-0.3-0.3-0.7-0.3c-0.4,0-0.6,0.1-0.7,0.3
		s-0.2,0.6-0.2,1.1c0,0.6,0.1,1,0.2,1.1C54.3,113.4,54.5,113.5,54.9,113.5z M54.7,112.1v-0.2c0-0.2,0-0.3,0-0.4s0.1-0.1,0.1-0.1
		s0.1,0,0.1,0.1s0,0.2,0,0.5v0.1v0.2c0,0.2,0,0.3,0,0.4c0,0.1-0.1,0.1-0.1,0.1s-0.1,0-0.1-0.1C54.7,112.6,54.7,112.4,54.7,112.1z"/>
	<path class="st0" d="M52.3,112.4v3.6c0,0.1,0,0.1,0,0.2c0,0,0.1,0.1,0.2,0.1h0.6c0.1,0,0.2,0,0.2,0c0.1,0,0.1-0.1,0.1-0.2v-5
		c0-0.1,0-0.1-0.1-0.2c0,0-0.1-0.1-0.2-0.1h-0.5c-0.1,0-0.1,0-0.2,0.1c0,0-0.1,0.1-0.2,0.2c-0.1,0.1-0.2,0.2-0.3,0.2
		c-0.1,0.1-0.3,0.1-0.4,0.1h-0.2c-0.1,0-0.2,0-0.2,0.1c0,0,0,0.1,0,0.2v0.3c0,0.1,0,0.2,0.1,0.2c0,0,0.1,0.1,0.2,0.1h0.7
		C52.2,112.3,52.3,112.3,52.3,112.4z"/>
	<path class="st0" d="M50.9,114.7v-0.8c0-0.5-0.1-0.8-0.3-1.1c-0.2-0.3-0.5-0.4-0.9-0.4h-0.1c-0.1,0-0.1,0-0.1,0h-0.2
		c-0.1,0-0.1,0-0.1-0.1v-0.6c0-0.1,0-0.1,0.1-0.1h1c0.1,0,0.2,0,0.3-0.1c0,0,0-0.1,0-0.2v-0.4c0-0.1,0-0.1-0.1-0.2
		c0,0-0.1-0.1-0.2-0.1h-1.9c-0.1,0-0.2,0-0.2,0.1c0,0,0,0.1,0,0.2v2.2c0,0.1,0,0.1,0,0.1c0,0.1,0.1,0.1,0.2,0.1s0.2,0,0.3,0
		c0.2-0.1,0.4-0.1,0.5-0.1s0.3,0.1,0.4,0.2s0.2,0.3,0.2,0.6v0.6c0,0.2-0.1,0.4-0.1,0.5c-0.1,0.1-0.2,0.1-0.3,0.1
		c-0.2,0-0.3,0-0.3-0.1c-0.1-0.1-0.1-0.2-0.1-0.4v-0.1c0-0.1,0-0.2-0.1-0.2c0,0-0.1-0.1-0.2-0.1H48c-0.1,0-0.2,0-0.3,0.1
		c0,0,0,0.1,0,0.2v0.2c0,0.4,0.1,0.7,0.2,0.9c0.2,0.4,0.7,0.6,1.3,0.6c0.5,0,0.9-0.1,1.2-0.4C50.7,115.7,50.9,115.2,50.9,114.7z"/>
	<path class="st0" d="M72.1,117.9h-0.5c-0.1,0-0.1,0-0.1,0l-0.1,0.1v3.7c0,0.1,0,0.1,0,0.1l0.1,0.1H72h0.1v-0.1v-3.7
		C72.1,118,72.1,118,72.1,117.9C72.2,117.9,72.1,117.9,72.1,117.9z"/>
	<path class="st0" d="M70.9,118.8L70.9,118.8h-0.6c-0.1,0-0.1,0-0.1,0v0.1v2.9c0,0.1,0,0.1,0,0.1l0.1,0.1h0.5c0.1,0,0.1,0,0.1,0
		l0.1-0.1L70.9,118.8C70.9,118.9,70.9,118.8,70.9,118.8z"/>
	<path class="st0" d="M70.3,117.9C70.2,117.9,70.2,117.9,70.3,117.9L70.3,117.9l-0.1,0.5c0,0.1,0,0.1,0,0.1l0.1,0.1h0.5
		c0.1,0,0.1,0,0.1-0.1v-0.1V118c0-0.1,0-0.1,0-0.1h-0.1H70.3z"/>
	<path class="st0" d="M69.8,118.8h-0.5c-0.1,0-0.2,0-0.2,0.1l-0.1,0.3c-0.1,0.2-0.1,0.5-0.1,0.7c0,0.1-0.1,0.3-0.1,0.5
		c0,0.1,0,0.2,0,0.2c0,0.1,0,0.1-0.1,0.1c0,0,0,0,0-0.1c0-0.1,0-0.1,0-0.2c0-0.1-0.1-0.2-0.1-0.4s-0.1-0.5-0.2-0.8l-0.1-0.3v-0.1
		h-0.1h-0.6c-0.1,0-0.1,0-0.1,0.1v0.1l0.8,2.9c0,0.1,0,0.1,0.1,0.1h0.1H69c0.1,0,0.1,0,0.1,0s0-0.1,0.1-0.1c0.1-0.1,0.2-0.5,0.3-1.2
		c0.1-0.4,0.2-0.9,0.3-1.3l0.1-0.5C69.9,118.8,69.9,118.8,69.8,118.8z"/>
	<path class="st0" d="M66.1,118.7c-0.4,0-0.7,0.1-0.9,0.4c-0.1,0.2-0.2,0.5-0.2,0.8v1c0,0.5,0.2,0.8,0.5,1c0.2,0.1,0.5,0.2,0.8,0.2
		c0.1,0,0.2,0,0.4,0c0.1,0,0.3-0.1,0.4-0.1c0,0,0.1,0,0.1-0.1c0,0,0,0,0-0.1v-0.5c0-0.1,0-0.1-0.1-0.1c-0.1,0.1-0.2,0.1-0.3,0.1
		c-0.1,0-0.2,0-0.3,0c-0.2,0-0.3-0.1-0.4-0.1c-0.1-0.1-0.1-0.2-0.1-0.4v-0.1v-0.1c0,0,0,0,0.1,0h1.2c0.1,0,0.1,0,0.1,0l0.1-0.1v-0.6
		c-0.3-0.5-0.5-0.8-0.7-1C66.6,118.8,66.4,118.7,66.1,118.7z M66.4,119.9l-0.6,0.1c0,0-0.1,0-0.1-0.1v-0.1c0-0.1,0-0.3,0.1-0.3
		c0.1-0.1,0.1-0.1,0.2-0.1s0.2,0,0.3,0.1C66.3,119.6,66.4,119.6,66.4,119.9L66.4,119.9z"/>
	<path class="st0" d="M64.3,117.9h-0.5c-0.1,0-0.1,0-0.1,0l-0.1,0.1v0.8c-0.1,0-0.1-0.1-0.2-0.1s-0.1,0-0.3,0
		c-0.3,0-0.6,0.1-0.7,0.4c-0.1,0.2-0.1,0.5-0.1,0.8v1c0,0.3,0,0.5,0.1,0.7c0.1,0.3,0.3,0.4,0.7,0.4c0.1,0,0.2,0,0.3-0.1
		c0.1,0,0.2-0.1,0.3-0.1v0.1c0,0.1,0.1,0.1,0.1,0.1h0.5h0.1v-0.1v-3.8c0-0.1,0-0.1,0-0.1C64.4,117.9,64.4,117.9,64.3,117.9z
		 M63.7,119.8v1.2c0,0.1,0,0.2,0,0.2c-0.1,0.1-0.1,0.2-0.3,0.2c-0.2,0-0.2-0.1-0.2-0.2c0-0.1-0.1-0.1-0.1-0.2v-1.2
		c0-0.1,0-0.2,0.1-0.3c0-0.1,0.1-0.1,0.2-0.1s0.2,0.1,0.3,0.1C63.7,119.6,63.7,119.6,63.7,119.8z"/>
	<path class="st0" d="M59.7,118l-0.1-0.1h-0.1c0,0-0.1,0-0.1,0.1l-2.2,3.9v0.1c0,0,0,0.1,0.1,0.1l0.1,0.1h0.1c0.1,0,0.1,0,0.1-0.1
		L59.7,118C59.8,118,59.8,118,59.7,118z"/>
	<path class="st0" d="M59.4,120c-0.3,0-0.4,0.1-0.5,0.2c-0.1,0.1-0.1,0.4-0.1,0.9c0,0.4,0.1,0.7,0.1,0.8c0.1,0.1,0.3,0.2,0.5,0.2
		s0.4-0.1,0.5-0.2c0.1-0.1,0.1-0.4,0.1-0.8s-0.1-0.7-0.1-0.9C59.8,120,59.7,120,59.4,120z M59.5,120.9L59.5,120.9v0.3
		c0,0.1,0,0.2,0,0.3s0,0.1-0.1,0.1s-0.1-0.1-0.1-0.1c0-0.1,0-0.2,0-0.5v-0.2c0-0.1,0-0.2,0-0.3c0-0.1,0.1-0.1,0.1-0.1s0.1,0,0.1,0.1
		C59.5,120.5,59.5,120.7,59.5,120.9z"/>
	<path class="st0" d="M58.1,119.8c0.1-0.1,0.1-0.4,0.1-0.8c0-0.4,0-0.7-0.1-0.9c-0.1-0.1-0.3-0.2-0.5-0.2c-0.3,0-0.4,0.1-0.5,0.2
		c-0.1,0.1-0.1,0.4-0.1,0.9c0,0.4,0,0.7,0.1,0.8s0.3,0.2,0.5,0.2C57.9,120,58,119.9,58.1,119.8z M57.5,118.9L57.5,118.9
		c0-0.2,0-0.3,0-0.4c0-0.1,0.1-0.1,0.1-0.1s0.1,0,0.1,0.1c0,0.1,0,0.2,0,0.4v0.1v0.2c0,0.1,0,0.2,0,0.3c0,0.1-0.1,0.1-0.1,0.1
		c-0.1-0.1-0.1-0.1-0.1-0.2C57.5,119.3,57.5,119.2,57.5,118.9z"/>
	<path class="st0" d="M55.4,117.9c-0.4,0-0.7,0.1-0.9,0.3c-0.2,0.2-0.3,0.5-0.3,0.8v0.8c0,0.3,0.1,0.6,0.3,0.8
		c0.2,0.1,0.4,0.2,0.6,0.2c0.1,0,0.1,0,0.2,0s0.1,0,0.2-0.1c0.1,0,0.1-0.1,0.1-0.1s0,0,0.1,0v0.1c0,0.2,0,0.3-0.1,0.4
		s-0.2,0.2-0.5,0.2c-0.1,0-0.2,0-0.4-0.1c-0.1,0-0.2,0-0.3,0c-0.1,0-0.1,0-0.1,0.1v0.5c0,0.1,0,0.1,0.1,0.2c0.1,0.1,0.4,0.1,0.8,0.1
		c0.5,0,0.9-0.2,1.1-0.5c0.1-0.2,0.2-0.5,0.2-0.9v-1.6c0-0.3-0.1-0.6-0.2-0.8C56.2,118,55.9,117.9,55.4,117.9z M55.7,119.6
		c0,0.1,0,0.2-0.1,0.3s-0.1,0.1-0.2,0.1c-0.2,0-0.3-0.1-0.3-0.3v-0.8c0-0.1,0-0.2,0.1-0.3c0-0.1,0.1-0.1,0.2-0.1s0.2,0,0.2,0.1
		c0.1,0.1,0.1,0.1,0.1,0.3C55.7,118.9,55.7,119.6,55.7,119.6z"/>
	<path class="st0" d="M53.7,120.3v-2.2c0-0.1,0-0.1,0-0.1c0-0.1-0.1-0.1-0.2-0.1h-0.4c-0.1,0-0.1,0-0.1,0l-0.1,0.1l-1.2,2.2v0.1v0.1
		v0.4c0,0.1,0,0.1,0.1,0.2h0.1h1c0,0,0.1,0,0.1,0.1v0.7c0,0.1,0,0.1,0,0.1s0.1,0.1,0.2,0.1h0.4c0.1,0,0.1,0,0.2-0.1v-0.1v-0.7
		c0,0,0-0.1,0.1-0.1H54c0.1,0,0.1,0,0.1,0s0.1-0.1,0.1-0.2v-0.2c0-0.1,0-0.1,0-0.1C54,120.4,53.9,120.4,53.7,120.3
		C53.7,120.4,53.7,120.4,53.7,120.3z M52.4,120.4C52.4,120.4,52.3,120.4,52.4,120.4c-0.1-0.1-0.1-0.2,0-0.3c0.1-0.1,0.1-0.2,0.2-0.4
		c0-0.1,0.1-0.1,0.1-0.3c0-0.1,0.1-0.1,0.1-0.1s0,0,0,0.1v0.9h0.1L52.4,120.4z"/>
	<path class="st0" d="M51.1,122C51.1,121.9,51,121.9,51.1,122c-0.3-0.3-0.5-0.6-0.6-0.9c-0.1-0.3-0.1-0.5-0.1-0.7s0-0.5,0.1-0.7
		c0.1-0.3,0.2-0.6,0.5-0.8l0.1-0.1v-0.1v-0.8v-0.1c0,0,0,0.1-0.1,0.1c-0.1,0.1-0.2,0.1-0.2,0.1c-0.3,0.2-0.5,0.5-0.7,0.8
		c-0.3,0.4-0.4,0.9-0.4,1.4s0.1,1,0.4,1.4c0.2,0.3,0.4,0.6,0.7,0.8c0,0,0.1,0.1,0.2,0.1c0.1,0.1,0.2,0.1,0.2,0.1s0,0,0-0.1L51.1,122
		C51.2,122.1,51.2,122,51.1,122z"/>
	<path class="st0" d="M73.2,118.1c-0.1,0-0.1-0.1-0.2-0.1c-0.1-0.1-0.2-0.1-0.2-0.1l-0.1,0.1v0.6v0.1c0.1,0.1,0.1,0.1,0.1,0.1
		c0.2,0.2,0.4,0.5,0.5,0.8c0.1,0.2,0.1,0.5,0.1,0.7c0,0.3,0,0.5-0.1,0.7c-0.1,0.3-0.3,0.6-0.5,0.8l-0.1,0.1v0.1v0.6v0.1
		c0,0,0,0,0.1,0c0,0,0.1,0,0.2-0.1c0.1-0.1,0.1-0.1,0.2-0.1c0.3-0.2,0.5-0.5,0.7-0.8c0.2-0.4,0.4-0.9,0.4-1.4s-0.1-1-0.4-1.4
		C73.7,118.5,73.5,118.3,73.2,118.1z"/>
	<path class="st0" d="M128.2,105.3c-0.5,0.6-1,1.3-2,1.9c2,0.4,4.6,0.6,7.1,0.8c1.2,0.1,2.4,0.2,3.5,0.3c0.1,0,0.1,0.1,0.1,0.1v0.1
		c-0.1,0.1-5.7-0.2-5.7-0.2c-2.6-0.1-5.6-0.3-6.2-0.4c-0.6,0.5-2.1,0.9-2.9,1.1c-0.1,0-0.2,0.1-0.3,0.1c0.5,0.2,1.9,0.6,3.6,0.9
		c4.1,0.6,15.5,0.1,18-0.5c0.1,0,0.1,0,0.1-0.1C139,106.6,129,105.3,128.2,105.3z"/>
	<path class="st0" d="M126.2,110.7c-0.6,0-1,0-1.3-0.1c-0.3,0.3-0.9,0.6-1.2,0.8c2.4,0.5,5.9,0.6,9.9,0.4c0.1,0,0.1,0,0.1,0.1
		c0,0,0,0.1-0.1,0.1c-3.9,0.6-7.4,0.7-11.5,0.1l-3.6,0.7c3.5,1,8.1,1.4,12.3,1.2c4.9-0.3,9-1.4,11.6-3.3c0-0.1,0-0.2,0-0.2
		c-2.1,0.1-6,0.3-10.2,0.3C129.8,110.8,127.7,110.7,126.2,110.7z"/>
	<path class="st0" d="M138.7,113.5c-0.7,0.1-1.5,0.1-2.2,0.3c-4.9,0.8-10.9,0.8-15.1,0l0.6,0.5c0.2,0.1,1.4,0.5,3.1,0.8
		c1.8,0.3,4.1,0.3,6.5,0.2c0,0,0.1,0,0.1,0.1s0,0.1-0.1,0.1c-1.8,0.3-3.5,0.5-4.9,0.4c-1.3-0.1-2.6-0.3-3.7-0.6
		c-0.6-0.1-1.2-0.3-1.7-0.3c-0.6,0.2-1.8,0.5-3.1,0.7c1.4,0.5,3.7,1.1,5.6,1.4c2.9,0.5,6.7,0.3,9.9-0.3c3.4-0.7,5.8-1.8,6.5-3.2
		v-0.1c0.1-0.1,0.1-0.2-0.1-0.2C139.6,113.4,139.2,113.4,138.7,113.5z"/>
	<path class="st0" d="M135.6,117.5c-1.5,0.2-4.3,0.5-7.2,0.5c-3.6,0-6.9-0.7-7.9-1.1c-0.1,0.1-0.3,0.3-0.9,0.6
		c0.7,0.4,2.7,0.8,5.7,1.1c1.2,0.1,2.5,0.2,4,0.2c0,0,0.1,0,0.1,0.1c0,0,0,0.1-0.1,0.1c-3.8,0.6-9.6-1-10.2-1.2
		c-0.2,0.2-0.9,0.4-1.2,0.5c1,0.9,6.6,2.3,10,2.3c3,0.1,7.1-1.3,8.6-2.9c0,0,0.1-0.1,0.1-0.2c-0.1,0-0.2-0.1-0.3-0.1
		C136.1,117.4,135.9,117.5,135.6,117.5z"/>
	<path class="st0" d="M126.3,121c-3.1-0.2-6.9-1.2-9-2.5c-0.6,0.3-1.2,0.4-1.8,0.4c1.8,1.1,4.2,2.3,7.4,3.1c0,0,0.1,0,0.1,0.1
		c0,0.1,0,0.1-0.1,0.1c-2.3,0.1-4.1-0.9-6-1.9c-0.2-0.1-0.4-0.2-0.6-0.3c-0.7,0.5-1.5,0.8-2.1,1c1.7,1.2,3.7,2.2,6.1,2.8
		c3.2,0.7,6.3,0.1,9.3-1.5c0.1-0.2,0.1-0.2,0.1-0.4c-0.3-0.1-0.6-0.2-0.9-0.3C128.1,121.3,127.2,121,126.3,121z"/>
	<path class="st0" d="M116.9,126.8c-1.2-0.6-2.2-1-3.2-1.4c-1.7-0.7-3.2-1.4-4.6-2.3c-0.3,0.1-0.7,0.1-1,0.1l0.2,0.3c0,0,0,0,0,0.1
		v0.1c-1,0.5-1.5,0.7-2.3,0.9c0.3,0.2,0.7,0.4,0.9,0.6c0.8,0.5,1.5,1,3.1,1.6l0.1,0.1L110,127c-2-0.1-4-1.3-5.4-2.3
		c-0.4-0.1-0.7-0.1-1-0.3c0.3,0.3,0.4,0.6,0.6,0.8c0,0,0,0,0,0.1c0,0,0,0.1-0.1,0.1c-0.8,0.5-2.3,0.6-3.2,0.6
		c0.9,0.9,3.5,1.6,6.9,1.9s6.8,0.1,8.9-0.5l0.1-0.1C117,126.9,117,126.8,116.9,126.8z"/>
	<path class="st0" d="M118.5,123.4c-2-0.8-3.9-1.5-4.8-2.4c-0.5,0.1-1.1,0.1-1.7,0.1c0.4,0.2,0.8,0.4,1,0.6c0,0,0,0,0,0.1
		c0,0,0,0.1-0.1,0.1l-0.4,0.2c0.9,0.7,1.8,1.1,3,1.6c0.5,0.2,1,0.4,1.6,0.7c0,0,0,0,0,0.1H117c-0.5-0.2-1-0.3-1.4-0.5
		c-1.3-0.4-2.4-0.8-3.9-1.5c-0.5,0.2-1.1,0.4-1.7,0.4c0.6,1.2,7.6,3.7,12.4,2.6c0.1,0,0.1-0.1,0.1-0.1c0.1-0.1,0.1-0.1,0-0.2
		C121.3,124.6,119.9,124,118.5,123.4z"/>
	<path class="st0" d="M120.2,106.4c0.1,0.1,0.1,0.2,0,0.2c-2.9,0.6-5.8,0.8-8.3,0.4c-0.3,0.4-0.8,0.7-1.4,0.9
		c0.3,0.1,1.5,0.5,3.6,0.8c1.5,0.2,4.4,0.4,7.3-0.2c2.8-0.6,4.8-1.7,5.8-3.4c-3-0.6-6.9-0.8-10.5-0.8c-5,0-9.5,0.3-11,0.5
		c1.8,0.3,3.8,0.8,6.2,1.5C113.7,106.7,116.5,106.8,120.2,106.4z"/>
	<path class="st0" d="M120.9,109.3c-0.2,0-0.4-0.1-0.5-0.1c-2,0.4-8,0-9.3-0.6c-0.2,0.2-0.4,0.4-0.7,0.5c1.3,0.7,3.5,1.2,6.2,1.4
		c0.1,0,0.1,0,0.1,0.1c0,0,0,0.1-0.1,0.1c-2.8,0.3-4.7-0.3-6.7-1.2c-0.6,0.3-1.2,0.6-1.6,0.7c0.9,1,7,2,10,2.2
		c1.5-0.2,4.3-0.7,6.2-1.8C123.4,110,122.1,109.6,120.9,109.3z"/>
	<path class="st0" d="M121.5,114.7c-1.2-1.1-3-1.7-4.1-1.9c-1.2-0.3-2.5-0.5-3.8-0.7c-1.7-0.3-3.3-0.5-4.5-1l-0.8,0.3
		c0.1,0.1,0.3,0.3,0.7,0.5c1.8,0.7,5,1.7,5.3,1.7h0.1c0,0,0.1,0,0.1,0.1c0,0,0,0,0,0.1c-0.1,0.1-0.4,0.2-1,0.1
		c-1.1-0.2-2.8-0.9-3.5-1.1c-0.3-0.1-1.8-0.7-2.2-0.9c-0.2,0.1-0.6,0.2-0.9,0.2l1.4,0.7l0.1,0.1c0,0,0,0.1-0.1,0.1l-0.7,0.3
		c-0.2-0.1-0.3-0.2-0.4-0.2c-0.5,0.2-1,0.3-1.5,0.4c1.2,0.8,5.6,2.4,6.7,2.7c0,0,0.1,0,0.1,0.1c0,0,0,0.1-0.1,0.1
		c-1.6,0.2-7.2-2.5-7.6-2.7h-0.7c0.8,0.4,1.4,0.9,1.8,1.5c0,0,0,0-0.1,0.1h-0.1c5.8,3.6,10.3,4,14.1,1.4c-0.1-0.1-0.2-0.1-0.3-0.2
		c-0.7-0.2-1.6-0.4-2.4-0.7c-1.8,0-3.7-0.4-5.4-0.9C115.5,116,118.7,116,121.5,114.7z M110,114.3c0.5,0.2,1,0.4,1.5,0.5
		C111,114.7,110.5,114.5,110,114.3z"/>
	<path class="st0" d="M113.7,119c-2.6-0.8-5.9-1.7-8.2-3.6c-0.3,0.2-0.8,0.3-1.2,0.4c1.1,0.8,5.3,2.9,5.6,3c0,0,0,0,0.1,0v0.1
		c-0.1,0.1-0.3,0.4-3.4-1.2c-1.4-0.8-2.8-1.6-3-1.7h-0.4c0.5,0.2,0.9,0.5,1.3,0.9c0,0,0,0.1-0.1,0.1l-0.5,0.5
		c6.2,3.7,7.6,4.4,12,2.3C115.2,119.5,114.5,119.3,113.7,119z"/>
	<path class="st0" d="M112.1,121.8c-0.1-0.1-0.3-0.1-0.4-0.1c-2.7-0.9-5.4-1.8-8.2-4.2h-0.2c-0.6,0.1-1.2,0.1-1.9,0
		c0.2,0.3,0.5,0.6,0.9,1c1.8,1.3,4.7,2.6,5,2.6h0.1c0,0,0.1,0,0.1,0.1c-0.1,0.2-0.6,0.3-2.8-0.9c-1.1-0.6-2.2-1.2-2.4-1.4
		c-0.1,0-0.7,0.1-1.2,0c0.9,0.8,2.4,2.1,4.3,2.9C107.5,122.9,109.8,122.8,112.1,121.8z"/>
	<path class="st0" d="M104.7,124c0.9,0.1,2-0.1,3.2-0.7c-0.1-0.1-0.3-0.3-0.8-0.5c-0.1-0.1-0.3-0.1-0.4-0.1
		c-0.6-0.1-1.4-0.3-3.1-1.4c-1.2-0.7-2.3-1.5-3.1-2.3c-0.1,0-0.2,0-0.3,0c-0.4,0-0.8,0-1.1-0.1c1,1.5,3.6,2.9,4.4,3.4
		c0,0,0.1,0,0.1,0.1l-0.1,0.1c-1,0.1-3.9-2.4-4.8-3.2l0.5,1.2C99.6,121.4,102.1,123.6,104.7,124z"/>
	<path class="st0" d="M102.7,123.8c-1.4-0.6-2.7-1.6-3.8-2.9c-0.4,0.1-0.8,0.1-1.2,0c0.3,0.7,1.3,1.5,2.8,2.7c0,0,0,0,0,0.1
		c0,0,0,0.1-0.1,0.1c-0.5,0-2.7-1.7-3.5-2.9c-0.5-0.1-1-0.4-1.2-0.5l0.1,0.5c-0.2-0.3-0.3-0.8-0.4-0.9c-2.2-1.3-2.7-2.2-2.8-2.4
		c-0.2,0-0.4,0-0.6-0.1c0.6,0.7,1.4,1.5,2.5,2.3c0,0,0,0,0,0.1c0,0,0,0,0,0.1h-0.1c-1.2-0.9-2.2-1.9-3.1-2.9v0.1
		c0.1,0.3,0.1,0.5,0.1,0.8c0,0.1,0,0.1,0,0.2c0.1,0.2,0.3,0.3,0.5,0.5c1,1.1,2,2.1,4,2.5v0.1c0.5,0.9,2.1,3.5,4.7,4.1
		c1,0,1.9-0.2,3-0.6C103.6,124.6,103.3,124.1,102.7,123.8z"/>
	<path class="st0" d="M96,121.7l-0.6-0.1c0.4,1,1.1,2.1,1.9,3.1c0,0,0,0,0,0.1s0,0,0,0.1h-0.1c-0.9-0.9-1.6-1.9-2.2-3.2l-0.9-0.5
		c0.1,0.3,0.2,0.7,0.2,1c0,0.1,0,0.2,0,0.3c0,0,0,0.1-0.1,0.1s-0.1,0-0.2,0c1,1.5,2.6,3.4,4.9,4.1c0-0.1,0-0.2,0-0.4
		c0-0.7-0.4-1.4-0.5-1.6C97.3,123.6,96.5,122.7,96,121.7z"/>
	<path class="st0" d="M93.6,122.5c-0.2,0-0.7-0.2-1-0.4c0.5,1.4,1.3,2.6,1.9,3.5c0,0,0,0,0,0.1c0,0,0,0,0,0.1c-0.1,0-0.1,0-0.1,0
		c-1-1-1.6-2.1-2-3c-0.5,0-0.9-0.3-1.3-0.5c0.5,1.3,1.3,2.6,2.1,3.4c0.7,0.8,1.6,1.7,2.9,1.9c0-0.4-0.1-2.2-0.8-2.8
		C94.6,124,93.8,122.8,93.6,122.5z"/>
	<path class="st0" d="M91,122.5c-0.1-0.2-0.2-0.4-0.2-0.5c-0.1,0-0.2-0.1-0.3-0.1c0.2,1.1,0.9,2.5,1.7,3.7c0,0,0,0,0,0.1
		c0,0,0,0,0,0.1h-0.1c-1-0.9-1.4-2.1-1.8-3.3c-0.1,0.2-0.1,0.4-0.3,0.6h-0.1c-0.2,0-0.5-0.1-0.7-0.2c0.3,1.2,0.9,2.4,1.6,3.5
		c0.1,0.1,0.2,0.2,0.3,0.3c0.6,0.7,1.3,1.6,2.4,1.8v-0.1c0-0.7-0.3-2.2-0.5-2.5C92.4,125.2,91.5,123.3,91,122.5z"/>
	<path class="st0" d="M89.7,124.8c-0.5-1-0.7-1.8-0.8-2.1c-0.1-0.1-0.1-0.1-0.2-0.2c0.1,0.2,0.1,0.5,0.1,0.7c0,0.1,0,0.2,0,0.3
		c0.3,0.9,0.7,1.9,1.4,3v0.1h-0.1c-0.7-0.9-1.2-1.9-1.5-2.8c-0.4-0.1-0.8-0.3-1.2-0.6c0.8,2,1.7,4.1,3.5,5.6
		c0.1-0.3,0.1-0.7,0.1-1.1c0-0.3-0.1-0.6-0.1-0.8C90.5,126.2,90.1,125.5,89.7,124.8z"/>
	<path class="st0" d="M87.1,123.3c0,0.1-0.1,0.3-0.2,0.5c0.3,1.1,0.5,1.8,1.2,2.9c0,0,0,0,0,0.1c0,0,0,0,0,0.1H88
		c-0.6-0.8-1.2-2.1-1.5-3.1c-0.4-0.2-0.6-0.4-0.8-0.7v0.1c0,0.1,0,0.3,0,0.4v0.1c0.4,1.8,1.3,4.1,3.1,5.4c0.1-0.3,0.2-0.9,0.2-1.4
		c0-0.4-0.1-0.7-0.1-0.9C88.3,126.1,87.6,124.8,87.1,123.3z"/>
	<path class="st0" d="M85.3,123.8c-0.3-0.1-0.7-0.3-1-0.5c0.2,0.6,0.6,1.8,0.8,2.7c0,0,0,0.1-0.1,0.1h-0.1c-0.3-0.7-0.5-1.4-0.8-2.2
		c-0.1-0.3-0.2-0.6-0.3-0.9l-0.1-0.1c-0.1-0.1-0.2-0.1-0.3-0.2c-0.1-0.1-0.1-0.1-0.2-0.2c0,0.1,0,0.1,0,0.2c0,0.1,0,0.3-0.1,0.4
		l-0.1,0.1c-0.3-0.1-0.5-0.2-0.7-0.3c0.1,1,0.4,2.4,0.6,3.4c0,0.1,0,0.1-0.1,0.1c0,0-0.1,0-0.1-0.1l-0.4-1.3
		c-0.1-0.4-0.2-0.9-0.3-1.3c-0.1-0.3-0.1-0.5-0.2-0.8c0.1-0.1,0.2-0.5,0.2-0.7c-0.1-0.1-0.1-0.2-0.2-0.3l0,0c0.4,0.6,1,1,1.2,1
		c0,0,0,0,0-0.1c0-0.2-0.1-0.5-0.1-0.6L83,122c0-0.1,0-0.1,0.1-0.1c0.1,0.1,0.3,0.3,0.7,0.7c0.4,0.3,0.9,0.6,1.5,0.9v-0.1
		c0-0.2-0.1-0.7-0.4-0.9c-0.5-0.4-1.6-2.5-1.7-2.9h-0.1c-0.6,0.1-1.5,0.2-2,1.2c0.1,0.1,0.2,0.4,0.5,0.7c-0.3-0.4-0.4-0.6-0.5-0.6
		c-0.4,0.4-0.4,1-0.4,1.2c0,0.1,0.1,0.2,0.3,0.4c0.2,0.2,0.5,0.4,0.8,0.4c-0.1,0.2-0.2,0.3-0.3,0.3c0,0.2,0,0.3-0.1,0.4
		c0-0.1,0-0.2,0-0.3c0-0.1-0.1-0.2-0.2-0.3c-0.3,0.8-0.4,1.7-0.5,2.6c0,0.2,0,0.4-0.1,0.5c0,0,0,0.1-0.1,0.1s-0.1,0-0.1-0.1
		c0-0.2,0-0.4,0-0.6c0-1,0.1-1.9,0.3-2.7c-0.1-0.1-0.2-0.1-0.3-0.2c-0.2,1.2-0.4,2-0.4,2.9c0,0.8,0.2,1.7,0.6,2.8
		c0.6-0.6,1-1.2,1.2-2v0.1c0.3,1,0.7,1.8,1.2,2.5c0.3-0.6,0.4-1.3,0.4-2c0-0.6-0.1-1.3-0.3-1.9c0,0,0,0,0.1-0.1h0.1
		c0.2,0.3,0.3,0.7,0.5,1.1c0.4,1.1,0.9,2.3,1.8,3c0.2-0.5,0.3-1,0.3-1.5c0-1-0.3-2-0.7-3.4L85.3,123.8z"/>
	<path class="st0" d="M98.8,106.6c0.2,0,0.3,0.1,0.5,0.2c0.1,0,0.1,0.1,0.2,0.1c0,0,0,0,0,0.1c-0.1,0.2-0.2,0.3-0.3,0.5
		c1.8-0.1,4-0.4,6-0.7c0,0,0.1,0,0.1,0.1c0,0,0,0.1-0.1,0.1c-2,0.5-4.8,0.9-6.2,0.9c-0.2,0.1-0.4,0.1-0.6,0.1l0.6,0.1
		c1.7,0.7,4.2,0.9,6.5,0.8c2.6-0.2,4.7-0.9,6-2.1C108,105.6,102.8,105.6,98.8,106.6z"/>
	<path class="st0" d="M109.7,108.3c-4.5,1.3-7.3,0.8-9.7,0.4c-0.2,0-0.5-0.1-0.7-0.1c-0.1,0.2-0.4,0.3-0.6,0.4h0.1
		c0.3,0.1,0.6,0.1,0.9,0.3c0.9,0.2,2,0.1,3.1,0h0.1c0,0,0.1,0,0.1,0.1c0,0,0,0.1-0.1,0.1c-1,0.2-2,0.3-3,0.2l-0.3,0.2l1,0.1h0.3
		c3.4,0.2,6.8,0.4,9.8-1.6C110.3,108.3,109.8,108.3,109.7,108.3z"/>
	<path class="st0" d="M104.6,110.5c-0.7,0-3.5-0.1-5.4-0.4l-0.4,0.2c1.1,0.3,2.5,0.5,3.9,0.5c0,0,0.1,0,0.1,0.1s0,0.1-0.1,0.1
		c-1,0.2-3.1-0.1-4.3-0.3h-0.1c0.1,0.1,0.3,0.3,0.4,0.4v0.1c3.6,1.1,7.9,0.5,9.9-0.3C107.6,110.2,106.5,110.2,104.6,110.5z"/>
	<path class="st0" d="M105.6,111.9c-0.5,0-2.1,0.1-3.5,0c-0.7-0.1-1.4-0.2-2-0.3c-0.5-0.1-1-0.2-1.2-0.2c-0.1,0.1-0.2,0.1-0.3,0.1
		c0.7,0.2,2.1,0.6,3.3,0.7c0.9,0.1,2.2,0.1,2.2,0.1s0.1,0,0.1,0.1c0,0,0,0.1-0.1,0.1c0,0-1.2,0.1-2.4,0.1c-1.7-0.1-3.5-0.7-3.7-0.9
		c-0.3,0.1-0.6,0.2-0.9,0.3c1,0.4,2.1,0.8,3.3,1.1c0.4,0.1,0.8,0.1,1.2,0.1c0.3,0,0.7,0.1,1.1,0.1c1.5,0.1,3.6-0.1,4.9-0.8
		C107.2,112.4,106.2,111.8,105.6,111.9z"/>
	<path class="st0" d="M105.5,115.2c-0.4-0.6-1-1-1.9-1.4c-2.7-0.3-4.8-0.7-6.6-1.4c0.2,0.2,0.3,0.4,0.4,0.6c1.4,0.7,3.5,1.1,5.1,1.4
		c0.1,0,0.1,0,0.1,0.1c0,0,0,0.1-0.1,0.1c-2-0.1-3.8-0.5-5.6-1.1c-0.4,0.1-0.9,0.1-1.4,0.1c2,1.4,5,1.9,6.5,1.9
		C103.4,115.6,104.5,115.7,105.5,115.2z"/>
	<path class="st0" d="M100.6,116.2c-1.9-0.1-3.5-1-5-1.8c-0.3,0.1-0.6,0.1-0.9,0.1c1.4,1,4.7,2.6,6.5,2.7c1.1,0.1,1.9,0,2.5-0.3
		c-0.4-0.3-0.9-0.6-1.4-0.8c-0.1-0.1-0.3-0.2-0.5-0.3c-1.9-0.2-3.8-0.8-5.6-1.4c1.2,0.8,2.6,1.2,4.1,1.6l0.2,0.1
		C100.7,116,100.7,116,100.6,116.2C100.7,116.1,100.7,116.2,100.6,116.2z"/>
	<path class="st0" d="M93.4,117.6h-0.2c0.7,1,1.7,1.6,2.7,2.1c0.6,0.6,1.3,0.9,2.8,0.9c-0.1-0.7-0.8-1.5-1.3-2
		c-1.1-0.5-2.1-0.9-2.9-1.8c0,0,0,0,0-0.1s0,0,0-0.1h0.1c1.8,1.2,3.7,2.1,7.2,2c-0.2-0.1-0.3-0.3-0.5-0.5c-0.3-0.3-0.6-0.7-1-0.8
		c-2.2-0.4-4-1.6-5.3-2.5l0.2,0.2c0,0,0,0,0,0.1c-0.2,0.1-0.4,0.1-0.6,0.1c0.9,0.7,2.2,1.3,3.6,1.9l0.1,0.1c0,0-0.1,0.1-0.1,0
		c-1.4-0.5-2.9-1-4.1-2c-0.2,0.1-0.4,0-0.5,0c0.3,0.3,0.4,0.6,0.5,1v0.1H94c-0.1,0-0.1,0-0.2,0s-0.1,0-0.2,0l2.6,2.3c0,0,0,0,0,0.1
		c0,0-0.1,0.1-0.1,0c-1.2-0.8-2-1.4-2.9-2.4l-0.5-0.1c0.1,0.2,0.3,0.4,0.4,0.7c0.1,0.2,0.2,0.4,0.3,0.5L93.4,117.6
		C93.4,117.5,93.4,117.5,93.4,117.6z"/>
	<path class="st0" d="M93.9,122.1c0-0.4-0.3-1.2-0.4-1.3c-1-0.7-2.3-2.2-2.5-2.4c-0.2,0-0.3-0.1-0.4-0.2c0.4,0.6,1,1.4,1.9,2.2
		c0,0,0,0,0,0.1c0,0,0,0,0,0.1s-0.1,0-0.1,0c-1-0.8-1.7-1.6-2.3-2.5c0,0.2,0,0.5-0.1,0.7c0,0,0,0.1-0.1,0.1c0,0-0.1,0-0.2,0
		c1.1,1.8,2.9,3.2,3.8,3.3C93.7,122.2,93.8,122.1,93.9,122.1z"/>
	<path class="st0" d="M89,120.2c1,0.9,2.6,2.1,3.5,2.1c-0.1-0.2-0.3-0.5-0.5-0.6c-0.8-0.6-1.4-1.2-1.8-1.9c0,0.1,0.1,0.1,0.1,0.2
		c0.2,0.3,0.4,0.7,0.4,0.8c0,0,0,0-0.1,0.1h-0.1c-0.4-0.6-1.2-1.6-1.4-2.3c-0.3-0.2-0.5-0.4-0.7-0.6v0.1c0,0.1,0,0.3-0.1,0.4
		c0,0,0,0-0.1,0.1c0,0,0,0-0.1,0c-0.4-0.2-0.7-0.4-1-0.6c0.3,0.9,0.7,1.9,1.3,2.9v0.1h-0.1c-0.5-0.7-0.8-1.4-1.2-2
		c-0.1-0.3-0.3-0.6-0.5-0.9c-0.2,0.2-0.4,0.3-0.6,0.4c-0.1,0.1-0.1,0.1-0.2,0.1c0.2,0.8,0.7,1.5,1.2,2.3v0.1c0,0,0,0,0,0.1
		s0,0.1,0,0.1h-0.1c-0.6-0.7-1.1-1.4-1.5-2.3c-0.1,0.1-0.3,0.2-0.4,0.2c-0.1,0-0.1,0-0.2,0.1c0.1,0.4,0.8,3.1,3.8,4.4
		c0-0.3,0-0.4,0-0.5c0-0.2,0-0.6-0.2-1c-0.1-0.1-0.3-0.2-0.4-0.4c0.5,0.4,1,0.8,1.7,1.2c0.1-0.2,0.2-0.5,0.2-0.7
		c0-0.3-0.1-0.6-0.2-0.7c-0.2-0.2-0.8-0.7-1-1C88.9,120.3,88.9,120.3,89,120.2C88.9,120.3,88.9,120.2,89,120.2z"/>
	<path class="st0" d="M84.4,119.2c-0.3,0.1-0.5,0.3-0.9,0.3c0.7,1.6,1.6,2.9,2.6,3.8c0.2,0.1,0.4,0.1,0.5,0.2
		c0.2-0.1,0.2-0.3,0.2-0.5s-0.1-0.3-0.1-0.3C85.3,121.5,84.6,120,84.4,119.2z"/>
	<path class="st0" d="M91.4,108.7c-0.1,0-0.2,0-0.2,0c1.9,1.4,5.8,2.6,8.4,0.9c-0.3-0.1-0.7-0.3-1-0.3c-0.8,0.3-2.4,0.4-2.8,0.3
		l-0.1-0.1c0,0,0-0.1,0.1-0.1c1.4-0.1,2.8-0.5,3.5-1c-0.9-0.1-1.7-0.1-2.6,0c-0.3,0-0.6,0.1-0.9,0.1c-0.1,0-0.1,0-0.1-0.1
		s0-0.1,0.1-0.1h0.1c1.1-0.2,3.1-0.6,3.4-1.1c-0.7-0.3-1.6-0.5-3.7-0.1c-1.7,0.3-3.1,0.7-3.5,0.7l0.1,0.1l0.1,0.1c0,0,0,0,0,0.1
		c0,0,0,0.1-0.1,0.1c-0.3,0-0.5,0.1-0.8,0.2c0.1,0.1,0.1,0.1,0.2,0.2C91.4,108.5,91.4,108.6,91.4,108.7z"/>
	<path class="st0" d="M91,111.1c1.6,1.8,3.6,2.4,6,2c-0.1-0.4-0.4-0.6-0.8-0.9c-1.2-0.1-2.3-0.3-3.1-0.7c0,0,0,0,0-0.1h0.1
		c2,0.5,3.6,0.5,5.4-0.2c-0.4-0.5-0.8-0.7-1.7-0.4c-1,0.3-4.8-0.9-5.8-1.7L91,111.1z"/>
	<path class="st0" d="M90.9,112c1.4,1.2,2.6,2.3,4.5,2.1l-0.1-0.1c-0.1-0.2-0.1-0.4-0.3-0.4c-0.3-0.2-0.6-0.3-0.9-0.4
		c-0.2,0-0.3-0.1-0.5-0.1c-0.7-0.3-2.2-1.3-2.6-1.6L90.9,112z"/>
	<path class="st0" d="M90.7,113c1.2,1.4,2.6,2.1,3.9,1.9l-0.7-0.6c-1.2-0.6-2.2-1.2-3-1.9L90.7,113z"/>
	<path class="st0" d="M90.3,114.2c0.9,1,2.1,1.8,3.3,1.9c-0.2-0.4-0.5-0.8-0.9-1.1c-0.3-0.2-0.5-0.4-0.8-0.5c-0.5-0.3-1-0.7-1.4-1.1
		L90.3,114.2z"/>
	<path class="st0" d="M92.8,117.3c-0.2-0.5-0.4-0.9-0.7-1.2c-0.3-0.3-0.7-0.6-1-0.9c-0.4-0.3-0.7-0.6-1.1-0.9
		c-0.2,0.3-0.4,0.6-0.5,0.8C90.3,116.2,91.4,117.5,92.8,117.3z"/>
	<path class="st0" d="M89.2,115.3c-0.1,0.2-0.2,0.4-0.3,0.5c0.6,1.1,1.2,1.9,2.1,2.3c0-0.1,0-0.1,0-0.2c0-0.4-0.2-1-0.3-1
		L89.2,115.3z"/>
	<path class="st0" d="M89.7,118.4c0-0.1,0-0.2,0-0.3c0-0.2-0.1-0.5-0.1-0.7c-0.3-0.4-0.5-0.8-0.8-1.2c0,0,0-0.1-0.1-0.2
		c-0.2,0.3-0.4,0.5-0.6,0.8C88.5,117.4,88.8,117.9,89.7,118.4z"/>
	<path class="st0" d="M87.6,117.4C87.5,117.4,87.5,117.5,87.6,117.4L87.6,117.4z"/>
	<path class="st0" d="M87.6,117.4c0.1,0.3,0.3,0.5,0.7,0.7V118c0-0.3-0.1-0.6-0.3-0.9C87.8,117.2,87.7,117.3,87.6,117.4z"/>
	<path class="st0" d="M83,119.2c4.1-0.7,5.7-3.6,7.2-6.1l0.1-0.1c0.3-0.9,0.4-1.8,0.4-2.6c0-0.1,0-0.3,0-0.4s0-0.3,0-0.4
		c0-1,0.1-1.8,1.3-2.3c4.6-1,10-2,15.3-1.8l-2.6-0.7c-3.9,0.2-8,0.8-12.6,1.8c-2.2,0.3-2.6,0.7-2.6,1.6c0,0.3,0,0.6,0.1,0.9
		c0.1,0.4,0.1,0.9,0.1,1.5c0,1.1-0.3,2.2-0.9,3.3c-3.1,3-4.8,3-6,3c-0.9,0-1.4,0.1-2.1,1.1c-0.9,1.8-1.3,4.1-1.8,6.3
		c-0.2,1-0.4,2.1-0.7,3.1c1.2-1.3,1.5-2.9,1.8-4.3C80.3,121.2,80.7,119.5,83,119.2z"/>
	<path class="st0" d="M-1.4,110c1.7-0.3,3.1-0.7,3.6-0.9c-0.1,0-0.2-0.1-0.3-0.1c-0.8-0.2-2.4-0.6-2.9-1.1c-0.6,0.2-3.7,0.3-6.2,0.4
		c-0.1,0-5.7,0.2-5.8,0.2v-0.1c0,0,0-0.1,0.1-0.1c1.1-0.1,2.4-0.2,3.5-0.3c2.5-0.2,5.1-0.5,7.2-0.8c-0.9-0.6-1.5-1.3-2-1.9
		c-0.8,0-10.9,1.3-15.3,4.1c-0.1,0-0.1,0.1-0.1,0.1l0.1,0.1C-16.9,110.1-5.5,110.5-1.4,110z"/>
	<path class="st0" d="M5.5,112.7L1.9,112c-4.2,0.6-7.6,0.5-11.5-0.1c-0.1,0-0.1,0-0.1-0.1l0.1-0.1c4.1,0.2,7.5,0.1,9.9-0.4
		c-0.3-0.1-1-0.5-1.2-0.8c-0.3,0-0.7,0-1.3,0.1c-1.4,0-3.6,0.1-6,0.1c-4.2,0-8.1-0.1-10.2-0.2c-0.1,0-0.1,0-0.1,0s0,0.1,0.1,0.1
		c2.5,1.9,6.6,3,11.6,3.3C-2.6,114.1,2,113.7,5.5,112.7z"/>
	<path class="st0" d="M0.1,117.1c2-0.3,4.3-0.9,5.6-1.4c-1.3-0.2-2.5-0.5-3.1-0.7c-0.5,0.1-1.1,0.2-1.7,0.3
		c-1.1,0.2-2.4,0.5-3.7,0.6c-1.4,0.1-3-0.1-4.9-0.4c0,0-0.1,0-0.1-0.1c0,0,0-0.1,0.1-0.1c2.4,0.2,4.7,0.1,6.5-0.1
		c1.8-0.3,2.9-0.7,3.1-0.8l0.5-0.5c-4.1,0.7-10,0.7-14.9-0.1c-0.8-0.2-1.5-0.2-2.2-0.3c-0.5-0.1-1-0.1-1.4-0.2c-0.1,0-0.1,0-0.1,0
		l-0.1,0.1v0.1c0.7,1.4,3.1,2.5,6.5,3.2C-6.5,117.4-2.8,117.6,0.1,117.1z"/>
	<path class="st0" d="M6.1,118.3c-0.3-0.1-1-0.3-1.2-0.5c-0.6,0.2-6.4,1.8-10.2,1.2c0,0-0.1,0-0.1-0.1c0-0.1,0-0.1,0.1-0.1
		c1.5,0,2.8-0.1,4-0.2c2.9-0.3,5-0.8,5.7-1.1c-0.6-0.3-0.9-0.5-0.9-0.6c-1,0.3-4.4,1-7.9,1.1c-3,0-5.7-0.3-7.2-0.5
		c-0.3,0-0.5-0.1-0.7-0.1c-0.1,0-0.1,0.1-0.1,0.1c0,0.1,0,0.2,0,0.2c1.5,1.6,5.6,2.9,8.6,2.9C-0.4,120.6,5.2,119.1,6.1,118.3z"/>
	<path class="st0" d="M9.8,120.8c-0.6-0.2-1.4-0.5-2.1-1c-0.2,0.1-0.4,0.2-0.7,0.3c-1.9,1-3.7,2-6,1.9c0,0-0.1,0-0.1-0.1
		c0,0,0-0.1,0.1-0.1c3.2-0.7,5.6-2,7.4-3.1c-0.5,0-1.2-0.1-1.8-0.4c-2.1,1.2-5.9,2.3-9,2.5c-0.9,0.1-1.7,0.4-2.5,0.6
		c-0.3,0.1-0.6,0.2-0.9,0.3c-0.1,0-0.1,0.1-0.1,0.1c0,0.1,0.1,0.1,0.1,0.1c3,1.6,6.2,2.1,9.4,1.5C6,123,8.1,122.1,9.8,120.8z"/>
	<path class="st0" d="M19.7,125.1c0.1-0.4,0.3-0.7,0.5-0.9c-0.3,0.1-0.7,0.2-1,0.3c-1.4,1-3.4,2.2-5.4,2.3c-0.1,0-0.1,0-0.1-0.1
		c0,0,0-0.1,0.1-0.1c1.6-0.5,2.3-1,3.1-1.6c0.3-0.2,0.6-0.4,1-0.6c-0.7-0.1-1.3-0.4-2.3-0.9c0,0,0,0-0.1-0.1c0,0,0,0,0-0.1l0.2-0.3
		c-0.3,0-0.7,0-1,0c-1.4,0.9-2.8,1.5-4.6,2.2c-1,0.4-2,0.9-3.2,1.4c0.1,0.2,0.1,0.3,0.1,0.3l0.1,0.1c2,0.6,5.5,0.8,8.9,0.5
		s6-1,6.9-1.9C22,125.7,20.5,125.6,19.7,125.1z"/>
	<path class="st0" d="M13.9,122.9c-0.6-0.1-1.2-0.2-1.7-0.4c-1.5,0.8-2.6,1.1-3.9,1.5c-0.5,0.1-0.9,0.3-1.4,0.5c-0.1,0-0.1,0-0.1,0
		s0-0.1,0.1-0.1c0.6-0.3,1.1-0.5,1.5-0.7c1.2-0.5,2.1-0.9,3-1.6l-0.4-0.2c0,0,0,0,0-0.1v-0.1c0.3-0.2,0.6-0.4,1-0.6
		c-0.6,0-1.2-0.1-1.7-0.1c-0.9,0.9-2.8,1.6-4.8,2.4c-1.4,0.6-2.8,1.1-4,1.8c-0.1,0.1-0.1,0.1-0.1,0.1s0.1,0.1,0.2,0.1
		C6.4,126.7,13.4,124.2,13.9,122.9z"/>
	<path class="st0" d="M2.4,108.5c2.9,0.6,5.8,0.4,7.3,0.2c2.1-0.2,3.3-0.6,3.6-0.8c-0.6-0.3-1.1-0.5-1.4-0.9
		c-2.5,0.3-5.4,0.2-8.3-0.4l-0.1-0.1c0-0.1,0-0.1,0.1-0.1c3.7,0.3,6.5,0.3,8.1-0.1c2.5-0.7,4.4-1.2,6.2-1.5c-1.6-0.1-6.1-0.5-11-0.5
		c-3.6,0-7.4,0.2-10.5,0.8C-2.3,106.8-0.3,107.9,2.4,108.5z"/>
	<path class="st0" d="M3.6,109.1c-0.2,0.1-0.4,0.1-0.5,0.1c-1.2,0.3-2.5,0.7-3.5,1c1.9,1.2,4.7,1.7,6.2,1.9c3-0.2,9-1.1,9.9-2.2
		c-0.4-0.1-1-0.3-1.6-0.7c-2,0.9-3.9,1.5-6.7,1.2c0,0-0.1,0-0.1-0.1s0-0.1,0.1-0.1c2.7-0.2,4.8-0.7,6.2-1.4
		c-0.3-0.1-0.5-0.3-0.7-0.5C11.6,109.1,5.6,109.5,3.6,109.1z"/>
	<path class="st0" d="M16.5,112.9l-0.7-0.3c0,0,0,0,0-0.1v-0.1l1.4-0.7c-0.3,0-0.7-0.1-0.9-0.2c-0.3,0.2-1.8,0.8-2.2,0.9
		c-0.7,0.3-2.4,0.9-3.5,1.1c-0.5,0.1-0.9,0.1-0.9-0.1c0,0,0,0,0-0.1c0,0,0-0.1,0.1-0.1h0.1c0.3,0,3.5-0.9,5.3-1.7
		c0.4-0.1,0.6-0.4,0.7-0.5l-0.8-0.3c-1.2,0.5-2.8,0.7-4.5,1c-1.3,0.2-2.6,0.4-3.8,0.7c-1,0.3-2.8,0.8-3.9,1.6
		C6.4,116,10.8,115.5,16.5,112.9z"/>
	<path class="st0" d="M4.1,116.6c3.7,2.6,8.2,2.2,14-1.4H18c0,0,0,0,0-0.1c0.4-0.6,1-1.1,1.8-1.5h-0.7c-0.4,0.2-6,2.9-7.6,2.7
		c0,0-0.1,0-0.1-0.1s0-0.1,0-0.1c1.2-0.3,5.6-2,6.8-2.7c-0.5-0.1-1-0.2-1.5-0.4c-0.7,0.3-5.6,2.7-9.9,2.7c-0.8,0.3-1.6,0.5-2.3,0.7
		C4.4,116.6,4.2,116.6,4.1,116.6z"/>
	<path class="st0" d="M20.2,117.4l-0.6-0.5v-0.1c0.4-0.4,0.8-0.6,1.3-0.9h-0.5c-0.2,0.1-1.6,0.9-3,1.7c-3.1,1.7-3.4,1.4-3.5,1.2
		c0,0,0-0.1,0.1-0.1c0,0,0,0,0.1,0c0.3,0,4.5-2.2,5.6-3c-0.5,0-0.9-0.2-1.2-0.4c-2.3,1.9-5.6,2.9-8.2,3.6c-0.7,0.2-1.4,0.4-2,0.6
		C12.6,121.7,14,121.1,20.2,117.4z"/>
	<path class="st0" d="M18.6,122c1.9-0.8,3.5-2.1,4.4-2.9c-0.5,0.1-1.1,0-1.2,0c-0.2,0.1-1.3,0.8-2.4,1.4c-2.2,1.2-2.7,1-2.8,0.9
		c0,0,0-0.1,0.1-0.1c0,0,0,0,0.1,0c0.3,0,3.2-1.3,5-2.6c0.4-0.4,0.7-0.7,0.9-1c-0.8,0.1-1.4,0-1.9,0h-0.2c-2.8,2.3-5.6,3.3-8.2,4.2
		c-0.1,0.1-0.3,0.1-0.4,0.1C14.1,122.8,16.4,122.9,18.6,122z"/>
	<path class="st0" d="M19.2,124c2.6-0.4,5.2-2.6,5.6-3.6l0.5-1.2c-0.9,0.8-3.9,3.3-4.9,3.2c0,0-0.1,0-0.1-0.1v-0.1
		c0.8-0.4,3.4-1.9,4.4-3.4c-0.3,0.1-0.7,0.1-1,0.1c-0.1,0-0.2,0-0.3,0c-0.7,0.8-1.9,1.6-3,2.3c-1.8,1.1-2.6,1.3-3.1,1.4
		c-0.1,0-0.3,0.1-0.4,0.1c-0.5,0.2-0.7,0.4-0.8,0.5C17.3,124,18.4,124.2,19.2,124z"/>
	<path class="st0" d="M27.9,121.2l0.2-0.9c-0.3,0.1-0.7,0.4-1.2,0.5c-0.8,1.2-3,2.9-3.5,2.9c0,0-0.1,0-0.1-0.1c0,0,0,0,0.1-0.1
		c1.6-1.1,2.5-2,2.8-2.7c-0.4,0.1-0.8,0.1-1.2,0c-1.1,1.3-2.4,2.4-3.8,2.9c-0.7,0.3-0.9,0.8-0.9,1c1.1,0.4,2,0.5,2.8,0.4
		C25.8,124.7,27.4,122,27.9,121.2z"/>
	<path class="st0" d="M30,122.4c-0.1,0-0.1,0-0.2,0c0,0-0.1,0-0.1-0.1s0-0.2,0-0.3c0-0.3,0.1-0.7,0.2-1l-0.8,0.6
		c-0.7,1.3-1.4,2.4-2.2,3.2h-0.1c0,0,0,0,0-0.1s0,0,0-0.1c0.8-1,1.5-2.1,1.9-3.1l-0.7,0.1c-0.5,1-1.2,1.9-2.3,2.7
		c-0.2,0.3-0.6,0.9-0.6,1.6c0,0.1,0,0.3,0.1,0.4C27.4,125.8,29,123.9,30,122.4z"/>
	<path class="st0" d="M32.8,122.2c-0.4,0.2-0.8,0.5-1.3,0.5c-0.4,0.9-1,2-1.9,3c-0.1,0-0.1,0-0.1,0v-0.1c0,0,0,0,0-0.1
		c0.6-0.9,1.4-2.2,1.9-3.5c-0.3,0.2-0.7,0.4-0.9,0.4c-0.2,0.3-1,1.6-1.8,2.3c-0.7,0.6-0.8,2.4-0.8,2.8c1.2-0.2,2.1-1.1,2.8-1.8
		C31.5,124.8,32.2,123.5,32.8,122.2z"/>
	<path class="st0" d="M34.6,122.8c-0.2,0.1-0.5,0.2-0.6,0.2h-0.1c-0.2-0.2-0.3-0.4-0.3-0.6c-0.4,1.1-0.8,2.3-1.8,3.3h-0.1v-0.1
		c0,0,0,0,0-0.1c0.9-1.2,1.5-2.6,1.7-3.7c-0.1,0.1-0.2,0.1-0.3,0.1c0,0.1-0.1,0.3-0.2,0.5c-0.5,0.9-1.4,2.7-2.1,3.3
		c-0.3,0.3-0.5,1.8-0.5,2.5c0,0.1,0,0.1,0,0.1c1.1-0.3,1.8-1.1,2.4-1.8c0.1-0.1,0.2-0.2,0.3-0.3C33.7,125.2,34.3,124,34.6,122.8z"/>
	<path class="st0" d="M35.4,123.8c-0.3,1-0.9,1.9-1.5,2.8h-0.1v-0.1c0.7-1.1,1.2-2,1.4-3c0-0.1,0-0.2,0-0.3c0-0.2,0-0.5,0.1-0.7
		c-0.2,0.1-0.2,0.1-0.3,0.2c-0.1,0.3-0.3,1.1-0.8,2.1c-0.3,0.7-0.7,1.4-1.2,2.1c-0.1,0.2-0.2,0.5-0.2,0.8c0,0.4,0.1,0.9,0.2,1.1
		c1.8-1.6,2.7-3.6,3.5-5.6C36.2,123.4,35.8,123.6,35.4,123.8z"/>
	<path class="st0" d="M38.4,123.2L38.4,123.2c-0.2,0.1-0.4,0.4-0.8,0.6c-0.3,0.9-0.9,2.3-1.5,3.1c0,0-0.1,0.1-0.1,0c0,0,0,0,0-0.1
		c0,0,0,0,0-0.1c0.7-1.1,0.9-1.8,1.2-2.9c-0.1-0.2-0.1-0.4-0.2-0.5c-0.6,1.5-1.2,2.8-1.7,3.6c-0.1,0.2-0.2,0.5-0.2,0.9
		c0,0.5,0.1,1,0.2,1.4c1.7-1.4,2.6-3.7,3.1-5.6C38.4,123.5,38.4,123.3,38.4,123.2z"/>
	<path class="st0" d="M41.8,122.8c-0.1,0.3-0.1,0.6-0.2,0.9c-0.1,0.4-0.2,0.9-0.3,1.3l-0.3,1.3c0,0.1-0.1,0.1-0.1,0.1
		s-0.1,0-0.1-0.1c0.2-1,0.5-2.4,0.6-3.4c-0.2,0.1-0.4,0.3-0.7,0.3c-0.1,0-0.1,0-0.1-0.1s0-0.3,0-0.4s0-0.1,0-0.2
		c-0.1,0.1-0.1,0.1-0.2,0.2c-0.1,0.1-0.2,0.1-0.3,0.2L40,123c-0.1,0.3-0.2,0.6-0.3,0.9c-0.3,0.7-0.5,1.4-0.8,2.2c0,0-0.1,0.1-0.1,0
		c0,0-0.1,0-0.1-0.1c0.2-0.9,0.6-2.2,0.8-2.7c-0.3,0.2-0.6,0.4-1,0.5l-0.1,0.3c-0.4,1.4-0.8,2.4-0.8,3.4c0,0.5,0.1,1,0.3,1.5
		c0.9-0.7,1.3-1.9,1.8-3c0.1-0.4,0.3-0.7,0.4-1.1c0,0,0.1-0.1,0.1,0v0.1c-0.2,0.6-0.3,1.3-0.3,1.9c0,0.7,0.1,1.4,0.4,2
		c0.5-0.7,0.9-1.5,1.2-2.5c0.1-0.4,0.2-0.8,0.3-1.3c0.1-0.3,0.1-0.7,0.1-1.1c0.2-0.3,0.2-0.5,0.2-0.8C42,123.1,41.9,123,41.8,122.8z
		"/>
	<path class="st0" d="M43.1,122.8c0.2,0.9,0.3,1.7,0.3,2.7c0,0.2,0,0.4,0,0.6c0,0.1,0,0.1-0.1,0.1s-0.1,0-0.1-0.1
		c0-0.2,0-0.4-0.1-0.5c-0.1-0.9-0.2-1.8-0.4-2.6c-0.1,0.1-0.2,0.1-0.3,0.2c0,0.9-0.2,2.1-0.4,2.9c0.3,1,0.7,1.5,1.2,2.1
		c0.5-1.1,0.6-2,0.6-2.8c0-0.9-0.2-1.6-0.6-2.8C43.2,122.7,43.2,122.8,43.1,122.8z"/>
	<path class="st0" d="M12.4,106.7c1.3,1.1,3.5,1.9,6,2.1c2.3,0.2,4.8-0.1,6.5-0.8l0.6-0.1c-0.2,0-0.4-0.1-0.6-0.1
		c-1.4,0-4.2-0.5-6.2-0.9c0,0-0.1,0-0.1-0.1l0.1-0.1c2.1,0.3,4.2,0.7,6,0.7c-0.1-0.1-0.3-0.3-0.3-0.5c0,0,0-0.1,0.1-0.1
		s0.1-0.1,0.2-0.1c0.1-0.1,0.3-0.2,0.5-0.2C21.1,105.6,16,105.6,12.4,106.7z"/>
	<path class="st0" d="M24.2,109.3c0.2-0.1,0.5-0.2,0.9-0.3h0.1c-0.2-0.1-0.5-0.2-0.6-0.4c-0.2,0.1-0.4,0.1-0.7,0.1
		c-2.4,0.4-5.2,0.9-9.7-0.3c-0.1,0-0.6,0-0.9,0.1c2.9,2,6.4,1.8,9.7,1.6h0.3l1-0.1l-0.2-0.4c-1,0.1-2,0-3-0.2c-0.1,0-0.1,0,0-0.1
		C22.3,109.4,23.3,109.5,24.2,109.3z"/>
	<path class="st0" d="M25,111L25,111c0.1-0.2,0.2-0.4,0.4-0.5h-0.1c-1.2,0.2-3.2,0.5-4.2,0.3v-0.1c1.4,0.1,2.8-0.2,3.9-0.5l-0.4-0.2
		c-1.9,0.3-4.7,0.5-5.4,0.5c-1.9-0.3-3-0.4-4.1,0.2C17.1,111.4,21.4,112.1,25,111z"/>
	<path class="st0" d="M22.2,112.3c1.1-0.1,2.6-0.5,3.3-0.7c-0.1,0-0.3-0.1-0.3-0.1c-0.1,0-0.6,0.1-1.1,0.2c-0.6,0.1-1.4,0.2-2.1,0.3
		c-1.4,0.1-3.1,0.1-3.5,0c-0.7-0.1-1.6,0.5-1.9,0.7c1.3,0.6,3.3,0.8,4.9,0.7c0.3-0.1,0.7-0.1,1-0.1c0.4,0,0.8-0.1,1.2-0.1
		c1.2-0.3,2.3-0.7,3.3-1.1c-0.2-0.1-0.6-0.1-0.9-0.3c-0.3,0.1-2,0.8-3.7,0.9c-1.2,0.1-2.5-0.1-2.5-0.1c0-0.1,0-0.1,0.1-0.2
		C20.1,112.4,21.3,112.4,22.2,112.3z"/>
	<path class="st0" d="M21.5,114.2c1.6-0.1,3.6-0.5,5-1.2c0.1-0.2,0.3-0.4,0.5-0.6c-1.7,0.7-3.9,1.1-6.6,1.4
		c-0.9,0.4-1.5,0.8-1.8,1.2c0.9,0.5,2,0.5,3.5,0.3c1.5-0.1,4.4-0.5,6.4-1.9c-0.5,0-1,0-1.4-0.1c-1.8,0.7-3.6,1-5.6,1.1
		C21.4,114.4,21.4,114.4,21.5,114.2C21.4,114.2,21.4,114.2,21.5,114.2z"/>
	<path class="st0" d="M23.4,116l0.2-0.1c1.5-0.4,2.9-0.8,4.1-1.6c-1.8,0.6-3.7,1.2-5.6,1.4c-0.2,0.1-0.3,0.2-0.5,0.3
		c-0.5,0.3-1,0.5-1.4,0.9c0.6,0.3,1.4,0.4,2.5,0.3c1.8-0.1,5.2-1.7,6.5-2.7c-0.3,0-0.5,0-0.8-0.1c-1.5,0.8-3.1,1.6-5,1.8
		c-0.1,0-0.1,0-0.1-0.1C23.3,116.1,23.3,116,23.4,116z"/>
	<path class="st0" d="M29.6,116.9c-0.8,0.9-1.8,1.3-2.9,1.8c-0.5,0.5-1.1,1.3-1.3,2c1.4-0.1,2.1-0.5,2.9-1c1-0.5,2-1,2.7-2l-0.1-0.1
		c0,0-0.1,0-0.1-0.1c0,0,0,0,0-0.1c0.1-0.1,0.2-0.3,0.3-0.5c0.1-0.2,0.2-0.5,0.4-0.7l-0.5,0.2c-0.9,1-1.7,1.6-2.9,2.4H28v-0.1
		l2.6-2.3c-0.1,0-0.1,0-0.2,0s-0.1,0-0.2,0h-0.1c0,0,0,0,0-0.1c0-0.4,0.2-0.7,0.5-1c-0.2,0.1-0.3,0.1-0.5,0c-1.2,1-2.7,1.5-4.1,2
		c-0.1,0-0.1,0-0.1,0s0-0.1,0.1-0.1c1.4-0.6,2.7-1.2,3.6-1.9c-0.2,0-0.4,0-0.6-0.1c0,0,0,0,0-0.1l0.2-0.2c-1.3,1-3.1,2.1-5.4,2.5
		c-0.4,0.1-0.7,0.5-1,0.8c-0.1,0.2-0.3,0.3-0.5,0.5c3.5,0.1,5.4-0.7,7.2-2c0.1,0,0.1,0,0.1,0S29.6,116.7,29.6,116.9
		C29.6,116.8,29.6,116.8,29.6,116.9z"/>
	<path class="st0" d="M32.8,118.3c0-0.1,0-0.1,0-0.2c0-0.3,0.1-0.5,0.1-0.8v-0.1c-0.9,1-1.9,2-3.1,2.9c-0.1,0-0.1,0-0.1,0s0,0,0-0.1
		c0,0,0,0,0-0.1c1.1-0.8,1.9-1.6,2.5-2.3c-0.2,0-0.4,0.1-0.6,0.1c-0.1,0.2-0.6,1.1-2.8,2.4c-0.2,0.1-0.4,0.9-0.5,1.3
		c1.9-0.5,2.9-1.5,4-2.6C32.4,118.6,32.6,118.5,32.8,118.3z"/>
	<path class="st0" d="M30.4,122.1c0.9-0.2,2.7-1.6,3.8-3.3c-0.1,0-0.2,0-0.2,0s-0.1,0-0.1-0.1c-0.1-0.2-0.1-0.5-0.1-0.7
		c-0.5,0.9-1.3,1.6-2.2,2.5h-0.1c0,0,0,0,0-0.1c0,0,0,0,0-0.1c0.9-0.8,1.5-1.6,1.9-2.2c-0.1,0.1-0.2,0.1-0.4,0.2
		c-0.2,0.2-1.4,1.7-2.5,2.4c-0.1,0.2-0.4,0.9-0.4,1.2c0,0.1,0,0.1,0,0.1C30.2,122.2,30.3,122.2,30.4,122.1z"/>
	<path class="st0" d="M35.6,118.5L35.6,118.5C35.5,118.5,35.5,118.5,35.6,118.5c-0.2-0.2-0.2-0.4-0.2-0.5c0-0.1,0-0.1,0-0.1
		c-0.2,0.2-0.4,0.4-0.7,0.6c-0.2,0.7-0.9,1.8-1.3,2.3c0,0-0.1,0.1-0.1,0c0,0,0,0,0-0.1c0.1-0.1,0.2-0.4,0.4-0.8
		c0-0.1,0.1-0.1,0.1-0.2c-0.5,0.7-1,1.3-1.8,1.8c-0.1,0.1-0.4,0.5-0.5,0.6c0.9-0.1,2.4-1.3,3.3-2.1h0.1v0.1c-0.2,0.3-0.7,0.8-0.9,1
		c-0.1,0.1-0.2,0.3-0.2,0.6c0,0.3,0.1,0.5,0.2,0.7c2.7-1.4,3.5-4,3.7-4.4c-0.2-0.1-0.4-0.2-0.6-0.4c-0.2,0.3-0.3,0.6-0.5,0.9
		c-0.3,0.7-0.7,1.4-1.2,2h-0.1l-0.1-0.1c0.6-0.6,1.1-1.6,1.4-2.5C36.3,118.2,36,118.4,35.6,118.5z"/>
	<path class="st0" d="M37.9,118.5c-0.7,1.7-1.5,2.9-2.4,3.6c-0.1,0.4-0.2,0.8-0.2,1c0,0.1,0,0.2,0,0.3c3-1.3,3.7-3.9,3.8-4.4
		c-0.1,0-0.1-0.1-0.2-0.1c-0.1-0.1-0.3-0.1-0.4-0.2c-0.5,0.8-0.9,1.6-1.5,2.2c0.5-0.8,1-1.5,1.2-2.3C38.1,118.5,38,118.5,37.9,118.5
		z M36.9,121L36.9,121c-0.1,0-0.1,0-0.1-0.1C36.8,120.9,36.9,120.9,36.9,121L36.9,121z"/>
	<path class="st0" d="M37.2,122.6c-0.1,0.1-0.1,0.2-0.1,0.3c0,0.2,0.1,0.4,0.1,0.6l0.1-0.1c0.1-0.1,0.3-0.1,0.4-0.3
		c1-0.8,1.8-2.1,2.6-3.7c-0.3-0.1-0.7-0.2-0.9-0.4C39.3,119.9,38.6,121.5,37.2,122.6z"/>
	<path class="st0" d="M40.8,119.6c-0.3,0.4-1.3,2.5-1.8,2.9c-0.3,0.3-0.4,0.7-0.4,0.9c0,0.1,0,0.1,0,0.1c0.6-0.3,1.1-0.5,1.5-0.9
		c0.5-0.3,0.7-0.6,0.7-0.7l0.1-0.1l0.1,0.1l-0.1,0.3c0,0.1,0,0.4,0,0.6c0,0,0,0,0,0.1c0.2-0.1,0.8-0.5,1.2-1c0.4-0.5,0.7-1,0.7-1.1
		C42.3,119.8,41.4,119.6,40.8,119.6z"/>
	<path class="st0" d="M42.2,122.9c0.3,0,0.6-0.2,0.8-0.4s0.3-0.3,0.3-0.4c0-0.2,0-0.9-0.3-1.2c-0.1,0.1-0.3,0.4-0.9,1.3
		C42.1,122.5,42.1,122.9,42.2,122.9z"/>
	<path class="st0" d="M32,107.9L32,107.9c-0.2-0.2-1.7-0.5-3.4-0.8c-2.1-0.4-3-0.2-3.7,0.1c0.4,0.5,2.4,0.9,3.4,1.2h0.1
		c0,0,0.1,0,0.1,0.1l-0.1,0.1c-0.3,0-0.6-0.1-0.9-0.1c-0.9-0.1-1.7-0.2-2.6,0c0.7,0.6,2,1,3.4,1c0,0,0.1,0,0.1,0.1
		c0,0,0,0.1-0.1,0.1c-0.5,0.1-2.1,0-2.8-0.3c-0.3-0.1-0.7,0.1-1,0.3c2.5,1.8,6.4,0.6,8.4-0.9c-0.1,0-0.1,0-0.2,0s-0.1,0-0.1-0.1
		v-0.1c0.1-0.1,0.1-0.1,0.1-0.2c-0.3-0.2-0.5-0.2-0.8-0.2c0,0-0.1,0-0.1-0.1c0,0,0,0,0-0.1C31.9,107.9,31.9,107.9,32,107.9z"/>
	<path class="st0" d="M32.9,111.2l-0.1-2c-0.9,0.7-4.7,1.9-5.7,1.6c-0.9-0.3-1.3-0.1-1.7,0.4c1.8,0.6,3.4,0.7,5.4,0.2
		c0,0,0.1,0,0.1,0.1c0,0.1,0,0.1-0.1,0.1c-0.8,0.4-1.9,0.5-3.1,0.7c-0.3,0.3-0.6,0.5-0.8,0.9c0.9,0.2,1.7,0.2,2.4,0.1
		c-0.1,0.1-0.3,0.1-0.3,0.2c-0.1,0.1-0.3,0.3-0.4,0.4l-0.1,0.1c1.8,0.3,3.1-0.9,4.5-2.1v-0.4c-0.3,0.2-1.1,0.8-1.8,1.1
		C31.8,112.3,32.4,111.9,32.9,111.2z"/>
	<path class="st0" d="M30.1,114.3l-0.7,0.6c1.4,0.1,2.7-0.5,3.9-1.9l-0.1-0.6C32.3,113.2,31.3,113.8,30.1,114.3z"/>
	<path class="st0" d="M32,114.5c-0.3,0.2-0.5,0.4-0.8,0.5c-0.4,0.3-0.7,0.7-0.8,1.1c1.2-0.1,2.5-0.9,3.3-1.9l-0.3-0.8
		C33,113.8,32.5,114.2,32,114.5z"/>
	<path class="st0" d="M33,115.3c-0.3,0.3-0.7,0.5-1,0.9c-0.3,0.3-0.5,0.7-0.7,1.2c1.3,0.2,2.4-1.1,3.3-2.2c-0.2-0.2-0.3-0.5-0.5-0.8
		C33.7,114.7,33.3,115,33,115.3z"/>
	<path class="st0" d="M33.3,116.9c-0.1,0.1-0.3,0.6-0.3,1c0,0.1,0,0.1,0,0.2c0.9-0.4,1.5-1.2,2.1-2.3c-0.1-0.1-0.3-0.3-0.4-0.5
		L33.3,116.9z"/>
	<path class="st0" d="M35.1,116.3c-0.3,0.4-0.5,0.8-0.8,1.2c-0.1,0.2-0.1,0.5-0.1,0.7c0,0.1,0,0.2,0,0.3c1-0.4,1.3-1,1.6-1.6
		c-0.3-0.3-0.5-0.5-0.7-0.8C35.1,116.2,35.1,116.3,35.1,116.3z"/>
	<path class="st0" d="M35.1,116.1C35.1,116.1,35.1,116.2,35.1,116.1C35.1,116.2,35.1,116.1,35.1,116.1z"/>
	<path class="st0" d="M36.3,117.4c0-0.1-0.2-0.2-0.3-0.3c-0.2,0.3-0.3,0.6-0.3,0.9c0,0.1,0,0.1,0,0.1c0.3-0.2,0.5-0.4,0.7-0.6
		C36.4,117.5,36.4,117.4,36.3,117.4z"/>
	<path class="st0" d="M43.3,118c-0.7-1-1.2-1.1-2.1-1.1c-1.2-0.1-2.9-0.1-6-3.1c-0.6-1.1-0.9-2.2-0.9-3.3c0-0.6,0.1-1,0.1-1.5
		c0-0.3,0.1-0.6,0.1-0.9c0-0.8-0.4-1.3-2.6-1.6c-4.6-1-8.7-1.6-12.6-1.8l-2.6,0.7c5.3-0.2,10.7,0.8,15.3,1.8
		c1.2,0.5,1.3,1.3,1.3,2.3c0,0.1,0,0.3,0,0.4c0,0.1,0,0.3,0,0.4c0,0.8,0.1,1.6,0.4,2.6l0.1,0.1c1.5,2.5,3.1,5.3,7.2,6.1
		c2.4,0.4,2.7,2,3.1,3.9c0.3,1.4,0.6,2.9,1.8,4.3c-0.3-1-0.5-2.1-0.7-3.1C44.6,122,44.1,119.7,43.3,118z"/>
</g>
</svg>
