<?xml version="1.0" encoding="utf-8"?>
<!-- Generator: Adobe Illustrator 19.1.0, SVG Export Plug-In . SVG Version: 6.00 Build 0)  -->
<svg version="1.1" id="Слой_1" xmlns="http://www.w3.org/2000/svg" xmlns:xlink="http://www.w3.org/1999/xlink" x="0px" y="0px"
	 viewBox="-81 20.7 92.7 100" style="enable-background:new -81 20.7 92.7 100;" xml:space="preserve">
<style type="text/css">
	.st0{fill:#CE1E71;}
	.st1{fill:#EBECEC;}
	.st2{fill:#9D9E9E;}
	.st3{fill:#2B2A29;}
	.st4{fill:#FFF27B;}
	.st5{fill:#E5097F;}
	.st6{fill:#0078BF;}
	.st7{fill:#31161C;}
</style>
<g id="_1062276304">
	<path class="st0" d="M-40.3,42.7c-0.5-0.1-1-0.9-1.6-1L-40.3,42.7z"/>
	<path class="st1" d="M2.5,79.3c-4.8,0-9.5-0.6-14.2-1.4c-6-1.1-11.9-2.2-18-2.4c-10.8-0.5-21.5,0-32.1,2.2
		c-2.7,0.6-3.9,1.4-6.5,2.2c-0.5,0.2-1.8,2.9-1.6,3.6c3.3,10.6,6.3,19,9.5,29.7c0.6,1.9,1.7,2.9,3.5,3.5c5.7,1.9,11.5,2.6,17.5,2.7
		c5.7,0.1,11.3-0.1,17-0.4c4.3-0.3,8.5-1,12.6-2.6c1.4-0.5,2.3-1.4,2.8-2.9c2.7-8.7,5.4-17.3,8.1-26c0.8-2.7,1.6-5.4,2.5-8.2
		C3,79.3,2.7,79.3,2.5,79.3z"/>
	<path class="st0" d="M10,57.5c-0.8-4.7-3.5-8.4-7.6-10.8c-1.9-1.1-4.1-1.7-6.3-2.6c-0.2-2.9-1.4-5.6-4-7.7
		c-2.6-2.1-5.5-2.7-8.9-2.4c0-1,0-1.9,0-2.8c-0.2-3.8-2.9-7.8-6.5-9c-3.1-1-6.3-0.8-9.4,0.2c-0.5,0.2-0.9,0.5-1,1l2.7,1.2
		c2.5,0.8,4.5,3.7,2.5,6.4c-2,2.7-4.7,3.8-8,3.1c-1.6-0.3-3.1-1-4.7-1.5c-1-0.3-2.1-0.6-3.2-0.7c-0.4-0.1-1,0.3-1.1,0.6
		c-0.1,0.3,0.1,1,0.4,1.2c1.4,0.7,1.3,1.8,1.1,3.2c-0.3,1.8,0.3,2.7,2.3,4.7l1.6,1c2.3,0.4,3.4,0.5,5.8,0.7c0.9,0.1,1.7,0.1,2.6,0.2
		c-2.6,0.5-5.1,0.9-7.7,0.6c-3.1-0.4-6.1-1-9.1-1.5c-1-0.2-2-0.3-2.9-0.2c-3.2,0.4-5,3.9-3.7,7c0.1,0.3,0.3,0.6,0.5,1.1l0.4,0.3
		c1.2,0.7,3,0.7,4.3,0.9c6.3,1,12.7,1.9,19.1,2.9c1.8,0.3,3.7,0.8,5.5,0.9c2.3,0.1,4.6,0,6.9,0c-4.1,0.8-8.1,1.4-12.3,1.3
		c-4.2-0.1-8.3-0.4-12.4-0.6c-0.4,0-0.8-0.3-1.1-0.5c-1.3-1.1-2.8-1.7-4.5-1.8c-0.9-0.1-1.6,0.1-1.6,1.3c-1.8-0.3-3.6-0.6-5.3-0.8
		c-1.6-0.1-3.3-0.2-4.9-0.1c-2.9,0.3-5.1,2.1-6.8,4.5c-0.2,0.3-0.4,0.6-0.6,0.9c-0.7-0.9-1.5-0.7-2.2-0.1c-1.3,1-2.3,2.2-2.7,3.8
		c-0.1,0.5,0.1,1.1,0.2,1.7c0.5-0.1,1.1-0.1,1.6-0.3c0.7-0.4,1.1-1,1.9-1.7c-2.3,6.6,0.8,11.1,5.4,15.1c0.6-0.2,1.3-0.4,2.1-0.6
		c10.6-2.2,21.3-2.7,32.1-2.2c6.1,0.2,12,1.4,18,2.4c4.7,0.9,9.5,1.4,14.2,1.4c0.3,0,0.5,0,1,0.1c-0.1,0.5-0.3,1-0.4,1.4h0.5
		c2.7-2.2,4.7-5,5.8-8.3C10.9,67.6,10.9,62.6,10,57.5z"/>
	<path class="st2" d="M-54.9,39.2c-4.2,0-7.6,1.9-10.7,6c-1.1,1.4-1.6,3.3-1.5,5.7c0.1,1.3-0.7,1.9-1.3,2.2c-0.9,0.5-2,1.1-2.9,1.8
		c-2.5,1.9-5.2,4.3-6.4,7.7c-1.8,5.1-1.3,10.1,1.5,14.9c1.4,2.4,3.3,3.8,5.6,4.4c1.3,0.3,1.7,1.2,1.9,1.9c1.1,3.5,2.2,7,3.3,10.4
		c1.9,5.9,3.8,12.1,5.6,18.1c0.6,1.8,1.6,2.9,3.5,3.5c3.7,1.3,7.8,2,12.5,2.3c4.2,0.3,7.6,0.4,10.9,0.4c5.5,0,10.3-0.4,14.8-1.1
		c2.4-0.4,4.8-1.1,7.1-1.8l0.4-0.1c1.3-0.4,2.2-1.3,2.6-2.6c0.1-0.5,0.3-1,0.5-1.5c0.1-0.3,0.2-0.6,0.3-1c0.7-2.4,1.5-4.8,2.2-7.2
		c2.2-7.1,4.5-14.3,6.7-21.5c0.2-0.7,0.7-1.4,1.2-1.8c2.7-2.2,4.4-4.7,5.4-7.8C9.7,67.8,9.9,63,9,57.6c-0.8-4.3-3.2-7.7-7.1-10
		c-1.2-0.7-2.6-1.2-4-1.7c-0.7-0.3-1.4-0.5-2.2-0.8l-0.6-0.3v-0.7c-0.2-2.8-1.4-5.1-3.6-6.9c-2.2-1.8-4.7-2.4-8.1-2.1l-1.2,0.1V34
		c0-0.3,0-0.7,0-1c0-0.6,0-1.2,0-1.8c-0.1-3.5-2.7-7-5.8-8c-1.2-0.4-2.6-0.7-3.9-0.7c-1.5,0-3.1,0.3-4.8,0.8
		c-0.2,0.1-0.2,0.1-0.2,0.2s0,0.3,0.2,0.6c0.6,0.9,1,1.8,1.5,2.7c0.6,1.2,0.2,2.4-0.9,3.1c-1.6,1-2.9,1.4-4.1,1.4
		c-1.5,0-2.7-0.7-3.7-2.1c-0.7-1-1.5-1.4-2.7-1.4c-0.5,0-1,0.1-1.6,0.3c-3,0.9-5.5,2.7-7.9,6c-0.2,0.2-0.3,0.6-0.4,1
		c-0.1,0.6-0.2,1.3-0.2,2c0,0.3-0.1,0.6-0.1,1l-0.1,1h-1.7c-0.1,0-0.3,0-0.4,0L-54.9,39.2L-54.9,39.2z M-32.9,120.7
		c-3.3,0-6.8-0.1-11-0.4c-4.9-0.3-9.2-1.1-13-2.4c-2.6-0.9-4.1-2.4-4.9-4.9c-1.9-6.1-3.8-12.3-5.7-18.2c-1-3.4-2.2-6.9-3.3-10.4
		c-0.1-0.3-0.1-0.4-0.3-0.4c-2.9-0.7-5.3-2.5-7-5.4C-80,75.3-81,72-81,68.6c0-2.2,0.4-4.5,1.2-6.7c1.4-3.9,4.4-6.6,7.2-8.6
		c1-0.8,2.2-1.4,3.2-2c0.1-0.1,0.1-0.1,0.2-0.1v-0.1c-0.1-2.9,0.5-5.3,1.9-7.1c3.5-4.6,7.6-6.8,12.4-6.8h0.1h0.1
		c0.1-0.7,0.1-1.4,0.3-2.1c0.1-0.5,0.3-1.3,0.8-1.9c2.7-3.6,5.6-5.8,9.1-6.8c2.9-0.8,5.2-0.1,6.7,2c0.7,1,1.5,1.2,2,1.2
		c0.8,0,1.8-0.3,3-1.1c0.1,0,0.1-0.1,0-0.3c-0.4-0.9-0.9-1.7-1.4-2.4c-0.5-0.8-0.7-1.8-0.4-2.6c0.3-0.7,0.8-1.2,1.6-1.5
		c1.9-0.6,3.8-0.9,5.5-0.9c1.6,0,3.1,0.3,4.6,0.7c3.9,1.3,7.1,5.6,7.2,9.9c0,0.6,0,1.1,0,1.7c0.2,0,0.4,0,0.6,0
		c3.1,0,5.6,0.9,7.9,2.7c2.5,2,4,4.7,4.4,7.7c0.5,0.2,1,0.4,1.5,0.5c1.5,0.6,3,1.1,4.3,1.9c4.5,2.6,7.3,6.6,8.1,11.5
		c1,5.8,0.8,10.8-0.7,15.5c-1.1,3.5-3.2,6.4-6.1,8.8c-0.2,0.2-0.4,0.5-0.5,0.8c-2.3,7.1-4.5,14.4-6.7,21.4c-0.7,2.4-1.5,4.8-2.2,7.2
		c-0.1,0.4-0.2,0.7-0.3,1c-0.2,0.5-0.3,0.9-0.5,1.4c-0.6,2.1-2,3.5-4.1,4.1l-0.3,0.1c-2.4,0.7-4.8,1.4-7.3,1.8
		C-22.4,120.3-27.3,120.7-32.9,120.7z"/>
	<path class="st3" d="M-51.4,91.8c-3.4,0-6.2,2.8-6.2,6.3s2.8,6.3,6.2,6.3c3.4,0,6.3-2.9,6.3-6.3C-45.1,94.5-47.9,91.8-51.4,91.8z"
		/>
	<path class="st3" d="M-16.2,91.8c-3.6,0-6.3,2.7-6.3,6.3c0,3.4,2.7,6.2,6.2,6.3c3.4,0,6.2-2.8,6.3-6.2
		C-10,94.6-12.8,91.8-16.2,91.8z"/>
	<path class="st4" d="M-47.7,44.5c-1.4-0.8-4.9,0.4-5.5,1.9C-51.7,47.2-48.3,46-47.7,44.5z"/>
	<path class="st5" d="M-24.2,34.8c0.8-1.6-0.6-5-2.2-5.5C-27,30.8-25.8,34-24.2,34.8z"/>
	<path class="st6" d="M-29.4,58c-1.7,0.2-3.9,3.3-3.4,4.7C-31.1,62.4-29,59.5-29.4,58z"/>
	<path class="st6" d="M-45.2,63.5c1.9,0.5,5-0.7,5.5-2.2C-41.4,60.6-44.8,61.9-45.2,63.5z"/>
	<path class="st4" d="M-32,68.5c1.5,0.8,4.9-0.4,5.5-1.9C-27.9,65.8-31.5,67-32,68.5z"/>
	<path class="st5" d="M-51.5,67.2c-0.8,1.4,0.7,5.1,2.2,5.4C-48.7,70.9-50,67.8-51.5,67.2z"/>
	<path class="st4" d="M-17.2,38.8c-0.3,0.1-0.6,0.1-0.8,0.2c-1.4,0.9-2.4,2.2-2.8,3.8c-0.1,0.3,0,0.5,0.1,0.8
		c0.3-0.1,0.6-0.1,0.8-0.2c1.3-0.9,2.2-2.1,2.7-3.6C-17.1,39.5-17.2,39.2-17.2,38.8z"/>
	<path class="st5" d="M2.6,56.4c0.7-1.7-0.7-5.2-2.2-5.4C-0.2,52.5,1,55.7,2.6,56.4z"/>
	<path class="st6" d="M-69,60c-1.8,0.2-3.8,3.1-3.5,4.7C-70.9,64.6-68.7,61.7-69,60z"/>
	<path class="st6" d="M-9.6,60.8c-0.4,1.7,1.4,4.9,2.9,5.1C-6.1,64.3-7.9,61.2-9.6,60.8z"/>
	<path class="st4" d="M-34.1,38.2c1.7,0.8,4.9-0.2,5.7-1.7C-29.8,35.6-33.3,36.6-34.1,38.2z"/>
	<path class="st5" d="M-49.8,54.9c0.5,1.6,4.3,3,5.5,2.1C-45.2,55.4-48.1,54.3-49.8,54.9z"/>
	<path class="st5" d="M-22.3,51.9c0.7-1.7-0.6-4.8-2.1-5.5C-25.2,47.8-24,51.1-22.3,51.9z"/>
	<path class="st6" d="M-20.6,63c-0.7,1.5,0.6,4.9,2.2,5.4C-17.8,66.9-19.1,63.5-20.6,63z"/>
	<path class="st6" d="M-34.6,44.9c-1.7,0.3-3.9,3.3-3.4,4.8C-36.3,49.4-34.2,46.4-34.6,44.9z"/>
	<path class="st6" d="M-64,71.5c0.8-1.6-0.5-4.8-2.1-5.5C-66.8,67.4-65.6,70.7-64,71.5z"/>
	<path class="st4" d="M-56.3,56.6c-1.6,0.8-2.7,4.1-2,5.5C-56.7,61.6-55.5,58.3-56.3,56.6z"/>
	<path class="st6" d="M-9.9,45.1c-1.5-0.9-5.1,0.4-5.5,1.9C-13.9,47.7-10.8,46.7-9.9,45.1z"/>
	<path class="st4" d="M-45.3,32.8c1.4,1.7,3.1,2.4,5,2.5c0.3,0,0.5-0.2,0.8-0.3c-0.1-0.3-0.2-0.6-0.4-0.7c-1.2-1-2.6-1.6-4.2-1.7
		C-44.5,32.6-44.8,32.7-45.3,32.8z"/>
	<path class="st2" d="M-18.7,101.7c-0.6,0-1-0.5-1-1s0.5-1,1-1s1,0.5,1,1C-17.7,101.3-18.2,101.7-18.7,101.7z"/>
	<path class="st2" d="M-54.2,101.7c-0.5,0-1-0.5-1-1s0.5-1,1-1c0.6,0,1,0.5,1,1C-53.2,101.3-53.6,101.7-54.2,101.7z"/>
	<path class="st2" d="M-53.2,97.9c-1,0-1.8-0.8-1.8-1.8s0.8-1.8,1.8-1.8s1.8,0.8,1.8,1.8C-51.5,97.1-52.2,97.9-53.2,97.9z"/>
	<path class="st2" d="M-17.6,97.9c-1,0-1.8-0.8-1.8-1.8s0.8-1.8,1.8-1.8s1.8,0.8,1.8,1.8C-15.9,97.1-16.7,97.9-17.6,97.9z"/>
	<path class="st7" d="M-32,110.2c-1.2,0.9-2.5,0.9-3.7,0.3c-1.7-0.9-1.9-2.6-2-4.3c2.5,0,4.8,0,7.3,0
		C-30.5,107.7-30.7,109.2-32,110.2z M-29.2,105c-3.2,0-6.5,0-9.8,0c-0.4,2.5,0.5,5.1,2.3,6.2c1.6,1,4,1,5.6-0.2
		C-29.6,109.9-28.7,107-29.2,105z"/>
	<path class="st6" d="M-61.6,48.4c1.7-0.1,4.1-2.8,3.9-4.4C-59.5,44.1-61.9,46.9-61.6,48.4z"/>
</g>
</svg>
