<?xml version="1.0" encoding="utf-8"?>
<!-- Generator: Adobe Illustrator 19.1.0, SVG Export Plug-In . SVG Version: 6.00 Build 0)  -->
<svg version="1.1" id="Слой_1" xmlns="http://www.w3.org/2000/svg" xmlns:xlink="http://www.w3.org/1999/xlink" x="0px" y="0px"
	 viewBox="6.8 50.4 107.6 69.4" style="enable-background:new 6.8 50.4 107.6 69.4;" xml:space="preserve">
<style type="text/css">
	.st0{fill:#595959;}
</style>
<g>
	<path class="st0" d="M12.3,52.3c0.7,0,1.2,0.2,1.7,0.5c0.5,0.3,0.7,0.8,0.9,1.3l2.4-0.5c-0.3-0.9-0.7-1.5-1.2-2
		c-1.1-0.7-2.3-1.1-3.7-1.1c-1.7,0-3.1,0.5-4.1,1.5s-1.5,2.4-1.5,4.2c0,1.7,0.5,3,1.5,4s2.4,1.5,4,1.5c1.3,0,2.4-0.3,3.2-0.9
		c0.9-0.6,1.4-1.4,1.8-2.6l-2.4-0.7c-0.2,0.7-0.6,1.3-1,1.7c-0.5,0.4-1,0.6-1.7,0.6c-0.9,0-1.6-0.3-2.2-0.9
		c-0.5-0.6-0.8-1.5-0.8-2.9c0-1.3,0.3-2.2,0.9-2.8C10.6,52.6,11.4,52.3,12.3,52.3z"/>
	<polygon class="st0" points="26.5,61.4 29,61.4 29,50.6 26.5,50.6 26.5,54.9 21.8,54.9 21.8,50.6 19.3,50.6 19.3,61.4 21.8,61.4 
		21.8,56.7 26.5,56.7 	"/>
	<path class="st0" d="M33.9,59h4.8l1.1,2.4h2.6l-4.8-10.8H35l-4.7,10.8h2.6L33.9,59z M36.2,53.2l1.7,4h-3.3L36.2,53.2z"/>
	<polygon class="st0" points="45.9,52.9 48.3,61.4 50.6,61.4 53,52.9 53,61.4 55.3,61.4 55.3,50.6 51.7,50.6 49.5,58 47.3,50.6 
		43.7,50.6 43.7,61.4 45.9,61.4 	"/>
	<path class="st0" d="M60.2,57.4h1.6c1.1,0,2-0.1,2.5-0.2c0.5-0.1,0.9-0.3,1.3-0.5c0.4-0.3,0.8-0.6,1-1c0.3-0.5,0.4-1,0.4-1.7
		c0-0.9-0.3-1.6-0.7-2.1c-0.5-0.5-1-0.9-1.7-1c-0.5-0.1-1.4-0.2-2.9-0.2h-3.9v10.8h2.4V57.4z M61.4,52.5c0.9,0,1.5,0,1.8,0.1
		c0.4,0.1,0.7,0.2,1,0.5s0.4,0.6,0.4,1c0,0.3-0.1,0.6-0.3,0.9c-0.2,0.2-0.4,0.4-0.8,0.5c-0.3,0.1-1,0.2-1.9,0.2h-1.3v-3.2H61.4z"/>
	<path class="st0" d="M69.1,61.4l1-2.4h4.8l1,2.4h2.7l-4.8-10.8h-2.6l-4.7,10.8H69.1z M72.5,53.2l1.7,4h-3.3L72.5,53.2z"/>
	<path class="st0" d="M82.3,60.9c1,0.5,2,0.7,3.3,0.7c1,0,2-0.2,2.9-0.5c0.9-0.3,1.7-0.7,2.2-1.2v-4.3h-5.2v1.8h2.8v1.4
		c-0.4,0.3-0.8,0.5-1.3,0.7s-1,0.3-1.6,0.3c-1,0-1.8-0.3-2.5-1c-0.6-0.6-1-1.6-1-2.9c0-1.2,0.3-2.1,1-2.7c0.6-0.6,1.5-0.9,2.5-0.9
		c0.7,0,1.3,0.2,1.8,0.5c0.5,0.3,0.8,0.7,1,1.2l2.4-0.4c-0.3-1-0.8-1.8-1.6-2.3c-0.8-0.6-2-0.9-3.5-0.9c-1.1,0-2.1,0.2-2.9,0.5
		c-1,0.5-1.8,1.1-2.3,2c-0.5,0.9-0.8,1.9-0.8,3c0,1,0.2,2,0.7,2.9C80.7,59.7,81.4,60.4,82.3,60.9z"/>
	<polygon class="st0" points="100.4,57.8 95.4,50.6 93,50.6 93,61.4 95.3,61.4 95.3,54.4 100.2,61.4 102.6,61.4 102.6,50.6 
		100.4,50.6 	"/>
	<polygon class="st0" points="107.6,59.6 107.6,56.7 113.7,56.7 113.7,54.9 107.6,54.9 107.6,52.5 114.2,52.5 114.2,50.6 
		105.2,50.6 105.2,61.4 114.4,61.4 114.4,59.6 	"/>
	<path class="st0" d="M27.8,108.7l-4.7,10.8h2.6l1-2.4h4.8l1,2.4h2.7l-4.8-10.8H27.8z M27.4,115.2l1.6-4l1.6,4H27.4z"/>
	<polygon class="st0" points="43.9,115.9 38.9,108.7 36.5,108.7 36.5,119.5 38.8,119.5 38.8,112.5 43.7,119.5 46.1,119.5 
		46.1,108.7 43.9,108.7 	"/>
	<path class="st0" d="M56.1,113.5c-0.6-0.3-1.4-0.5-2.6-0.8s-1.9-0.5-2.2-0.7c-0.3-0.2-0.4-0.4-0.4-0.7s0.1-0.5,0.4-0.7
		c0.4-0.3,1-0.4,1.7-0.4s1.2,0.1,1.5,0.4c0.4,0.3,0.6,0.7,0.7,1.2l2.4-0.1c0-1-0.4-1.8-1.2-2.4c-0.8-0.6-1.9-0.9-3.4-0.9
		c-0.9,0-1.7,0.1-2.4,0.4c-0.7,0.3-1.2,0.6-1.5,1.1c-0.3,0.5-0.5,1-0.5,1.6c0,0.9,0.4,1.6,1.1,2.2c0.5,0.4,1.4,0.8,2.7,1.1
		c1,0.2,1.6,0.4,2,0.5c0.4,0.1,0.7,0.3,0.9,0.5c0.1,0.2,0.2,0.4,0.2,0.7c0,0.4-0.2,0.7-0.6,1c-0.4,0.3-1,0.5-1.8,0.5
		c-0.7,0-1.3-0.2-1.8-0.5c-0.4-0.3-0.7-0.9-0.9-1.6l-2.4,0.2c0.2,1.2,0.7,2.1,1.5,2.7c0.8,0.7,2,1,3.5,1c1,0,1.9-0.1,2.6-0.4
		c0.7-0.3,1.2-0.7,1.6-1.2c0.4-0.5,0.6-1.1,0.6-1.7c0-0.7-0.1-1.2-0.5-1.7C57.1,114.2,56.6,113.8,56.1,113.5z"/>
	<polygon class="st0" points="70.3,116.3 68.2,108.7 65.3,108.7 63.1,116.1 61.3,108.7 58.8,108.7 61.7,119.5 64.3,119.5 
		66.7,111.4 69.1,119.5 71.7,119.5 74.6,108.7 72.2,108.7 	"/>
	<polygon class="st0" points="78.3,114.8 84.4,114.8 84.4,112.9 78.3,112.9 78.3,110.5 84.8,110.5 84.8,108.7 75.9,108.7 
		75.9,119.5 85,119.5 85,117.7 78.3,117.7 	"/>
	<path class="st0" d="M95.1,115.6c-0.3-0.3-0.8-0.6-1.3-0.9c1.1-0.1,1.9-0.5,2.4-1s0.8-1.2,0.8-2c0-0.7-0.2-1.2-0.5-1.7
		s-0.8-0.9-1.4-1c-0.6-0.2-1.5-0.3-2.8-0.3h-5.1v10.8h2.4V115h0.5c0.6,0,1,0.1,1.2,0.1c0.3,0.1,0.5,0.2,0.7,0.4s0.7,0.8,1.3,1.6
		l1.8,2.4H98l-1.5-2.1C95.9,116.5,95.4,116,95.1,115.6z M91.4,113.3h-1.8v-2.8h1.9c1,0,1.6,0,1.8,0.1c0.4,0.1,0.7,0.2,0.9,0.4
		c0.2,0.2,0.3,0.5,0.3,0.9c0,0.3-0.1,0.6-0.3,0.8c-0.1,0.2-0.4,0.4-0.7,0.5C93.3,113.2,92.5,113.3,91.4,113.3z"/>
	<rect x="58.1" y="68.4" class="st0" width="0.9" height="4.3"/>
	<path class="st0" d="M61.3,72c-0.3,0-0.5-0.1-0.6-0.2c-0.2-0.1-0.3-0.3-0.3-0.6l-0.8,0.1c0.1,0.5,0.2,0.8,0.5,1.1
		c0.3,0.3,0.7,0.4,1.2,0.4c0.4,0,0.7-0.1,0.9-0.1c0.3-0.1,0.4-0.3,0.6-0.5c0.1-0.2,0.2-0.5,0.2-0.7c0-0.3-0.1-0.5-0.2-0.7
		c-0.1-0.2-0.3-0.3-0.5-0.5c-0.2-0.1-0.5-0.2-0.9-0.3c-0.4-0.1-0.7-0.2-0.8-0.3c-0.1-0.1-0.1-0.2-0.1-0.3s0-0.2,0.1-0.3
		c0.1-0.1,0.3-0.1,0.6-0.1c0.2,0,0.4,0.1,0.5,0.1c0.1,0.1,0.2,0.3,0.2,0.5l0.9-0.1c0-0.4-0.2-0.7-0.4-0.9c-0.3-0.2-0.7-0.3-1.2-0.3
		c-0.3,0-0.6,0.1-0.8,0.1c-0.2,0.1-0.4,0.3-0.5,0.4c-0.1,0.2-0.2,0.4-0.2,0.6c0,0.3,0.1,0.6,0.4,0.9c0.2,0.2,0.5,0.3,1,0.4
		c0.3,0.1,0.6,0.1,0.7,0.2c0.2,0.1,0.3,0.1,0.3,0.2c0.1,0.1,0.1,0.1,0.1,0.3c0,0.1-0.1,0.3-0.2,0.4C61.8,72,61.6,72,61.3,72z"/>
	<polygon class="st0" points="54.9,98.2 56.2,98.2 56.2,101.7 57,101.7 57,98.2 58.2,98.2 58.2,97.5 54.9,97.5 	"/>
	<polygon class="st0" points="62.1,101.7 62.1,97.5 61.3,97.5 61.3,99.1 59.6,99.1 59.6,97.5 58.8,97.5 58.8,101.7 59.6,101.7 
		59.6,99.8 61.3,99.8 61.3,101.7 	"/>
	<polygon class="st0" points="66.1,98.2 66.1,97.5 63,97.5 63,101.7 66.2,101.7 66.2,101 63.8,101 63.8,99.8 65.9,99.8 65.9,99.1 
		63.8,99.1 63.8,98.2 	"/>
	<path class="st0" d="M90.2,77c0.1,2.6-0.5,5.3-1.8,7.7c-1.1,2-2.6,3.7-4.4,5.2c0,0,0,0,0,0.1c0,0.1,0.2,0.2,0.3,0.2
		c2.1-1,3.7-3.7,4.6-5.7c0.5-1,0.9-2,1.3-3.1c0.2-0.7,0.5-1.4,0.5-2.2c0-0.1,0.1-0.2,0.2-0.2s0.2,0.1,0.2,0.2c0,1.1,0.5,2.1,1,3
		c0.1,0.1,0.1,0.2,0,0.3c-0.7,0.6-1.4,1.2-2,2c-0.8,1-1.8,2.5-1.4,3.9c0.2,0.9,0.8,1.4,1.6,1.8c0.9,0.4,1.9,0.5,2.8,0.4
		c1-0.1,1.9-0.3,2.8-0.7c0.6-0.3,1.3-0.8,1.4-1.5c0.4-1.4,0.2-2.7-0.5-4c-0.2-0.4-0.5-0.8-0.8-1.2c-0.5-0.6-1-1.2-1.5-1.8
		c-0.1-0.1-0.1-0.2,0-0.3c0.5-0.5,1.1-0.9,1.6-1.3c-0.7,0.2-1.3,0.5-1.9,1c-0.1,0-0.1,0.1-0.2,0.1c-0.1,0-0.1,0-0.1-0.1
		c-0.7-0.8-1.2-1.7-1.2-2.7c0-0.3,0.4-1,0.5-1.4c0-0.1,0.2-0.4,0.2-0.6c-0.8-0.3-1.6-0.2-2.4,0.2C90.7,76.5,90.4,76.7,90.2,77z
		 M92.6,83.3c0-0.1,0.1-0.1,0.2-0.1c0.1,0,0.1,0.1,0.2,0.1c0.1,0.1,0.2,0.3,0.3,0.5c0.3,0.3,0.5,0.7,0.7,1c0.3,0.5,0.7,1,0.8,1.6
		c0.2,1-0.1,1.8-0.8,2.4c-0.8,0.8-1.7,0.9-2.7,0.6c-0.3-0.1-0.6-0.3-0.8-0.6c-0.6-0.9,0-2.2,0.4-3C91.3,85,91.9,84.1,92.6,83.3z"/>
	<path class="st0" d="M93.5,97.1c-0.7-0.1-1.3-0.1-1.9-0.2c-0.9-0.1-1.9-0.2-2.8-0.4c-2.2-0.3-4.3-0.6-6.4-0.8
		c-0.1,0-0.1-0.1-0.2-0.1c0,0-0.1-0.1,0-0.2c0.5-1.8,1-3.7,1.4-5.5c0-0.1,0-0.1,0.1-0.1v-0.1c0.3-1.4,0.7-2.8,1-4.2
		c0.2-1.1,0.5-2.2,0.6-3.3c0.1-0.8,0.3-1.6,0.3-2.4c0.1-0.5,0.1-1,0-1.5c-0.1-0.1-0.3-0.1-0.3-0.1c-0.4-0.1-0.8-0.1-1.1-0.1
		s-0.7,0-1,0c-0.1,0-0.3,0-0.3,0.1c0,1.4-0.1,2.8-0.2,4.2c-0.1,1.9-0.4,3.9-0.6,5.8c0,0.1,0,0.1-0.1,0.1c-0.7,0.7-1.8,1.1-2.7,1.3
		c-0.6,0.1-1.8,0.3-2.3-0.2c-0.3-0.3-0.2-1.6-0.2-2c0.1-0.6,0.2-1.2,0.3-1.9c0.1-0.9,0.3-1.7,0.5-2.5c0.1-0.8,1-5-0.5-5.2
		c-1.4-0.2-2.6,0.1-3.8,0.9c-0.7,0.5-1.5,1.1-1.8,1.9l0.1,0.1c0.6-0.7,1.4-1.3,2.2-1.8c0.4-0.2,0.9-0.3,1.2-0.1
		c0.7,0.4,0.4,1.8,0.2,2.4c-0.3,1.1-0.5,2.2-0.6,3.4c-0.1,0.9-0.1,1.8-0.1,2.6c0.1,1,0.4,2.3,1.3,2.9c0.4,0.3,0.8,0.4,1.2,0.4
		c1,0.1,2.1-0.3,3-0.7c0.3-0.1,0.7-0.3,1-0.5c0.1-0.1,0.3-0.2,0.4-0.2c0-0.1,0.1-0.1,0.2-0.1c0.1,0,0.2,0.1,0.2,0.2
		c-0.1,2.1-0.3,4.3-0.9,6.3c0,0.1-0.1,0.2-0.3,0.1L79,95.5c-1.8-0.2-3.7-0.2-5.4,0c-1.4,0.2-2.7,0.5-3.9,1.2
		c-1.3,0.7-2.2,1.7-2.6,3.1c-0.3,1.1-0.2,2.2,0.4,3.1c0.9,1.4,2.7,1.8,4.3,1.8c2.4,0,4.5-0.8,6.2-2.5c1.3-1.3,2.3-3.1,3.1-4.8
		c0.1-0.1,0.2-0.1,0.3-0.1c5.2,1.8,10.8,2.7,16.2,1.1c1.2-0.4,2.5-0.9,3.6-1.6c0.1-0.1,0.3-0.2,0.4-0.3
		C99.1,97.1,96.3,97.3,93.5,97.1z M80.4,97.3c-0.8,2-2,3.8-3.7,5.1c-1.1,0.9-2.5,1.6-4,1.6s-2.5-0.7-2.9-2c-0.5-1.5,0.2-2.8,1.4-3.9
		c0.9-0.8,2.3-1.2,3.5-1.4c1.9-0.3,3.8-0.2,5.6,0.3c0.1,0,0.1,0.1,0.1,0.1C80.5,97.1,80.5,97.2,80.4,97.3z"/>
	<path class="st0" d="M45.5,93.9c-0.9,0.4-2,0.7-3,0.4c-0.9-0.3-1.4-0.9-1.9-1.6c-1.2-2-1.5-4.9-1.5-7.1v-0.1c1-1.2,1.9-2.6,2.6-3.9
		c1-1.8,1.9-3.7,2.7-5.7c0.4-1.2,0.8-2.4,1-3.5c0.2-0.9,0.3-1.8,0.2-2.7c-0.1-1.4-0.6-3.1-2.1-3.7c-0.2-0.1-0.4-0.1-0.6-0.1
		c-1.6,0-2.9,2.7-3.5,3.9c-2.5,5.5-2.8,11.2-2.2,17.1c0,0.2-2.2,2.1-2.2,2.1c-0.7,0.5-1.3,0.5-1.9-0.1c-0.6-0.7-0.9-1.5-0.9-2.4
		c0-0.3,0-0.5,0-0.7c0-0.4,0-0.8,0.1-1.2c0.1-1.2,0.2-2.4,0.3-3.7l-1.4-0.4c-0.2,2.1-0.6,5.8-1.9,7.4c-0.6,0.7-1.4,1.4-2.3,1.4
		c-0.2,0-0.5,0-0.7-0.1c-0.9-0.5-0.8-2-0.7-2.8c0.3-2.5,1.1-5.8,3.8-6.8c0.7-0.3,1.4-0.4,2.1-0.3c0.2,0,0.4,0,0.5,0
		c-0.8-1.3-2-2.1-3.6-1.7c-1.7,0.4-2.9,1.8-3.8,3.1c-1,1.6-1.7,3.4-1.6,5.2c0.1,2,1,3.4,2.9,4.3c1.4,0.7,2.6-0.5,3.3-1.4
		c0.6-0.7,1.2-1.6,1.6-2.4c0.1-0.1,0.2-0.3,0.3-0.2c0.1,0,0.1,0.2,0.1,0.3c-0.1,0.7-0.1,1.3,0.1,2c0.3,1.2,1,1.8,2.3,1.7
		c0.8-0.1,1.2-0.7,1.8-1.2c0.1-0.1,1.1-1,1.6-1.4c0.1-0.1,0.1-0.1,0.2-0.1s0.1,0.1,0.1,0.2c0.5,2.5,1.6,6.6,4.5,7.5
		c0.9,0.3,1.9,0.1,2.8-0.2c1.3-0.5,2.1-1.5,2.6-2.8C46.9,92.9,46.3,93.5,45.5,93.9z M39,83.9c0.2-1.9,0.4-3.8,0.7-5.6
		c0.2-1.3,0.5-2.6,0.8-3.9c0.2-1,0.5-2,0.7-2.9c0.3-0.9,0.8-2.5,1.4-3.2c0.2-0.3,0.5-0.3,0.7-0.1c0.3,0.2,0.4,0.5,0.5,0.8
		c0.3,1.1,0.2,2.5,0,3.6c-0.6,2.6-1.4,5.1-2.4,7.6c-0.5,1.3-1.2,2.6-2,3.8c-0.1,0.1-0.1,0.1-0.3,0.1C39,84.1,38.9,84,39,83.9z"/>
	<path class="st0" d="M59.3,76.7c-0.1-0.3-0.1-0.6-0.4-0.8c-0.3-0.3-0.9-0.3-1.2-0.2c-0.5,0.1-1,0.2-1.4,0.5
		c0.2,1.2,0.3,2.3,0.5,3.5c0.1,1,0.2,2,0.2,2.9c0,1.2,0,2.8-0.5,3.9c-0.2,0.5-0.9,2-1.7,1.6c-0.7-0.3-0.9-1.6-1-2.2
		c-0.5-2.6-0.5-5.2,0-7.8c-0.3-0.1-0.6-0.2-0.9-0.3c-0.6-0.1-1.1,0-1.4,0.5c0.1,1.6,0,3.1-0.1,4.7c-0.1,1.3-0.3,2.6-0.6,3.9
		c-0.2,0.8-0.7,2.6-1.6,2.9c-1,0.3-1.5-1.7-1.6-2.3c-0.3-2.1-0.6-4.4-0.4-6.6c0-0.6,0.1-1.1,0.2-1.7c0.1-0.2,0.1-0.4,0.1-0.6
		c0-0.1,0-0.2,0-0.3c0-0.4-0.7-0.5-1-0.6c-0.6-0.1-1.1,0-1.2,0.6c-0.3,2-0.3,4-0.1,6c0.2,2.2,0.7,6.1,3.4,6.8c0.1,0,0.2,0,0.3,0
		c1.2-0.1,1.9-2.9,2.2-3.8c0.3-1.3,0.7-2.6,0.8-3.9c0-0.1,0-0.3,0.1-0.2c0.1,0,0.1,0.1,0.1,0.2c-0.1,1,0.1,2.1,0.2,3.1
		c0.2,1.3,0.6,3.6,2.2,3.9c2.1,0,3.4-4.5,3.8-5.9C58.8,82.6,59.8,78.8,59.3,76.7z"/>
	<path class="st0" d="M68.7,88.5c0.3,1.2,1,1.8,2.3,1.7c0.9-0.1,1.5-0.7,1.9-1.4c-0.4,0.4-0.9,0.7-1.4,0.6c-0.4-0.1-0.7-0.3-0.9-0.6
		c-0.6-0.7-0.9-1.5-0.9-2.4c0-0.3,0-0.5,0-0.7c0-0.4,0.1-0.8,0.1-1.2c0.1-1.2,0.2-2.4,0.3-3.7l-1.4-0.4c-0.2,2.1-0.6,5.8-1.9,7.4
		c-0.6,0.7-1.3,1.4-2.3,1.4c-0.2,0-0.5,0-0.7-0.1c-0.9-0.5-0.8-2-0.7-2.8c0.3-2.5,1.1-5.8,3.8-6.8c0.7-0.3,1.4-0.4,2.1-0.3
		c0.2,0,0.4,0,0.6,0c-0.9-1.3-2-2.1-3.7-1.7c-1.7,0.4-2.9,1.8-3.8,3.1c-1,1.6-1.7,3.4-1.6,5.2c0.1,2,1,3.4,2.9,4.3
		c1.4,0.7,2.6-0.5,3.3-1.4c0.6-0.7,1.2-1.6,1.6-2.5c0-0.1,0.1-0.1,0.2-0.1s0.1,0.1,0.1,0.2C68.5,87.2,68.5,87.9,68.7,88.5z"/>
</g>
</svg>
