<?xml version="1.0" encoding="utf-8"?>
<!-- Generator: Adobe Illustrator 19.1.0, SVG Export Plug-In . SVG Version: 6.00 Build 0)  -->
<svg version="1.1" id="Слой_1" xmlns="http://www.w3.org/2000/svg" xmlns:xlink="http://www.w3.org/1999/xlink" x="0px" y="0px"
	 viewBox="24.9 24 105.9 63.8" style="enable-background:new 24.9 24 105.9 63.8;" xml:space="preserve">
<style type="text/css">
	.st0{fill:#595959;}
</style>
<g>
	<path class="st0" d="M41.5,59.5c5.1,0,9.2-1.5,12.4-4.6c3.1-3,4.7-7.3,4.7-12.8c0-5.3-1.5-9.6-4.4-13c-2.9-3.4-7.1-5.1-12.5-5.1
		H25.4h-0.5v1.4h1.5c0.2,0,0.3,0,0.5,0c0.2,0,0.4,0.1,0.5,0.1c0.4,0.2,0.9,0.5,1.2,0.9c0.4,0.4,0.6,1.1,0.6,2.1V55
		c0,1-0.2,1.6-0.6,2.1c-0.4,0.5-0.8,0.7-1.2,0.9c-0.2,0.1-0.3,0.1-0.5,0.1c-0.2,0-0.3,0-0.5,0h-1.5v1.4h16.2H41.5z M36,56.6
		c-0.5-0.6-0.7-1.5-0.7-2.4V41.6V29c0-0.9,0.2-1.8,0.7-2.4c0.5-0.6,1.8-0.9,4-0.9c3.2,0,6,0.3,8.3,2.4c2.3,2.1,3.4,7.3,3.4,13.4
		c0,0.1,0,0.1,0,0.1v0.1c0,6.1-1.1,11.3-3.4,13.4c-2.3,2.1-5,2.3-8.3,2.4C37.8,57.5,36.4,57.1,36,56.6z"/>
	<path class="st0" d="M66.3,35.9h0.4c0.7,0,1.3-0.2,1.7-0.6c0.5-0.4,0.8-0.9,0.9-1.4c0-0.1,0.1-0.3,0.1-0.4c0-0.1,0.1-0.3,0.1-0.4
		c0-0.1,0-0.2,0-0.3c0-0.1,0-0.2-0.1-0.3c-0.1-0.5-0.5-1-0.9-1.4c-0.5-0.5-1-0.7-1.8-0.7h-0.4c-0.8,0-1.4,0.3-2,0.8
		c-0.5,0.5-0.8,1.2-0.8,2c0,0.7,0.3,1.4,0.8,2C64.8,35.6,65.5,35.9,66.3,35.9z"/>
	<path class="st0" d="M71.4,59.6v-1.1h-0.2c-0.8,0-1.3-0.1-1.6-0.5c-0.3-0.3-0.4-0.7-0.4-1.1v-0.1v-0.1V38.9h-7.8H61v1h0.2
		c0.7,0,1.2,0.1,1.4,0.3c0.3,0.3,0.5,0.5,0.5,0.8c0.1,0.1,0.1,0.2,0.1,0.4c0,0.1,0,0.2,0,0.3v15c0,0,0,0,0,0.1c0,0,0,0,0,0.1
		c0,0.4-0.1,0.8-0.3,1.2c-0.2,0.4-0.7,0.5-1.6,0.5H61v1h10H71.4z"/>
	<path class="st0" d="M91.1,58c2.1-1.9,3.1-4.6,3.1-8.3s-1.1-6.4-3.2-8.3c-2.1-1.9-4.4-2.8-6.9-2.8h-0.4c-2.8,0-5.2,1-7.1,3.1
		c-2,2.1-2.9,4.8-2.9,8s0.8,5.8,2.4,7.5c1.6,1.8,3.3,2.9,5.3,3.3c0.4,0.1,0.8,0.2,1.2,0.2c0.2,0,0.4,0.1,0.6,0.1
		c0.8,4.2,1.3,8.3,1,13.4c-0.1,1.2-0.5,1.3-1.2,0.4c-2.1-3.9-3.5-8.2-5.2-12.3c-0.7-1.6-2-1.6-2.7,0.1c-1,2.9-0.9,6.1-0.2,9.4
		c-0.3,0.3-0.7,0.1-1-0.4c-0.9-2.5-0.7-5.1-0.6-8.1c0.1-1.8-3-3.3-3.3-0.1c-0.7,6.7,1.6,13,5,18.8c0.8,1.4,2.4,1.2,2.4,0.1
		c0.1-3.8,0.2-7.6-0.2-11.4c0.1-0.9,0.4-0.9,0.9,0.1c1.9,3.4,2.8,7.8,5.6,10.1c1.7,1.3,3,1.5,3.2-1.1c0.6-6.3,0.7-12.8-0.4-19.3
		C88.2,60.1,89.7,59.3,91.1,58z M86.2,58.6c-0.3-1.4-0.6-2.9-1-4.4c-1-1.9-3.3-1.5-3.1,1c0.3,1.3,0.5,2.5,0.7,3.7
		c-1.4-0.3-2.4-0.9-2.9-2c-0.7-1.4-1-2.9-1.1-4.5c-0.1-0.5-0.1-0.9-0.1-1.4s0-0.9,0-1.3c0-0.4,0-0.9,0-1.3c0-0.5,0-0.9,0.1-1.3
		c0.1-1.6,0.5-3.2,1.1-4.5c0.7-1.4,2-2.1,4-2.2c2,0.1,3.4,0.8,4,2.2c0.7,1.4,1,2.9,1.1,4.5c0.1,0.4,0.1,0.9,0.1,1.3
		c0,0.5,0,0.9,0,1.3c0,0.4,0,0.9,0,1.3c0,0.5,0,0.9-0.1,1.4c-0.1,1.6-0.5,3.1-1.1,4.5C87.7,57.6,87.1,58.2,86.2,58.6z"/>
	<path class="st0" d="M129.5,71.2c-2.2-0.8-4.8-1-7.1-1.5c-1.8-0.5-3.6-1.1-5.4-1.8c-0.7-0.2-0.8-1-0.1-1.4c2.2-1.2,4-2.4,5.4-4.1
		c1.8-2.2,1.2-3.7-1.1-4.6c-3.5-1.4-6.9-2-10.3-1.8c0-0.1,0-0.3,0-0.5c-0.5-1.6-2.3-1.1-2.8,0.8c-0.7,0.1-1.4,0.3-2.2,0.5
		c-0.8,0.3-1.1,1.1-1,1.8c-0.3-0.1-0.5-0.2-0.6-0.4c-0.2-0.3-0.3-0.7-0.3-1.2v-7.3c0-0.1,0-0.1,0-0.1v-0.1c0-0.2,0-0.4,0-0.7
		c0-0.2,0-0.5,0-0.8c0.1-0.5,0.1-0.9,0.2-1.3c0.2-1,6-4.2,7.5-3.2c0.2,0.1,1,2.7,1.1,2.9c0.7,1.8,3.2,1.9,4.5,0.6
		c1.7-1.6,0.3-6.2-2.4-6.6c-1.2-0.2-2.5,0.1-3.3,0.4c-1.1,0.3-7.4,3-7.6,3.9l0.1-4H97h-0.4v0.9h0.1c0.5,0,0.9,0.1,1.2,0.3
		c0.2,0.2,0.4,0.5,0.4,0.7c0,0.1,0.1,0.2,0.1,0.3s0,0.2,0,0.3v13.3c-0.9-0.4-2-0.4-2.3,0.7l-3.5,11.7c-1.1,0.4-2.3,0.9-3.4,1.3
		c-1.6,0.7-0.9,3.6,0.7,3c0.5-0.2,1-0.4,1.6-0.7l-0.7,2.2c-0.8,2.6,2.3,3.1,2.8,0.5c0.3-1.3,0.5-2.6,0.9-3.9
		c2.1-0.8,4.2-1.6,6.3-2.1c1.2,3.3,2.7,6.5,5,9.3c1.9,1.2,2.4,0.1,2.2-2.1c-0.1-1-0.6-1.6-1.5-2c-1.2-1.8-2.2-3.7-3.1-5.7
		c0.3,0,0.5-0.1,0.8-0.1c1.6-0.1,1.4-2.7-0.7-2.5c-0.4,0.1-0.8,0.1-1.2,0.2c-0.9-2.1-1.6-4.4-2.2-6.7h5.6h0.4v-0.1h0.1
		c0.7-0.1,1.4-0.2,2.1-0.3c0,2.6,0.1,5.2,0.3,7.7c-0.1,0-0.2,0-0.3,0.1c-2.7,0.8-1.8,4.6,0.5,3.9h0.4c0.3,1.7,0.7,3.3,1.3,4.9
		c0.7,2,3.5,1.9,2.9-0.8c-0.3-1.4-0.6-2.8-0.9-4.3h0.6l3.9,1c4.9,2.1,9.4,3.6,12.1,2.9C131.3,73.8,131.2,71.7,129.5,71.2z
		 M95.4,67.8c0.5-1.4,1-2.8,1.7-4.2c0.4-0.9,1.5-1.2,1.9,0c0.3,1,0.7,2,1,3C98.4,66.9,96.9,67.3,95.4,67.8z M111.5,66
		c-0.4-2.3-0.6-4.6-0.7-7c2.4-0.1,4.7,0.1,7.1,0.7c1.9,0.7,1.9,1.6,0.1,2.9C116.3,64.1,114,65.2,111.5,66z"/>
	<path class="st0" d="M64.4,61.7c-4.8,0.7-8.5,3-13.9,3.3c-2.1,0.7-1.6,3.8,0.4,3.5c1.9-0.2,3.5-0.5,4.9-1.3
		c0.3-0.2,0.5,0.5,0.6,0.9c-0.3,4.9,0.1,9.8,1.6,14.8c0.6,1.9,3.2,2,3-0.5c-0.3-5.4-2.3-10.5-1.9-15.8c2.4,0.2,4.6-0.5,6.2-1.7
		C66.9,63.6,66.5,61.4,64.4,61.7z"/>
	<path class="st0" d="M39.6,66.3c-0.8,2.9-0.1,5.9,0,8.7c0.3,3.7,1.1,6.9,3.4,9.2c3.3,3.2,8,0.9,8.4-4.4c0.6-7.6-1.3-10.8-4.5-15.4
		C44.6,61,40.5,62.9,39.6,66.3z M48.5,78.7C48,82,45.9,82.5,44.1,80c-2-3.4-1.8-7.9-1.3-12c0.5-0.3,0.6-0.4,0.8-1
		c0.1-0.5,0.5-0.6,1-0.3c2.4,1.6,3.1,5.6,3.7,8.9C48.5,77,48.7,77.3,48.5,78.7z"/>
	<path class="st0" d="M38.1,64.4c-0.5-1.8-3.4-2-3.2,0.2c0.5,5.9,0.7,12.1,1.7,17.7c-3.1-2.9-5-8.1-7.5-12.2
		c-0.9-1.7-2.9-1.6-2.9,0.9l0.9,14.9c0.1,2.3,3.7,2.5,3.9-0.2c0.1-2.9-1.2-5.4-1.5-9.2c2.3,3.5,4.1,8.4,6.9,10.5
		c2.6,1.8,4,0.4,3.6-2.4C39,78.1,38.3,71.3,38.1,64.4z"/>
</g>
</svg>
