<?xml version="1.0" encoding="UTF-8"?>
<!DOCTYPE svg PUBLIC "-//W3C//DTD SVG 1.1//EN" "http://www.w3.org/Graphics/SVG/1.1/DTD/svg11.dtd">
<!-- Creator: CorelDRAW X7 -->
<svg xmlns="http://www.w3.org/2000/svg" xml:space="preserve" width="92.115mm" height="92.115mm" version="1.1" style="shape-rendering:geometricPrecision; text-rendering:geometricPrecision; image-rendering:optimizeQuality; fill-rule:evenodd; clip-rule:evenodd"
viewBox="0 0 9212 9212"
 xmlns:xlink="http://www.w3.org/1999/xlink">
 <defs>
  <style type="text/css">
   <![CDATA[
    .fil0 {fill:none}
    .fil1 {fill:white}
   ]]>
  </style>
 </defs>
 <g id="Слой_x0020_1">
  <metadata id="CorelCorpID_0Corel-Layer"/>
  <rect class="fil0" width="9212" height="9211"/>
  <g id="_1004550576">
   <polygon class="fil1" points="4546,2207 4645,2513 4967,2513 4707,2702 4806,3007 4546,2818 4286,3007 4385,2702 4125,2513 4447,2513 "/>
   <polygon class="fil1" points="3228,1978 3356,2276 3113,2490 3436,2460 3564,2758 3635,2442 3959,2411 3679,2246 3751,1929 3507,2144 "/>
   <polygon class="fil1" points="3162,1313 2946,1551 3106,1830 2813,1699 2597,1937 2632,1618 2338,1486 2653,1420 2687,1100 2847,1379 "/>
   <polygon class="fil1" points="5865,1978 5737,2276 5981,2490 5657,2460 5529,2758 5458,2442 5135,2411 5414,2246 5343,1929 5586,2144 "/>
   <polygon class="fil1" points="5931,1313 6147,1551 5987,1830 6280,1699 6496,1937 6461,1618 6755,1486 6440,1420 6406,1100 6246,1379 "/>
  </g>
 </g>
</svg>
