<?xml version="1.0" encoding="UTF-8"?>
<!DOCTYPE svg PUBLIC "-//W3C//DTD SVG 1.1//EN" "http://www.w3.org/Graphics/SVG/1.1/DTD/svg11.dtd">
<!-- Creator: CorelDRAW X7 -->
<svg xmlns="http://www.w3.org/2000/svg" xml:space="preserve" width="92.115mm" height="92.115mm" version="1.1" style="shape-rendering:geometricPrecision; text-rendering:geometricPrecision; image-rendering:optimizeQuality; fill-rule:evenodd; clip-rule:evenodd"
viewBox="0 0 9212 9212"
 xmlns:xlink="http://www.w3.org/1999/xlink">
 <defs>
  <style type="text/css">
   <![CDATA[
    .fil0 {fill:none}
    .fil1 {fill:white;fill-rule:nonzero}
   ]]>
  </style>
 </defs>
 <g id="Слой_x0020_1">
  <metadata id="CorelCorpID_0Corel-Layer"/>
  <rect class="fil0" width="9212" height="9211"/>
  <g id="holly_x0020_bitch.cdr">
   <path class="fil1" d="M2685 4477l325 0c102,0 180,12 232,35 53,23 96,70 128,141 33,71 49,185 49,342 0,106 -12,180 -35,222 -23,42 -68,74 -136,96 76,25 127,66 154,123 27,58 40,146 40,265l0 168c0,123 -9,214 -29,274 -19,59 -50,99 -92,121 -42,22 -129,33 -259,33l-377 0 0 -1820zm327 311l0 405c13,-1 24,-2 32,-2 31,0 51,-11 59,-34 9,-23 13,-88 13,-196 0,-57 -3,-97 -10,-120 -8,-23 -17,-37 -28,-43 -11,-6 -34,-10 -66,-10zm0 688l0 510c45,-2 73,-12 86,-31 12,-19 18,-65 18,-139l0 -170c0,-78 -5,-126 -16,-142 -12,-17 -41,-26 -88,-28zm874 -999l0 1820 -326 0 0 -1820 326 0zm786 0l0 364 -192 0 0 1456 -326 0 0 -1456 -193 0 0 -364 711 0zm835 794l-326 0 0 -316c0,-92 -4,-149 -11,-172 -7,-23 -22,-34 -45,-34 -27,0 -44,13 -51,41 -7,28 -11,88 -11,180l0 844c0,89 4,146 11,173 7,27 23,41 48,41 24,0 40,-14 47,-41 8,-27 12,-90 12,-190l0 -229 326 0 0 71c0,188 -9,322 -28,401 -18,79 -59,148 -121,207 -63,59 -140,89 -232,89 -95,0 -174,-25 -236,-75 -62,-50 -103,-120 -123,-209 -20,-89 -30,-222 -30,-400l0 -532c0,-131 3,-229 9,-295 7,-65 25,-129 56,-189 30,-61 73,-109 127,-144 55,-34 117,-52 188,-52 96,0 175,27 237,81 63,54 104,121 123,201 20,81 30,206 30,376l0 173zm864 -794l0 1820 -326 0 0 -764 -95 0 0 764 -327 0 0 -1820 327 0 0 651 95 0 0 -651 326 0z"/>
   <path class="fil1" d="M3663 2029l0 2283 -427 0 0 -958 -124 0 0 958 -427 0 0 -2283 427 0 0 817 124 0 0 -817 427 0zm1143 1338c0,229 -4,392 -12,487 -7,96 -31,183 -72,261 -41,79 -96,140 -165,182 -70,43 -151,64 -243,64 -87,0 -166,-20 -235,-60 -70,-40 -126,-100 -168,-180 -43,-80 -68,-167 -76,-260 -8,-95 -12,-259 -12,-494l0 -391c0,-229 3,-391 11,-486 8,-96 32,-183 73,-262 40,-79 96,-140 165,-182 69,-42 150,-63 242,-63 88,0 166,20 236,60 70,40 126,99 168,179 43,80 68,167 76,261 8,94 12,259 12,493l0 391zm-426 -750c0,-106 -5,-174 -13,-203 -8,-30 -25,-45 -51,-45 -21,0 -38,12 -50,36 -11,24 -17,95 -17,212l0 1066c0,132 4,214 11,244 8,32 26,47 53,47 29,0 47,-18 55,-53 8,-36 12,-121 12,-255l0 -1049zm1013 -588l0 1827 257 0 0 456 -684 0 0 -2283 427 0zm1133 0l-310 1456 0 827 -394 0 0 -827 -300 -1456 391 0c60,447 95,747 104,901 24,-244 64,-544 118,-901l391 0z"/>
  </g>
 </g>
</svg>
