<?xml version="1.0" encoding="UTF-8"?>
<!DOCTYPE svg PUBLIC "-//W3C//DTD SVG 1.1//EN" "http://www.w3.org/Graphics/SVG/1.1/DTD/svg11.dtd">
<!-- Creator: CorelDRAW X7 -->
<svg xmlns="http://www.w3.org/2000/svg" xml:space="preserve" width="92.117mm" height="92.117mm" version="1.1" style="shape-rendering:geometricPrecision; text-rendering:geometricPrecision; image-rendering:optimizeQuality; fill-rule:evenodd; clip-rule:evenodd"
viewBox="0 0 9212 9212"
 xmlns:xlink="http://www.w3.org/1999/xlink">
 <defs>
  <style type="text/css">
   <![CDATA[
    .fil0 {fill:none}
    .fil2 {fill:#FEFEFE}
    .fil1 {fill:#F9B33B}
    .fil3 {fill:#CCCBCC}
   ]]>
  </style>
 </defs>
 <g id="Слой_x0020_1">
  <metadata id="CorelCorpID_0Corel-Layer"/>
  <rect class="fil0" width="9212" height="9212"/>
  <path class="fil1" d="M5515 2662c0,0 120,249 443,180 324,-68 -408,806 -556,951 -82,81 89,-1078 113,-1131z"/>
  <path class="fil2" d="M5516 2682c0,0 -64,-65 -68,-75 -14,-30 -19,-50 -5,-78 8,-18 15,-35 37,-51 18,-14 203,-110 203,-110 13,-21 -9,-148 -1,-171 13,-36 40,-64 74,-86 24,-17 233,-79 233,-79 3,0 90,-13 90,-13 6,-2 101,-39 106,-56 13,-21 0,-91 -4,-67 5,-34 33,-34 42,-33 35,2 81,50 104,74 11,12 23,116 -14,147 -16,14 -116,94 -133,114 -15,19 -26,24 -28,46 -2,10 24,16 30,25 15,24 33,44 47,65 12,18 7,68 4,93 -2,24 -31,82 -33,85 0,0 119,158 53,279 -13,24 -101,55 -119,60 -15,4 -59,-3 -87,4 -334,86 -531,-173 -531,-173z"/>
  <path class="fil3" d="M5326 3867c2,0 4,0 5,0 4,-2 8,-4 12,-6 5,-2 9,-5 14,-7l1 -1c14,-8 28,-18 41,-29 41,-33 79,-70 114,-108 66,-71 127,-145 186,-221 95,-122 185,-248 272,-376 47,-70 93,-140 139,-211 2,-3 4,-4 8,-4 41,-3 79,-13 115,-33 31,-16 57,-39 77,-68 23,-37 33,-77 32,-120 0,-11 -1,-23 -4,-35 -2,-10 -6,-20 -10,-30 -16,-38 -37,-73 -65,-105 -6,-6 -12,-12 -18,-18 0,-1 0,-1 0,-2 3,-3 5,-7 7,-11 18,-28 30,-58 33,-91 4,-31 -2,-60 -19,-87 -15,-22 -29,-44 -44,-66 -1,-2 -2,-5 -1,-8 1,-15 8,-27 17,-39 13,-15 30,-26 47,-36 3,-2 6,-4 8,-6 7,-9 15,-18 22,-26 17,-19 32,-38 45,-59 15,-25 24,-51 23,-81 -1,-7 -2,-15 -2,-23 -3,-7 -5,-15 -7,-23 -1,-4 -3,-8 -6,-12l0 -1c-8,-13 -18,-24 -28,-35 -30,-31 -66,-47 -109,-50 -14,-1 -27,-2 -41,-2 -5,1 -10,2 -15,3 -6,2 -11,3 -17,4 -8,2 -16,4 -23,6 -2,1 -3,3 -5,3 -11,6 -21,14 -27,24 -6,8 -12,16 -8,27 2,8 6,10 13,4 1,-1 1,-2 2,-4 6,-14 17,-19 31,-16 1,0 3,0 4,0 8,3 16,4 23,10 8,6 9,13 4,21 -1,2 -2,3 -3,5 -3,11 -10,20 -19,27 -11,8 -23,16 -37,19 -23,5 -47,12 -70,18 -2,1 -4,1 -6,2 -17,3 -35,6 -52,9 -23,4 -47,8 -70,12 -19,3 -37,5 -56,10 -37,9 -72,23 -104,44 -39,26 -68,61 -84,106 -12,33 -15,68 -15,102 0,2 1,3 2,5 5,6 10,12 14,19 5,7 5,16 0,23 -2,4 -4,7 -7,11 -1,1 -3,2 -4,2 -11,4 -21,7 -32,10 -31,9 -62,17 -92,30 -26,11 -51,24 -74,41 -23,17 -44,38 -57,64 -18,39 -17,78 0,117 9,21 27,35 46,48 6,4 13,8 20,12 0,1 -1,2 -2,3 -19,29 -28,61 -26,95 2,28 10,54 20,80 0,2 1,5 0,7 -2,12 -5,24 -8,36 -24,114 -41,230 -52,346 -9,95 -16,191 -25,286 -6,74 -11,147 -21,220 -6,40 -13,81 -25,120 -2,6 -4,13 -7,19l0 0zm171 -1288c-1,15 -28,32 -25,-5 -1,-2 -1,-4 0,-6 5,-27 17,-50 35,-71 23,-28 52,-49 84,-66 42,-22 87,-37 133,-48 23,-5 47,-5 70,-4 40,3 80,6 120,9 19,1 39,0 58,1 14,0 26,-5 37,-14 18,-14 36,-30 54,-45 13,-11 26,-23 41,-31 7,-4 13,-7 21,-6 13,1 27,0 40,2 21,3 36,16 45,34 2,4 2,8 2,12 3,44 -16,77 -51,103 -22,16 -46,27 -70,40 -12,7 -25,8 -38,10 -31,4 -62,7 -93,12 -33,5 -63,18 -90,36 -53,35 -78,78 -89,102 -11,24 -18,48 -16,74 1,11 5,24 10,31 4,-7 7,-13 9,-19 8,-20 15,-39 23,-58 7,-18 18,-34 34,-45 9,-7 19,-11 30,-14 33,-9 66,-17 99,-26 19,-4 39,-4 58,-1 16,1 31,3 47,4 22,2 43,-1 63,-13 13,-7 27,-13 40,-20 10,-5 19,-3 27,4 6,5 11,12 13,20 7,22 14,45 15,68 1,29 -9,55 -25,79 -21,31 -49,53 -81,71 -15,9 -15,9 -33,7 -5,-1 -10,-2 -16,-3 12,-24 23,-47 35,-71 -11,-3 -21,-1 -30,5 -30,22 -63,40 -97,54 -20,7 -40,12 -60,16 -34,6 -67,9 -101,8 -51,0 -99,-9 -145,-30 -49,-23 -86,-58 -109,-107 -7,-16 -12,-33 -18,-49 -3,-9 -6,-18 -8,-27 -3,-9 -9,-14 -17,-16 -9,-3 -17,-4 -26,-6 -4,-1 -1,0 -5,-1l0 0zm716 -709c2,0 3,0 3,0 28,2 52,12 70,34 9,12 16,26 21,40 5,12 8,24 11,36 5,19 0,36 -10,52 -10,15 -23,28 -37,40 -26,21 -54,39 -82,57 -9,5 -17,11 -25,16 -15,9 -26,23 -39,35 -31,33 -62,65 -98,94 -13,11 -27,21 -43,28 -17,8 -35,11 -53,12 -28,3 -56,0 -84,-2 0,0 -1,0 -1,0 -25,-4 -49,-1 -73,7 -11,4 -22,6 -33,9 -3,1 -5,0 -5,-3 -6,-22 -12,-43 -18,-65 -7,-31 -7,-61 8,-91 11,-22 29,-40 49,-54 25,-18 54,-30 83,-41 30,-11 61,-20 93,-27 27,-6 55,-11 83,-15 20,-3 42,-4 62,-7 12,-2 24,-6 36,-11 34,-12 63,-33 89,-59 6,-6 9,-16 12,-25 7,-22 2,-41 -16,-57 -1,-1 -1,-1 -3,-3l0 0zm-658 1164c3,1 4,1 6,1 30,8 61,12 93,10 26,-1 51,-5 76,-10 12,-2 23,-5 34,-7 3,-1 4,0 5,2 20,38 44,75 69,110 1,1 1,1 2,3 -2,0 -3,0 -4,1 -40,4 -80,8 -120,9 -30,0 -60,0 -90,0 -3,0 -4,-1 -6,-3 -21,-38 -42,-75 -63,-112 -1,-1 -1,-2 -2,-4l0 0zm293 124c0,0 0,1 0,1 -19,34 -38,68 -58,101 -8,14 -18,26 -27,39 -1,1 -3,3 -5,3 -9,3 -17,5 -26,7 -2,1 -4,0 -6,1 -4,0 -6,-2 -9,-5 -15,-26 -31,-52 -47,-78 -5,-10 -9,-20 -14,-30 0,0 0,-1 -1,-2 12,-7 179,-39 193,-37l0 0zm-121 -298c3,0 4,0 5,0 38,8 76,16 114,23 3,1 3,2 4,5 4,15 8,31 13,46 5,15 11,29 16,43 1,4 1,5 -3,6 -29,6 -59,8 -89,8 -3,0 -4,-2 -5,-3 -14,-25 -25,-52 -35,-78 -6,-16 -13,-33 -20,-50l0 0zm-75 592c-8,5 -17,8 -26,10 -24,7 -49,9 -74,13 -4,0 -8,0 -13,1 -2,1 -4,0 -5,-2 -13,-17 -22,-35 -30,-54 -8,-17 -15,-33 -22,-50 -1,-3 -1,-4 2,-4 28,-2 56,-4 83,-6 4,0 6,1 8,4 15,18 31,37 47,55 9,11 20,22 30,33l0 0zm45 -140c-5,1 -8,3 -12,3 -18,2 -37,3 -56,4 -8,1 -16,1 -24,2 -3,0 -4,-1 -5,-3 -20,-40 -44,-77 -67,-116 -1,0 -1,-1 -2,-2 -1,-2 -1,-3 2,-4 26,0 52,-2 79,3 1,0 4,2 5,4 16,22 31,45 47,67 9,13 20,25 29,37 1,2 2,3 4,5l0 0zm-203 356c-8,-15 -17,-30 -23,-45 -10,-25 -19,-51 -28,-76 -1,-2 -2,-5 -3,-7 -2,-5 -1,-5 3,-5 16,-1 32,-1 48,-2 10,-1 20,-2 31,-3 1,0 3,0 4,1 13,16 25,31 37,46 -22,30 -45,61 -67,91 -1,0 -2,0 -2,0l0 0zm362 -526c-5,-8 -10,-16 -14,-25 -12,-22 -24,-43 -35,-65 -4,-9 -7,-19 -11,-29 0,-2 0,-4 3,-4 29,-9 59,-16 89,-21 1,0 3,1 3,2 5,12 13,23 20,34 1,1 1,4 1,5 -18,34 -36,67 -54,101 0,1 -1,1 -2,2l0 0zm-315 -428c7,10 13,21 20,31 16,22 37,40 59,56 18,13 37,26 56,39 1,1 3,1 4,3 -1,0 -2,1 -2,1 -31,0 -63,1 -94,0 -17,-1 -34,-6 -51,-9 -1,0 -3,-2 -3,-3 -3,-28 -5,-56 -7,-84 -1,-9 3,-16 8,-23 4,-4 7,-8 10,-11l0 0zm12 159c2,0 4,-1 5,0 26,2 51,4 77,1 15,-2 30,-6 46,-9 2,0 4,0 6,3 10,16 19,34 26,53 6,12 11,25 16,37 1,3 1,4 -3,4 -34,1 -66,-8 -96,-25 -29,-17 -53,-39 -77,-64l0 0zm-17 33c2,2 4,4 5,5 23,19 48,36 75,48 38,18 76,25 117,18 4,0 7,1 8,4 1,3 3,6 4,9 1,4 -1,6 -4,6 -16,-3 -31,-1 -47,0 -35,2 -69,6 -104,5 -21,-1 -42,-3 -61,-11 -6,-3 -6,-3 -6,-9 2,-18 4,-36 7,-53 1,-7 4,-14 6,-22l0 0zm452 -32c-3,5 -5,10 -7,15 -12,28 -24,56 -36,85 -2,3 -3,4 -7,5 -10,0 -20,1 -29,2 -3,0 -4,0 -5,-3 -13,-30 -22,-61 -31,-93 -1,-3 0,-4 3,-3 22,-1 45,-2 67,-3 13,-1 26,-3 39,-4 2,-1 3,-1 6,-1l0 0zm-505 811c0,0 -1,1 -1,1 -29,29 -58,59 -88,88 11,-68 17,-137 24,-206 8,21 12,43 24,63 12,19 25,37 41,54l0 0zm185 -242c-12,-12 -21,-25 -27,-40 -7,-15 -13,-30 -20,-45 -1,-3 0,-4 2,-5 26,-6 52,-13 78,-19 4,-1 8,-1 13,-1 1,0 3,0 4,1 6,3 11,8 14,15 1,3 1,5 -1,8 -9,14 -19,29 -30,44 -9,13 -19,25 -30,38 -1,1 -2,2 -3,4l0 0zm-214 -128c9,-45 18,-90 26,-135 1,0 1,0 2,0 1,2 2,5 3,7 21,42 41,85 62,127 2,5 2,5 -3,7 -13,4 -27,3 -40,1 -16,-2 -32,-4 -49,-6 0,0 0,0 -1,-1zm62 -295c7,11 15,23 22,35 16,31 32,62 49,93 1,2 1,4 -2,4 -34,1 -67,-4 -99,-14 0,-1 0,-1 -1,-1 10,-39 20,-78 30,-117 0,0 1,0 1,0l0 0zm-91 467c7,-39 14,-77 21,-116 0,0 1,0 1,0 17,38 35,76 52,114 -24,5 -49,8 -74,2l0 0zm198 7c-1,2 -2,2 -2,3 -14,20 -28,40 -41,60 -5,7 -7,7 -10,-1 -5,-11 -9,-23 -14,-34 -1,-3 1,-4 3,-5 12,-4 25,-8 37,-12 7,-3 14,-6 21,-9 2,-1 3,-1 6,-2l0 0z"/>
 </g>
</svg>
