<?xml version="1.0" encoding="utf-8"?>
<!-- Generator: Adobe Illustrator 19.1.0, SVG Export Plug-In . SVG Version: 6.00 Build 0)  -->
<svg version="1.1" id="Слой_1" xmlns="http://www.w3.org/2000/svg" xmlns:xlink="http://www.w3.org/1999/xlink" x="0px" y="0px"
	 viewBox="157.9 -11.9 29.4 44.5" style="enable-background:new 157.9 -11.9 29.4 44.5;" xml:space="preserve">
<style type="text/css">
	.st0{fill:#595959;}
</style>
<g>
	<path class="st0" d="M166.9-1.8c0.1,0,0.1,0,0.2,0c0.1,0.1,0.2,0.1,0.3,0.3c0.1,0,0.1,0,0.2,0.1l0,0c0.1-0.1,0.2,0.1,0.4,0.1
		c0.2,0.1,0.2,0.1,0.3-0.1c0,0,0,0,0.1,0c0,0,0,0,0,0.1c0.1,0.1,0.1,0.1,0.2,0.1c0.1,0,0.2,0,0.3,0.1c0,0,0.1,0,0.1,0
		c0.1-0.1,0.1,0,0.2,0.1c0.2,0,0.3,0.1,0.5,0.1c0,0,0,0,0.1,0c0.1,0.1,0.1,0.1,0.2,0.1c0.2,0.1,0.4,0.1,0.6,0.1c0.1,0,0.2,0,0.3,0.1
		c0.1,0.1,0.2,0.1,0.3,0.1c0.1,0,0.2,0,0.3,0.1c0.1,0.1,0.2,0.1,0.3,0.1c0,0,0.1,0,0.1,0c0,0,0.1-0.1,0.1-0.1h0c0,0.2,0,0.1,0.2,0.2
		c0.1,0,0.2,0,0.3,0.1c0,0,0.1,0,0.2-0.1c0.1,0.1,0.1,0.2,0.2,0.1c0.1,0,0.2,0,0.3,0.1c0.2,0,0.3,0,0.5,0c0.2,0.1,0.4,0.1,0.6,0.1
		c0.1,0,0.2,0,0.3,0c0.1,0,0.1-0.1,0.1-0.1c0.1,0,0.1,0,0.2,0s0.1,0,0.1,0c0.1,0,0.1,0,0.2-0.1c0.1,0,0.1-0.1,0.1-0.2
		c0,0.1,0,0.1,0.1,0.1c0.3,0,0.3-0.1,0.5-0.3c0.1,0,0.1,0,0.1-0.1c0,0,0.1-0.1,0.1-0.1c0.1,0.1,0.1,0.1,0.1,0.2c0,0,0.1,0,0.1,0.1
		c0,0,0-0.1,0-0.1s0-0.1,0-0.1c0,0,0,0,0.1,0c0,0.1,0,0.1,0,0.1c0.1,0,0.1,0,0.2,0c0.2,0,0.2,0,0.1-0.1c0.1,0,0.2,0,0.3,0
		c0-0.1,0.1-0.3,0.1-0.4c0,0,0.1-0.1,0.1-0.1c0.1,0,0.2-0.1,0.2-0.3c-0.1-0.1-0.1-0.2-0.2-0.2C177-1.8,177-1.9,177-1.9
		c0-0.1,0-0.1-0.1-0.1c-0.1-0.1-0.1-0.2-0.1-0.3c0-0.1-0.1-0.2-0.1-0.2c-0.2,0.4-0.2,0.8-0.1,1.2h0c0-0.1,0-0.1-0.1-0.2
		c-0.1-0.2-0.1-0.4-0.1-0.6c0-0.1,0-0.1,0-0.1c0.1-0.2,0.1-0.3,0.2-0.5c0.2-0.2,0.1-0.4-0.1-0.7c0,0,0-0.1,0-0.1c0-0.1,0-0.2,0-0.3
		c0,0,0.1,0,0.1,0.1c0.1,0.1,0.1,0.2,0.2,0.3c0,0,0,0.1,0.1,0.1c0,0,0,0,0,0.1c0,0.1,0,0.2,0,0.3c0,0.2,0,0.4,0,0.6
		c0,0.3,0.1,0.6,0.4,0.8c0-0.1,0.1-0.1,0.1-0.1c0.1,0,0.2-0.1,0.2-0.1c0,0-0.1-0.1-0.1-0.2c0-0.1,0-0.1,0-0.2c0,0,0.1,0,0.1,0.1
		c0,0.1,0.1,0.1,0.1,0c0.1,0,0-0.1,0-0.1c0,0,0-0.1-0.1-0.1c0-0.1-0.1-0.1-0.1-0.2c0,0,0-0.1,0-0.1c0-0.1,0-0.2-0.1-0.2
		c0,0,0-0.1,0-0.1c0-0.1,0-0.1,0.1-0.2c0,0,0-0.1,0-0.1c0,0,0-0.1,0-0.1s0-0.1,0-0.1l0,0c0.1-0.2,0.1-0.4,0.1-0.6c0,0,0-0.1,0-0.1
		c0,0,0.1,0,0.1,0c0-0.2-0.1-0.3-0.4-0.4c-0.1,0-0.1,0-0.1-0.1c-0.2-0.2-0.4-0.1-0.6-0.2c-0.1,0-0.3,0.1-0.3,0.2
		c-0.1-0.1-0.1-0.1-0.1-0.1c-0.1,0-0.2-0.1-0.3-0.1c0,0-0.1,0-0.2-0.1c-0.1-0.1-0.2-0.1-0.3,0c0,0,0,0-0.1,0c0,0-0.1-0.1-0.1-0.1
		s0,0,0,0c-0.1,0-0.2,0-0.3,0c-0.1,0-0.1,0-0.1,0c0,0,0,0-0.1,0c-0.1,0-0.1,0-0.2-0.1V-5c0.1,0,0.1,0,0.1,0c0,0,0.1,0,0.1,0
		c0-0.1,0-0.1,0-0.1c-0.1,0-0.2-0.1-0.3-0.1c-0.1,0-0.2,0-0.3,0c-0.1,0-0.1,0-0.2,0c-0.2,0-0.3,0.1-0.4,0.2c0,0.1-0.1,0.1-0.2,0.1
		c0,0-0.1,0-0.1,0.1c-0.1,0.1-0.1,0-0.2-0.1c0,0,0,0-0.1-0.1c0,0-0.1,0-0.1,0.1c-0.1,0.1-0.1,0.1-0.2,0.1c-0.1,0.1-0.2,0-0.3,0
		c0,0.1-0.1,0.2-0.3,0.2c0,0.1,0,0.1,0,0.2c-0.2,0,0,0.2-0.1,0.3c-0.1-0.1-0.1-0.2-0.1-0.3c-0.2,0-0.3-0.1-0.4-0.1
		c-0.1,0-0.1-0.1-0.2-0.1c-0.1,0-0.1-0.1-0.2-0.1c-0.1,0-0.1,0-0.1,0c-0.1,0-0.1,0-0.2,0c0,0,0,0,0,0c0,0,0,0.1-0.1,0.1
		c-0.3-0.2-0.4-0.1-0.5,0.1c0,0,0,0,0,0c0-0.1,0-0.1,0-0.1c0-0.1,0-0.2-0.2-0.3C170-5,170-5,169.9-5.1c0,0,0,0,0,0
		c-0.1-0.1-0.1-0.1-0.1-0.1c-0.1-0.1-0.2-0.1-0.3-0.1c-0.1,0-0.1,0-0.1,0c-0.1,0-0.1,0-0.1,0c0-0.1-0.1-0.3-0.3-0.3
		c0.1-0.1-0.1-0.2-0.1-0.3c0,0-0.1,0-0.1,0c0,0-0.1-0.1-0.1-0.1c0-0.1-0.1-0.1-0.2-0.1c0,0-0.1,0-0.1-0.1c0-0.1,0-0.1-0.1-0.2
		c0,0-0.1,0-0.1-0.1c-0.1-0.2-0.3-0.1-0.5-0.2c0,0,0,0-0.1,0c-0.2-0.1-0.3,0-0.5,0.1c0,0,0,0,0,0h0c0,0,0-0.1,0-0.1
		c0-0.1-0.1-0.2-0.3-0.2c0,0-0.1,0-0.1,0C166.4-7,166.2-7,166-7c-0.3-0.1-0.5-0.1-0.8-0.1c-0.1,0-0.1,0-0.1,0
		c-0.1,0.1-0.2,0.2-0.3,0.3c-0.1,0.1-0.2,0.1-0.2,0.1c-0.1,0.1-0.1,0.1-0.1,0.2c-0.2,0.1-0.2,0.2-0.2,0.4c0,0.1-0.1,0.2-0.2,0.3
		c-0.1,0-0.1,0.1-0.1,0.1c-0.1,0-0.1,0.1-0.1,0.2c0.1,0.1,0.1,0.1,0.2,0.1c0,0,0,0,0,0.1c0,0,0.1,0.1,0.1,0.1c0.1,0,0.3-0.1,0.3-0.2
		c0,0-0.1-0.1-0.1-0.1c-0.1,0-0.1,0-0.2-0.1c0-0.1,0-0.1,0.1-0.1c0.2-0.1,0.3-0.2,0.4-0.4c0-0.1,0.1-0.1,0.1-0.1
		c0.1,0,0.1-0.1,0.2-0.1v0c0.1-0.1,0.3-0.2,0.4-0.3c0,0,0.1,0,0.1,0c-0.1,0.1-0.1,0.2-0.2,0.2c-0.1,0.1-0.2,0.2-0.3,0.3
		c-0.1,0.1,0,0.1-0.1,0.2c0,0,0,0.1-0.1,0.1c0,0-0.1,0.1-0.1,0.1c0,0.1-0.1,0.3-0.3,0.3c0.1,0.1,0.3,0.1,0.4,0
		c0.2-0.1,0.3-0.3,0.4-0.6c0.1-0.1,0.1-0.1,0.3-0.1c0,0-0.1,0.1-0.1,0.1c0,0-0.1,0.1,0,0.1c0.1,0.1,0,0.1-0.1,0.1
		c-0.1,0.1-0.3,0.1-0.3,0.3c0,0,0,0.1-0.1,0.1c-0.1,0.1-0.1,0.1-0.1,0.2c-0.1,0.1-0.1,0.1-0.3,0.2c-0.1,0-0.2,0.1-0.3,0.1
		c0,0-0.1,0-0.1,0.1c0,0,0,0,0-0.1c0.1-0.1,0.3-0.2,0.4-0.3c-0.1,0-0.2-0.2-0.3-0.1c0,0-0.1,0-0.1,0c-0.1,0.1-0.3,0.2-0.4,0.3
		c0,0.1,0.1,0.1,0.1,0.2c0,0,0,0,0.1,0c0,0.1-0.3,0.1-0.1,0.3c0,0.1,0,0.1,0.1,0.1c0.2,0.1,0.2,0.2,0.1,0.3c0,0,0,0.1-0.1,0.1
		c0,0,0,0,0.1,0c0.1-0.1,0.1-0.1,0.2-0.2c0.2,0.1,0.3,0.1,0.3-0.1c0.1-0.2,0.1-0.3,0.3-0.5c0.3-0.4,0.5-0.9,0.9-1.1
		c0.1-0.1,0.2-0.1,0.3-0.2c0,0,0,0,0.1,0.1c-0.1,0.1-0.1,0.1-0.2,0.2c-0.1,0.1-0.3,0.2-0.3,0.4c0,0.1-0.1,0.1-0.1,0.1
		c0,0.1-0.1,0.1-0.1,0.1c0,0,0,0,0,0.1c-0.2,0.1-0.3,0.3-0.3,0.5c-0.1,0.2-0.3,0.4-0.4,0.5c-0.1,0.1-0.1,0.1-0.2,0.2
		c-0.1,0-0.1,0.1-0.2,0.1c-0.1,0-0.1,0.1-0.1,0.1c0.1,0,0.1,0,0.2,0.1c0,0,0,0,0.1,0c0,0.1,0.1,0.1,0.1,0.1c0,0-0.1,0-0.1,0
		c0,0-0.1,0-0.1,0c0,0,0,0,0,0.1c0.1,0.1,0.2,0.1,0.3,0.2c0-0.1,0-0.1,0.1-0.1c0.1,0.1,0.2,0.2,0.3,0.2c0.1,0,0.1,0.1,0.2,0.1
		c-0.2,0-0.1,0.1-0.2,0.2c0.1,0,0.1,0,0.1,0c0.1,0,0.1,0,0.1,0c0.1,0.1,0.2,0.1,0.3,0.2c0,0,0.1,0.1,0.1,0.1c0,0,0,0.1,0.1,0.1
		c0.1,0,0.1,0.1,0.2,0.1c0.1,0,0.1,0.1,0.1,0c0.1-0.1,0.1,0,0.1,0.1c0,0.1,0.1,0.1,0.2,0.2c0.1,0,0.2,0.1,0.2,0.1
		c0.1,0,0.1-0.1,0.1-0.2c0,0,0-0.1,0.1-0.1c0,0.1,0,0.1,0,0.2C166.6-2,166.7-1.9,166.9-1.8z M176.1-1.2c0-0.1,0-0.1-0.1-0.3
		C176.2-1.3,176.2-1.2,176.1-1.2z M175.1-0.6c0-0.2,0-0.4,0-0.5h0C175.1-1,175.1-0.8,175.1-0.6C175.1-0.6,175.1-0.6,175.1-0.6z
		 M175.6-3.1c0.1,0.1,0.1,0.2,0.2,0.3c0.1,0.1,0.1,0.3,0.1,0.4c0,0.1,0,0.1,0.1,0.2c0,0.1,0,0.3,0,0.4c0.1,0.1,0.1,0.2,0,0.3
		c-0.1,0.1-0.1,0.2-0.1,0.3c0,0,0,0,0,0c0-0.1-0.1-0.2,0-0.2c0.1-0.2,0-0.4,0-0.7C175.8-2.4,175.7-2.8,175.6-3.1
		c-0.1,0-0.1-0.1-0.1-0.1C175.5-3.2,175.5-3.2,175.6-3.1z M175.5-1C175.5-1,175.5-1,175.5-1c-0.1-0.1-0.1-0.2-0.1-0.3
		C175.6-1.2,175.5-1.1,175.5-1z M175.4-0.9c0.1,0.1,0.1,0.1,0,0.2C175.3-0.8,175.3-0.8,175.4-0.9C175.3-0.9,175.3-0.9,175.4-0.9z
		 M175.2-2.6c-0.1,0.1,0,0.1,0,0.2c0,0.1,0.1,0.3,0.1,0.4c0,0-0.1,0-0.1,0c0-0.1-0.1-0.1-0.1-0.2c0-0.2,0-0.3-0.1-0.5c0,0,0,0,0-0.1
		C175.1-2.7,175.3-2.6,175.2-2.6z M175.1-2.9C175.1-2.9,175.2-2.9,175.1-2.9c0,0.1-0.1,0.1-0.1,0.1c0,0,0-0.1,0-0.1
		C175.1-2.9,175.1-2.9,175.1-2.9z M175.1-1.9c0,0.2-0.1,0.4-0.1,0.6c0,0,0,0,0,0c0-0.1,0-0.3-0.1-0.4C175.1-1.6,175-1.8,175.1-1.9z
		 M174-2.6c0,0.1,0,0.3,0.1,0.4c0,0,0,0-0.1,0C174-2.3,174-2.5,174-2.6C174-2.6,174-2.6,174-2.6z M171.2-2.7
		C171.2-2.7,171.2-2.7,171.2-2.7c0.1,0.2,0,0.3,0,0.5c0,0,0,0-0.1,0C171.2-2.3,171.2-2.5,171.2-2.7z M170.6-2c0.1,0.1,0.1,0.3,0,0.4
		C170.6-1.7,170.6-1.9,170.6-2z M170.4-3.1c0.1,0.2-0.1,0.8-0.2,1c0,0,0,0,0,0C170.2-2.5,170.3-2.8,170.4-3.1z M170.2-4.4
		c0,0.1-0.1,0.2-0.1,0.2C170-4.3,170-4.3,170.2-4.4z M170-3.6C170-3.6,170-3.6,170-3.6c0,0.1,0,0.1,0,0.1c0,0,0,0-0.1,0
		C169.9-3.5,169.9-3.6,170-3.6z M169.9-3.4c0,0.3,0,0.6-0.3,0.9C169.7-2.8,169.8-3.1,169.9-3.4z M169.6-2.5
		C169.6-2.5,169.6-2.5,169.6-2.5c-0.1,0.3-0.2,0.6-0.4,0.8c0,0,0,0-0.1,0C169.3-1.9,169.4-2.2,169.6-2.5z M168.6-2.5
		c0.1-0.1,0.1-0.1,0-0.2c0.1,0,0.1-0.1,0.1-0.1c0.1-0.1,0.1-0.1,0.1-0.2c0,0,0,0,0.1,0c-0.1,0.3-0.3,0.5-0.4,0.7c0,0-0.1,0-0.1,0
		C168.5-2.3,168.5-2.4,168.6-2.5z M168.4-2c0,0,0,0.1-0.1,0.1C168.3-1.9,168.3-2,168.4-2z M168.2-3.1L168.2-3.1
		c0.1,0.2-0.1,0.4-0.2,0.6C168.1-2.7,168.1-2.9,168.2-3.1z M168-3.6c-0.1,0.4-0.3,0.7-0.5,1.1C167.5-2.6,167.9-3.4,168-3.6z
		 M167.4-2.3c0,0.1,0,0.1-0.1,0.2C167.4-2.1,167.3-2.2,167.4-2.3z M164.8-3.7c0.1-0.1,0.1-0.2,0.2-0.3C165-3.9,164.9-3.7,164.8-3.7z
		 M167.1-3.7C167.2-3.7,167.2-3.7,167.1-3.7c0,0.1-0.1,0.1-0.1,0.2c0,0,0,0-0.1,0C167.1-3.6,167.1-3.7,167.1-3.7z M165.6-2.8
		L165.6-2.8c0-0.1,0-0.1,0-0.2c0-0.1,0.1-0.2,0-0.3v0c0.1-0.1,0.1-0.1,0.1-0.2C165.8-3.5,165.6-2.9,165.6-2.8z M166.2-2.5
		C166.2-2.5,166.2-2.5,166.2-2.5C166.1-2.5,166.1-2.5,166.2-2.5C166.1-2.5,166.1-2.5,166.2-2.5c-0.1-0.2,0-0.3,0-0.5
		c0,0,0-0.1,0-0.1c0,0,0,0,0.1,0C166.2-2.9,166.2-2.7,166.2-2.5z M166.2-5.1C166.1-5.1,166.1-5,166-5c-0.1,0.2-0.2,0.4-0.3,0.6
		c-0.2,0.2-0.2,0.5-0.3,0.7c-0.1,0.1-0.1,0.3-0.2,0.4c0,0,0,0.1-0.1,0.1c0-0.1,0.1-0.3,0.1-0.5c0.1-0.2,0.1-0.4,0.2-0.5
		c0.1-0.2,0.1-0.3,0.3-0.5l0,0c0-0.1,0.1-0.1,0.1-0.2c0.1-0.2,0.2-0.4,0.5-0.4C166.3-5.3,166.3-5.2,166.2-5.1z M166.4-3.4
		C166.4-3.5,166.3-3.5,166.4-3.4c0-0.1,0-0.2,0.1-0.3c0,0,0,0,0,0C166.4-3.6,166.4-3.6,166.4-3.4z M166.5-4c-0.1-0.1,0-0.2,0-0.3
		c0.1-0.1,0.2-0.3,0.3-0.4c0,0,0.1,0,0.1,0s0,0,0,0C166.8-4.5,166.6-4.3,166.5-4z"/>
	<path class="st0" d="M165.3-9.1c0.1,0.1,0.2,0.2,0.3,0.3c0.1,0.2,0.3,0.3,0.5,0.4c0.1,0.1,0.1,0.1,0.3,0.1c0.1,0,0.1,0,0.2,0
		c0,0,0.1,0,0.1,0c0.1,0,0.1,0.1,0.2,0.1c0.3,0.1,0.7,0.3,1,0.5c0.1,0,0.1,0.1,0.2,0.2c0,0,0.1,0.1,0.1,0.1c0.1,0,0.1,0,0.1-0.1
		c0,0,0-0.1,0-0.1c0-0.1,0-0.2-0.2-0.3c0,0,0,0-0.1-0.1c-0.1-0.2-0.4-0.4-0.6-0.6c-0.2-0.2-0.5-0.4-0.8-0.5c0,0-0.1-0.1-0.1-0.1
		c-0.1,0-0.2,0-0.3-0.1c0,0-0.1-0.1-0.1-0.1c-0.1,0-0.1-0.1-0.2,0c-0.1-0.2-0.3-0.4-0.4-0.6c0,0,0,0,0,0c0.1,0.1,0.1,0.2,0.2,0.3
		c0,0,0.1,0.1,0.1,0.1c0.1,0.1,0.3,0.1,0.4,0.2c0.1,0.1,0.2,0.1,0.3,0.1c0-0.1,0-0.1-0.1-0.2c-0.1-0.1-0.2-0.3-0.3-0.5
		c0,0,0-0.1,0-0.1c0.1,0,0.1,0.1,0.1,0.1c0,0.2,0.1,0.3,0.3,0.4c0,0,0,0,0.1,0c0,0,0,0,0,0c0,0-0.1,0-0.1,0.1
		c0.1,0.1,0.2,0.2,0.3,0.3c0.1,0.1,0.1,0.1,0.2,0.2c0.1,0.1,0.1,0.1,0.3,0.2c0.1,0.1,0.2,0.1,0.3,0.2c0.1,0.1,0.2,0.1,0.3,0.1
		c0.1,0,0.1-0.1,0.1-0.1c-0.1-0.1-0.1-0.1,0-0.2v0c-0.1-0.2,0-0.4-0.1-0.5c0,0,0-0.1,0-0.1c0-0.1,0-0.1,0-0.2c0-0.1-0.1-0.2,0-0.3
		c0,0,0-0.1,0-0.1c0-0.1,0-0.1,0-0.2c0,0,0,0,0.1,0c0,0.1,0.1,0.1,0.1,0.2c0,0.1,0.1,0.3,0.1,0.4c0.1,0.4,0.2,0.8,0.5,1.2
		c0,0,0,0,0,0c0,0.2,0.3,0.3,0.4,0.5c0,0.1,0.1,0.1,0.3,0.2c0-0.1,0-0.1,0-0.2c0.1,0.1,0.2,0.2,0.2,0.3c0,0.1,0,0.1,0.1,0.2
		c0,0,0.1,0.1,0.1,0.1c0,0.1,0.1,0.1,0.1,0.2c0-0.1,0.1-0.1,0.1-0.2c0,0.1,0.1,0.2,0.3,0.3c0-0.1,0-0.1,0-0.1c0,0,0,0,0.1,0
		c0.1,0,0.1,0,0.1-0.1c0,0,0-0.1,0-0.1c0,0,0.1,0,0.1,0c0.1,0.1,0.3,0.2,0.4,0.3c0.1,0,0.1,0.1,0.1,0.1c0.1,0,0.2,0,0.2,0.1
		c0,0,0.1,0,0.1,0c0,0,0.1-0.1,0.1-0.1c0,0,0-0.1,0-0.1c0,0,0,0,0.1,0c0.1,0.1,0.2,0.2,0.3,0.1c0.1-0.1,0.1-0.1,0.3-0.1
		c0,0,0,0.1,0,0.1c0.1,0,0.2,0,0.3,0.1c0,0,0,0,0,0c0.1,0,0.1,0.1,0.1,0.1c0.2,0.1,0.2-0.1,0.3-0.1c0,0,0-0.1-0.1-0.1c0,0,0,0,0,0
		c0.1,0.1,0.1,0.1,0.2,0.2c0.1-0.1,0.1-0.1,0.1-0.1c0,0,0.1,0,0.1-0.1c0.1,0,0.1-0.1,0.2-0.1c0.1,0,0.2-0.1,0.3-0.2c0,0,0,0,0.1-0.1
		c0.1,0,0.2-0.1,0.3-0.2c0.1-0.1,0.3-0.2,0.4-0.4c0.1-0.1,0.2-0.3,0.3-0.4c0.1-0.1,0.1-0.1,0.1-0.2c0.1-0.1,0.2-0.2,0.3-0.3
		c0.1-0.1,0.2-0.3,0.3-0.4c0,0,0.1,0,0.1,0c0,0.1-0.1,0.1-0.1,0.2c0,0-0.1,0.1,0,0.1c0,0.1,0,0.1-0.1,0.2c-0.1,0-0.1,0.1-0.1,0.2
		c-0.1,0.1-0.1,0.1-0.1,0.2c-0.1,0.1-0.1,0.2-0.1,0.3c0.1,0,0.1,0.1,0.1,0.1c0.2-0.1,0.4-0.2,0.6-0.3c0,0,0.1-0.1,0.1-0.1
		c0,0,0,0.1,0,0.1c0,0,0,0.1,0,0.1c-0.1,0.1-0.3,0.2-0.5,0.3c0,0-0.1,0-0.1,0c-0.1,0.1-0.2,0.1-0.3,0.2c-0.1,0.1-0.3,0.2-0.4,0.3
		c0,0,0,0.1,0,0.2c0,0-0.1,0-0.1,0.1c0,0.1,0.1,0.1,0.2,0.1s0.2,0,0.3-0.1c0.1-0.1,0.2-0.1,0.3-0.1c0,0,0.1,0,0.1,0
		c0.2-0.1,0.5-0.1,0.7-0.1c0.1,0,0.3-0.1,0.4,0c0,0,0.1,0,0.1,0c0.1,0,0.1,0,0.2,0c0.1,0,0.2,0,0.2,0c0.1,0,0.1,0,0.1,0
		c0.1,0,0.2,0.1,0.3,0c0.1-0.1,0.1-0.1,0-0.2c0.1,0,0.2,0,0.3,0c0,0,0,0.1,0,0.1c0.1,0,0.1,0,0.1,0c0.1-0.1,0.3-0.1,0.4-0.2
		c0,0,0.1-0.1,0.1-0.1c-0.1-0.1-0.1-0.1-0.2-0.1c-0.1-0.1-0.2-0.1-0.3-0.1c0.2,0,0.2-0.1,0.2-0.2c-0.2-0.1-0.3,0.1-0.4,0.1
		c0,0,0,0,0,0c0,0,0-0.1,0.1-0.1c0.1-0.1,0.1-0.1,0.2-0.2c0,0,0-0.1,0-0.1c0,0-0.1,0-0.1,0c0,0,0,0.1-0.1,0.1c0,0-0.1,0-0.1,0
		c0,0,0,0-0.1-0.1c0.3,0,0.3-0.1,0.2-0.3c-0.1,0.1-0.1,0.1-0.2,0c0,0-0.1,0-0.1,0c0-0.1,0-0.1,0-0.2s0-0.1-0.1-0.1
		c-0.1,0-0.1-0.1-0.2-0.2c0.1-0.1,0.1-0.1,0.1-0.1c0-0.1,0.1-0.1,0-0.1c0,0-0.1,0-0.1,0c0,0.1,0,0.1,0,0.2c0.1,0.1,0.1,0.1,0,0.1
		c-0.1-0.1-0.1-0.1-0.1-0.2c0,0,0,0,0,0c-0.1,0-0.1,0.1-0.1,0.1c-0.1-0.1-0.2-0.1-0.2-0.1c0,0-0.1-0.1-0.1-0.1c0,0,0.1-0.1,0.1-0.1
		c0.1,0,0.1,0,0.2,0.1c0.1,0.1,0.1,0.1,0.2-0.1c0-0.1-0.1-0.1-0.1-0.2c0,0-0.1,0.1-0.1,0.1c0-0.1-0.1-0.1-0.1-0.2
		c0.1,0,0.1-0.1,0.1-0.1c0,0-0.1-0.1-0.1-0.1c0,0-0.1-0.1-0.1-0.1c-0.2,0.1-0.4-0.1-0.6-0.1c0-0.2-0.3-0.1-0.4-0.2c0,0,0,0,0-0.1
		c0.1,0,0.2,0,0.3,0c-0.1-0.1-0.2-0.1-0.3-0.1c0,0,0,0,0,0c-0.1-0.1-0.2-0.2-0.4-0.2c-0.1,0-0.1-0.1-0.2-0.1c0.1,0,0.1-0.1,0.2-0.1
		c-0.1-0.1,0-0.2-0.2-0.2c-0.1,0-0.1-0.1-0.1-0.1c-0.1-0.1-0.2-0.1-0.3-0.2c0,0,0,0,0,0c0,0,0,0.1,0,0.1c0.1,0.1,0.2,0.1,0.3,0.2
		c0,0,0.1,0,0.1,0.1c0,0,0.1,0.1,0.1,0.1c0,0-0.1,0.1-0.1,0c-0.1,0-0.1-0.1-0.1-0.1c-0.1,0-0.1-0.1-0.2-0.1c-0.1-0.1-0.2-0.1-0.3,0
		c0,0-0.1-0.1-0.1-0.1c0-0.1-0.1-0.1-0.1-0.1c-0.1,0-0.1,0-0.2,0c-0.1-0.1-0.2,0-0.2,0.1s0,0.2,0,0.3c0,0,0,0,0,0c0-0.1,0-0.1,0-0.2
		c0-0.1,0-0.1-0.1-0.1c-0.1,0-0.1,0-0.1,0c-0.1,0.1-0.3,0.2-0.5,0.2c0,0,0.1,0,0.1,0.1c-0.2,0.1-0.3,0.2-0.5,0.3
		c-0.1-0.1-0.1-0.1-0.3,0c0,0-0.1,0-0.2,0c0,0-0.1-0.1-0.1-0.1c0,0.1,0,0.1-0.1,0.1c-0.1,0-0.2,0-0.3,0c-0.1,0-0.2-0.1-0.2-0.2
		c-0.1,0.1-0.1,0.1-0.2,0.1c-0.1,0-0.1,0-0.2-0.1c0-0.1-0.1-0.1-0.2-0.1c0-0.1,0-0.1-0.1-0.1c0,0-0.1,0-0.1,0
		c-0.1-0.1-0.1-0.2-0.2-0.3c0,0,0,0,0,0c0,0.1,0,0.2-0.1,0.3c0,0,0,0-0.1,0c0-0.1-0.1-0.1,0-0.2c0,0,0-0.1,0-0.1c0,0,0-0.1,0-0.1
		c-0.1,0-0.1,0-0.2,0c0,0-0.1,0-0.1,0.1c0,0.1-0.1,0.1-0.1,0.2c0,0.3-0.1,0.5-0.1,0.8c0,0.1,0,0.2-0.1,0.3c0,0,0,0.1,0,0.2
		c0,0,0,0,0,0c0-0.1-0.1-0.2,0-0.3c0-0.3,0-0.7,0.1-1c0-0.1-0.1-0.2,0.1-0.3c0,0,0-0.1-0.1-0.1c-0.1-0.1-0.2-0.1-0.4-0.1
		c0,0.3-0.2,0.6,0,0.9c-0.1,0-0.1,0-0.1-0.1c0-0.1,0-0.2,0-0.3c0-0.2,0.1-0.3,0.1-0.5c0-0.1,0.1-0.2,0.1-0.2c0-0.1-0.1-0.1-0.1-0.1
		c0,0-0.1,0.1-0.1,0.1c0,0.1,0,0.1,0.1,0.2c0,0,0,0.1,0,0.1c0,0,0,0-0.1,0c0,0-0.1-0.1-0.1-0.1c-0.1,0-0.1,0-0.2,0
		c-0.1-0.1-0.1-0.2-0.1-0.3c0,0-0.1,0-0.1,0c0,0,0,0,0,0c0,0-0.1,0.1-0.1,0.1c-0.1,0.1-0.1,0.1,0,0.2c0.2,0.1,0.2,0.2,0.2,0.3
		c0,0.1-0.1,0.1-0.1,0.2c0-0.1,0-0.1,0-0.2c0-0.1,0-0.1-0.1-0.2c-0.2-0.1-0.2-0.2-0.2-0.3c0,0-0.1-0.1-0.1-0.1c0,0-0.1,0-0.1,0
		c-0.1,0.1-0.1,0.2-0.3,0.1c0,0-0.1,0.1-0.1,0.1c0.1,0,0.2,0,0.3,0c0,0.1,0,0.1,0,0.1c0.1,0,0.2,0,0.3,0.1c0,0,0,0,0,0
		c0,0.2,0.1,0.5,0.1,0.7c0,0.2,0.1,0.4,0.1,0.7c0,0.1,0.1,0.2,0.1,0.3c0,0.1,0,0.1,0,0.3c-0.1-0.1-0.1-0.1-0.1-0.2
		c-0.1,0-0.1-0.1-0.1-0.1c0.1,0,0.2-0.1,0.2-0.2c-0.1-0.2-0.1-0.3-0.1-0.5c0-0.3-0.1-0.5-0.1-0.8c0,0,0-0.1-0.1-0.1
		c0,0-0.1,0-0.1-0.1c0,0-0.1,0-0.1,0c0,0,0-0.1,0-0.1c-0.1-0.1-0.2,0.1-0.2-0.1c-0.2,0-0.2,0.1-0.2,0.2c-0.2,0.1-0.2,0.1-0.1,0.3
		c0,0,0,0.1,0,0.1c0-0.1-0.1-0.1-0.1-0.2c0-0.1,0-0.1-0.1-0.1c0,0-0.1-0.1-0.1,0c-0.1,0-0.1,0-0.2,0.1c-0.1,0.1-0.1,0.1-0.2,0.2
		c-0.1-0.1-0.1-0.1-0.2,0c0,0-0.1,0-0.2,0c0,0-0.1,0-0.1-0.1c0,0.1,0.1,0.2,0,0.3c0,0,0,0,0,0c0,0-0.1-0.1-0.1-0.1c0,0,0,0.1,0,0.1
		c0,0,0,0,0,0.1c-0.2-0.1-0.3,0-0.3,0.2c-0.1-0.1-0.2,0-0.1,0.1c0,0.1,0.1,0.2,0.1,0.3c-0.1,0-0.1-0.1-0.1-0.1
		c0-0.1-0.1-0.2-0.1-0.3c-0.1,0.1,0.1,0.2,0,0.3c0,0-0.1-0.1-0.1-0.1c0,0.1,0,0.1,0,0.2h0c0,0-0.1-0.1-0.1-0.1
		c0-0.1-0.1-0.1-0.2-0.1c-0.1,0-0.1,0.1-0.1,0.1c0,0.1,0,0.1,0.1,0.2c0-0.1-0.1-0.1-0.1-0.1c0,0-0.1,0-0.1,0c0,0,0,0.1,0,0.1
		c0.1,0.2,0.2,0.5,0.4,0.7c0,0,0,0.1,0,0.1c0,0-0.1,0-0.1,0c-0.1-0.1-0.1-0.2-0.2-0.3c-0.1-0.1-0.1-0.1-0.1-0.2
		c0-0.1-0.1-0.2-0.1-0.3c0,0-0.1-0.1-0.1-0.1c0,0,0,0-0.1,0c0,0.1,0,0.1,0,0.2c0,0.1,0,0.1-0.1,0.1c0,0-0.1,0-0.1,0
		c0.1,0.1,0.1,0.2,0.1,0.3C165-9.5,165.1-9.3,165.3-9.1z M176.3-9.7c0.1,0.1,0.1,0.1,0.1,0.2C176.2-9.6,176.2-9.7,176.3-9.7z
		 M169.1-10.3C169.1-10.3,169.1-10.3,169.1-10.3c0.1,0.1,0.1,0.1,0.1,0.2c0,0.1,0,0.3,0,0.4c0,0.1,0,0.1,0,0.2c0,0.1,0,0.3,0,0.4
		c0,0.1,0,0.2,0.1,0.3s0.1,0.2,0.1,0.3c0,0,0,0.1,0,0.1c0,0.1,0,0.3,0,0.4v0c-0.1,0-0.1,0-0.2,0c0,0,0-0.1,0.1-0.1
		c0.1,0,0.1-0.1,0.1-0.1c0-0.1-0.1-0.3-0.1-0.4c0-0.3-0.2-0.5-0.1-0.8c0-0.1,0-0.2,0-0.3C169.1-10,169.1-10.1,169.1-10.3z
		 M166.2-10.6c0.1,0.1,0.1,0.3,0.2,0.4c0,0,0,0,0,0C166.3-10.3,166.1-10.4,166.2-10.6L166.2-10.6z"/>
	<path class="st0" d="M177.2-6.8C177.2-6.8,177.2-6.8,177.2-6.8c-0.2,0-0.3,0-0.4,0.1c-0.1,0-0.1,0-0.2,0c-0.2,0-0.4,0-0.6,0
		c-0.4,0-0.8,0.1-1.2,0.1c-0.2,0-0.4,0-0.6,0.1c-0.1,0-0.1,0.1-0.2,0.1c0.1,0,0.1,0.1,0.2,0.1c-0.1,0.1-0.1,0-0.2,0
		c0,0.1,0.1,0.3,0.3,0.3c0.1,0,0.1,0,0.1,0.1c0,0,0.1,0.1,0.1,0.1c0,0,0.1,0.1,0.1,0.1c0.2,0,0.3,0.1,0.5,0.1c0.1,0,0.1,0.1,0.2,0.1
		c0.1,0.1,0.1,0.1,0.2,0.1c0.1,0,0.2,0.1,0.3,0.1c0.2,0.1,0.4,0.1,0.5,0.2c0.1,0,0.1,0.1,0.2,0.1c0,0,0.1,0,0.1,0
		c0.1,0,0.1,0,0.2,0.1c0,0.1,0.1,0.1,0.1,0.1c0,0,0.1,0.1,0.1,0.1c0,0.1,0.1,0.1,0.2,0.2c0.1,0,0.1,0.1,0.2,0.1
		c0.1,0.1,0.2,0.1,0.3,0.1c0.1,0,0.2,0,0.2,0.1c0,0,0.1,0,0.1,0c0-0.1,0-0.1,0-0.1c-0.1-0.1-0.1-0.2,0.1-0.2c0.1,0,0.1,0,0.1,0h0
		c0,0,0.1-0.1,0.1-0.1c0,0,0.1-0.1,0.1-0.1c0,0,0-0.1-0.1-0.1c0,0-0.1,0-0.1-0.1c-0.2,0-0.2,0-0.3-0.2c0.1,0,0.2,0,0.3,0
		c0,0,0,0,0-0.1c-0.1,0-0.1-0.1-0.2-0.1c-0.1,0-0.3,0-0.4,0.1c-0.1,0.1-0.1,0-0.2-0.1c0.1,0,0.2,0,0.4,0c-0.2-0.2-0.3-0.3-0.6-0.3
		c-0.1,0-0.1,0-0.1,0c-0.1-0.1-0.3-0.1-0.5-0.1c-0.1,0-0.3,0-0.5,0c-0.1,0-0.1,0-0.2-0.1c0,0,0,0,0,0c0,0,0.1,0,0.1,0
		c0.2,0,0.5-0.1,0.7-0.1c0.1,0,0.3,0,0.5,0c0.1,0,0.3,0.1,0.5,0.1c0.1,0,0.2,0,0.3-0.1c0,0-0.1-0.1-0.1-0.1c0.1,0,0.3,0,0.4-0.1l0,0
		c-0.1,0-0.2,0-0.3,0c-0.1,0-0.3-0.1-0.4-0.1c-0.1,0-0.1,0-0.1,0c-0.2,0.1-0.5,0.1-0.7,0.1c-0.3,0-0.6-0.1-0.9,0
		c-0.2,0-0.3,0.1-0.5,0.1c-0.3,0-0.5,0.1-0.7,0.2c0,0,0,0-0.1,0c0,0,0-0.1,0-0.1c0,0-0.1,0-0.2-0.1c0.2,0,0.3-0.1,0.5-0.1
		c0.4-0.1,0.9-0.1,1.3-0.2c0.1,0,0.3,0,0.4,0c0.1,0,0.1,0,0.1,0c0,0,0,0,0.1,0c0.1,0,0.2,0,0.3,0c0.1,0,0.2,0,0.3,0
		c0.1,0,0.2,0,0.2-0.1c0,0,0.1,0,0.1,0c0,0,0.1,0,0.1,0c0-0.1,0.1-0.1,0.2-0.1c0.1,0,0.1,0,0.2,0v0c-0.1,0-0.1-0.1-0.1-0.1
		c0,0,0.1-0.1,0-0.1c0-0.1-0.2-0.1-0.2,0c0,0.1-0.2,0.1-0.3,0.2c-0.1,0-0.2-0.1-0.3-0.1c0-0.1,0.1-0.1,0.2-0.1c0.1,0,0.2,0,0.3-0.1
		c0,0,0,0,0.1-0.1c-0.1,0-0.1,0-0.1,0c0,0,0,0,0,0c-0.1,0-0.2,0.1-0.4,0.1C177.6-7,177.4-6.9,177.2-6.8z"/>
	<path class="st0" d="M163.4-8.5c-0.1-0.1-0.2-0.1-0.3-0.2c0,0.1,0,0.1,0,0.2c0,0.1,0.1,0.1,0.2,0.1c0,0,0.1,0,0.1,0
		c0.1,0.1,0.2,0.1,0.4,0.1v0c0-0.1-0.1-0.1-0.1-0.1c0,0,0,0,0,0c0.2,0.1,0.4,0.1,0.6,0.2c0,0,0,0,0,0c-0.1,0-0.3-0.1-0.4-0.1
		c0,0.1,0.1,0.1,0.1,0.1c-0.1,0-0.3,0-0.4,0c0,0,0,0.1,0,0.1c0.2,0.1,0.3,0.3,0.5,0.4c0.1,0,0.2,0,0.3,0s0.1,0.1,0.1,0.1
		c0.1,0,0.2,0.1,0.3,0.1c0.2,0.1,0.5,0.1,0.7,0c0.1-0.1,0.4-0.1,0.5,0c0,0,0.1,0,0.1,0c0.1-0.1,0.2,0,0.3-0.1
		c0.1-0.1,0.1-0.1,0.2-0.1c0,0,0.1,0,0.2-0.1c0.1,0.1,0.2,0,0.3-0.1c0.1,0,0.1,0,0.1,0c0.1,0.1,0.2,0.1,0.3,0.1
		c0.1,0,0.2-0.1,0.2-0.1c-0.2-0.3-0.6-0.4-0.9-0.5c-0.2-0.1-0.4-0.1-0.5-0.2c-0.2-0.1-0.4-0.2-0.6-0.2c-0.1-0.1-0.3-0.1-0.4-0.1
		c-0.1,0-0.1-0.1-0.2-0.1c-0.1-0.1-0.3-0.2-0.5-0.3c-0.1-0.1-0.2-0.1-0.3-0.1c-0.1,0-0.1-0.1-0.2-0.1c0,0,0,0-0.1-0.1
		c-0.1-0.1-0.3-0.3-0.5-0.4c-0.1-0.1-0.1-0.1-0.2,0c0,0,0,0.1,0,0.1c0,0.1,0.1,0.1,0.1,0.2c-0.1-0.1-0.2-0.1-0.3-0.2
		c-0.1,0,0,0.1-0.1,0.1c0,0,0.1,0.1,0.1,0.1c-0.1,0-0.1,0-0.1,0c0,0.1,0.2,0.3,0.4,0.3c0,0,0.1,0,0.1,0c0.1,0.1,0.2,0.2,0.4,0.2
		c0.2,0,0.4,0.1,0.5,0.1c0.3,0.1,0.5,0.2,0.8,0.3c0,0,0,0.1,0.1,0.1c-0.3-0.1-0.5-0.1-0.7-0.1c0,0.1,0.1,0.1,0.1,0.2
		c-0.3-0.1-0.5-0.2-0.7-0.3c-0.2-0.1-0.4-0.2-0.7-0.3C163.1-9,163-9,162.9-9v0C163-8.9,163.2-8.7,163.4-8.5L163.4-8.5z M164.7-8
		c-0.1-0.1-0.2-0.1-0.3-0.2C164.6-8.2,164.7-8.2,164.7-8z"/>
	<path class="st0" d="M163.9-9.5c0.1,0.1,0.1,0.1,0.2,0.2c0.1,0.1,0.2,0.1,0.3,0.2c0.1,0.1,0.2,0.1,0.2,0c0.1,0.2,0.3,0.2,0.5,0.3
		c0,0,0,0,0.1,0c0.2,0.1,0.2,0.1,0.4,0.1c-0.1-0.2-0.2-0.3-0.4-0.5c-0.1-0.1-0.1-0.1-0.2-0.2c0-0.1-0.1-0.2-0.1-0.3
		c-0.1-0.1-0.1-0.2-0.1-0.3c0-0.1-0.1-0.1-0.1-0.2c-0.1-0.1-0.1-0.1-0.1,0c0,0.1-0.1,0.1-0.1,0c0,0-0.1,0-0.1,0c0,0,0,0.1,0,0.1
		c0.2,0.1,0.1,0.2,0.2,0.3c-0.1-0.1-0.1-0.1-0.2-0.1c-0.1,0-0.1,0-0.2,0c0,0,0,0.1,0.1,0.1c0.1,0.1,0.2,0.2,0.3,0.3s0.2,0.2,0.2,0.3
		c-0.1,0-0.1-0.1-0.2-0.1c-0.1-0.1-0.3-0.1-0.4-0.2c-0.1-0.1-0.1-0.1-0.1-0.2c0-0.1-0.1-0.1-0.1-0.1c-0.1,0,0,0.1,0,0.1
		S163.8-9.5,163.9-9.5z"/>
	<path class="st0" d="M167.9-7.4c0.1,0,0.1-0.1,0.1-0.1c-0.1,0-0.1-0.1-0.1-0.1c0,0-0.1,0-0.1-0.1s-0.1-0.1-0.2,0c0,0,0,0.1,0.1,0.1
		c0,0,0.1,0,0.1,0.1C167.9-7.4,167.9-7.4,167.9-7.4z"/>
	<path class="st0" d="M186.2,14.9c0-0.1,0-0.1-0.1-0.2c0,0,0,0,0,0c0-0.1,0-0.2-0.1-0.2c0,0,0-0.1,0-0.1c0,0,0.1-0.1,0.1-0.1
		c0,0,0-0.1,0-0.1c0,0,0-0.1,0-0.1c0,0,0,0,0-0.1s0,0,0-0.1c0.1-0.2,0.1-0.4,0-0.6c0,0,0,0,0-0.1c0.1,0,0.1,0,0.1,0
		c0-0.3-0.1-0.3-0.4-0.4c-0.1,0-0.1,0-0.1-0.1c-0.2-0.1-0.4-0.1-0.6-0.2c-0.1-0.1-0.3,0.1-0.3,0.2c-0.1-0.1-0.1-0.1-0.2-0.1
		c-0.1-0.1-0.1-0.1-0.2-0.1c-0.1,0-0.1,0-0.2-0.1c-0.1-0.1-0.2-0.1-0.3,0c0,0-0.1,0-0.1-0.1c0,0,0,0-0.1-0.1c0,0,0,0,0,0.1
		c-0.1,0-0.2,0-0.3-0.1c0,0-0.1,0-0.1,0h0c-0.1,0-0.1,0-0.2-0.1v0c0.1,0,0.1,0,0.2,0c0,0,0,0,0.1,0c0-0.1,0-0.1,0-0.1
		c-0.1,0-0.2-0.1-0.3-0.1c-0.1,0-0.2,0-0.3,0s-0.1,0-0.2,0c-0.2,0-0.3,0.1-0.3,0.2c0,0.1-0.1,0.2-0.2,0.1c0,0-0.1,0-0.1,0
		c-0.1,0.1-0.1,0.1-0.2,0c0,0,0-0.1-0.1-0.1s-0.1,0-0.1,0c0,0.1-0.1,0.2-0.2,0.1c-0.1,0.1-0.2,0-0.3-0.1c0,0.1-0.1,0.2-0.3,0.2
		c0,0.1,0,0.1,0,0.2c-0.2,0,0,0.2-0.1,0.3c0-0.1-0.1-0.2-0.1-0.3c-0.2,0-0.3,0-0.5-0.1c-0.1,0-0.1,0-0.2,0c-0.1,0-0.1-0.1-0.2-0.1
		c0,0-0.1,0-0.1,0c-0.1,0-0.1,0-0.2,0.1c0,0,0,0,0,0s0,0,0,0.1c-0.3-0.2-0.4-0.1-0.5,0.1c0,0,0,0,0,0s0-0.1,0-0.1
		c0-0.1,0-0.2-0.1-0.3c-0.1,0-0.1-0.1-0.2-0.1c0,0,0,0,0-0.1c-0.1,0-0.1-0.1-0.1-0.1c-0.1-0.1-0.2-0.1-0.3-0.1c0,0-0.1-0.1-0.1-0.1
		c0,0-0.1,0-0.1,0c0-0.1-0.1-0.3-0.3-0.3c0.1-0.1-0.1-0.2-0.1-0.3c0,0-0.1,0-0.1,0c-0.1,0-0.1-0.1-0.1-0.1c0-0.1-0.1-0.1-0.2-0.1
		c0,0-0.1,0-0.1,0c0.1-0.1,0.1-0.1-0.1-0.2c-0.1,0-0.1,0-0.1-0.1c-0.1-0.2-0.3-0.2-0.5-0.2c0,0-0.1,0-0.1,0c-0.2-0.1-0.3,0-0.5,0.1
		c0,0,0,0,0,0s0,0,0,0c0-0.1,0-0.1,0-0.1c0-0.1-0.1-0.2-0.3-0.2c0,0-0.1,0-0.1,0c-0.2-0.1-0.5-0.1-0.7-0.1c-0.3-0.1-0.5-0.1-0.8-0.1
		c0,0-0.1,0-0.1,0c-0.1,0.1-0.2,0.2-0.3,0.3c-0.1,0.1-0.2,0.1-0.2,0.1c-0.1,0.1-0.1,0.1-0.1,0.2c-0.2,0.1-0.2,0.2-0.2,0.4
		s-0.1,0.2-0.2,0.3c-0.1,0-0.1,0.1-0.1,0.1c-0.1,0.1-0.1,0.1-0.1,0.2c0,0.1,0.1,0.1,0.2,0.1v0c0.1,0.1,0.1,0.1,0.1,0.1
		c0.1,0,0.3-0.1,0.3-0.2c0,0-0.1-0.1-0.1-0.1c0,0-0.1,0-0.2,0c0-0.1,0.1-0.1,0.1-0.1c0.2-0.1,0.3-0.2,0.4-0.4c0,0,0.1-0.1,0.1-0.1
		c0.1-0.1,0.1-0.1,0.1-0.1c0,0,0,0,0,0c0.1-0.1,0.3-0.2,0.4-0.3c0,0,0,0,0.1,0c-0.1,0.1-0.2,0.2-0.2,0.3c-0.1,0.1-0.2,0.2-0.3,0.3
		c0,0.1,0,0.1-0.1,0.2c0,0.1,0,0.1-0.1,0.1c0,0.1-0.1,0.1-0.1,0.1c0,0.1-0.1,0.3-0.3,0.3c0.2,0.1,0.3,0.1,0.4,0
		c0.2-0.1,0.3-0.3,0.5-0.6c0.1-0.1,0.1-0.1,0.3-0.1c0,0.1-0.1,0.1-0.1,0.1c0,0,0,0.1,0,0.1c0.1,0.1,0,0.1-0.1,0.1
		c-0.1,0.1-0.3,0.2-0.3,0.3c0,0-0.1,0-0.1,0.1c-0.1,0.1-0.1,0.1-0.2,0.2c-0.1,0.1-0.1,0.1-0.2,0.1c-0.1,0.1-0.2,0.1-0.3,0.2
		c0,0-0.1,0-0.1,0c0,0,0,0,0,0c0.1-0.1,0.3-0.2,0.5-0.3c-0.1,0-0.2-0.1-0.3-0.1c0,0,0,0-0.1,0c-0.1,0.1-0.3,0.2-0.4,0.2
		c0,0.1,0.1,0.1,0.1,0.2c0,0,0,0,0.1,0c0,0.1-0.3,0.1-0.1,0.2c0,0.1,0,0.1,0.1,0.2c0.2,0,0.2,0.2,0.1,0.3c0,0-0.1,0.1-0.1,0.1
		c0,0,0.1,0,0.1,0c0.1-0.1,0.2-0.1,0.2-0.2c0.2,0.1,0.3,0.1,0.3-0.1c0.1-0.1,0.2-0.3,0.3-0.5c0.3-0.4,0.5-0.9,0.9-1.2
		c0.1-0.1,0.2-0.1,0.3-0.2l0,0c-0.1,0.1-0.1,0.1-0.2,0.2c-0.1,0.1-0.3,0.2-0.3,0.4c0,0.1-0.1,0.1-0.1,0.1c-0.1,0.1-0.1,0.1-0.1,0.2
		c0,0,0,0,0,0c-0.2,0.1-0.3,0.3-0.4,0.5c-0.1,0.2-0.3,0.4-0.4,0.5c-0.1,0.1-0.1,0.1-0.2,0.2c0,0.1-0.1,0.1-0.2,0.1
		c0,0-0.1,0.1-0.1,0.1c0.1,0,0.1,0,0.2,0c0,0,0,0,0.1,0c0,0,0,0.1,0.1,0.1c0,0-0.1,0-0.1,0c0,0-0.1,0-0.1,0c0,0,0,0.1,0,0.1
		c0.1,0.1,0.2,0.1,0.3,0.2c0-0.1,0-0.1,0-0.1c0.1,0.1,0.2,0.1,0.3,0.2c0.1,0,0.1,0.1,0.2,0.1c-0.2,0-0.1,0.1-0.2,0.2
		c0.1,0,0.1,0,0.2,0c0,0,0.1,0,0.1,0c0.1,0.1,0.1,0.1,0.2,0.2c0.1,0,0.1,0.1,0.1,0.1c0,0,0.1,0.1,0.1,0.1c0.1,0,0.1,0.1,0.2,0.1
		c0.1,0,0.1,0.1,0.1,0c0.1-0.1,0.1,0,0.1,0c0,0.1,0.1,0.2,0.2,0.2c0.1,0,0.2,0.1,0.2,0.1c0.1,0,0.1-0.1,0.1-0.2c0,0,0-0.1,0.1-0.1
		c0,0.1,0,0.1-0.1,0.2c0,0.1,0,0.2,0.2,0.3c0.1,0,0.1,0,0.2,0c0.1,0.1,0.2,0.1,0.3,0.3c0.1-0.1,0.2,0,0.2,0.1h0
		c0.1,0,0.3,0.1,0.4,0.1c0.2,0.1,0.2,0,0.3-0.1c0,0,0,0,0.1-0.1c0,0,0,0.1,0,0.1c0,0.1,0.1,0.1,0.2,0.1c0.1,0,0.2,0,0.3,0.1
		c0,0,0.1,0,0.1,0c0.1-0.1,0.1,0,0.2,0.1c0.2,0,0.3,0,0.5,0.1c0,0,0,0,0.1,0c0,0.1,0.1,0.1,0.1,0c0.2,0.2,0.4,0.1,0.6,0.1
		c0.1,0,0.2,0,0.2,0.1c0.1,0.1,0.2,0.1,0.3,0.1c0.1,0,0.2,0,0.3,0.1s0.2,0.1,0.3,0.1c0,0,0,0,0.1,0c0.1,0,0.1-0.1,0.1-0.1
		c0,0,0,0,0,0c0,0.1,0,0.1,0.2,0.2c0.1,0,0.3,0,0.3,0.1c0,0,0.1,0,0.2-0.1c0,0,0,0,0,0c0,0.1,0,0.1,0.2,0.1c0.1,0,0.2,0,0.3,0
		c0.2,0,0.4,0.1,0.5,0c0.2,0.1,0.4,0.1,0.6,0.1c0.1,0,0.2,0,0.3,0c0.1,0,0.1,0,0.2,0s0.1,0,0.2,0c0,0,0.1,0,0.1,0
		c0.1,0,0.1-0.1,0.2-0.1c0-0.1,0-0.1,0.1-0.2c0,0,0.1,0.1,0.1,0.1c0.3,0,0.4-0.1,0.5-0.2c0.1,0,0.1,0,0.1-0.1c0-0.1,0.1-0.1,0.1-0.1
		c0.1,0.1,0.1,0.1,0.2,0.2c0,0,0.1,0,0.1,0c0,0,0,0,0-0.1c0-0.1,0-0.1,0-0.1c0,0,0,0,0.1,0c0,0,0,0.1,0,0.1c0.1,0,0.1,0,0.2,0
		c0.2,0,0.2,0,0.1-0.1c0.1,0,0.2,0,0.3,0c0-0.1,0.1-0.3,0.1-0.4c0,0,0.1-0.1,0.1-0.1c0.1,0,0.2-0.1,0.2-0.3c0-0.1-0.1-0.2-0.2-0.2
		c-0.1-0.1-0.1-0.1-0.2-0.2c0-0.1,0-0.1-0.1-0.1c-0.1-0.1-0.1-0.2-0.1-0.3c0-0.1-0.1-0.2-0.1-0.3c-0.2,0.4-0.2,0.8-0.1,1.2
		c0,0,0,0,0,0c0-0.1,0-0.1-0.1-0.2c-0.1-0.2-0.1-0.4-0.1-0.6c0,0,0-0.1,0-0.1c0.1-0.1,0.1-0.3,0.2-0.4c0.2-0.2,0.1-0.5-0.1-0.7
		c0,0,0-0.1,0-0.1c0-0.1,0-0.2,0-0.3c0,0,0.1,0,0.1,0.1c0.1,0.1,0.1,0.2,0.2,0.3c0,0,0,0.1,0,0.1c0,0,0.1,0.1,0.1,0.1
		c0,0.1,0,0.2,0,0.3c0,0.2,0,0.4,0,0.6c0,0.3,0.1,0.6,0.4,0.8c0-0.1,0-0.1,0.1-0.1c0.1-0.1,0.1-0.1,0.2-0.1c0,0-0.1-0.1-0.1-0.1
		c0-0.1,0-0.1,0-0.2c0,0,0.1,0,0.1,0.1c0,0.1,0.1,0.1,0.1,0C186.3,15.1,186.3,15.1,186.2,14.9C186.2,15,186.2,15,186.2,14.9z
		 M173.3,13.5c0.1-0.1,0.1-0.2,0.2-0.3C173.5,13.3,173.4,13.5,173.3,13.5z M174.1,14.4C174.1,14.4,174.1,14.4,174.1,14.4
		c0-0.1,0-0.1,0-0.2c0-0.1,0.1-0.2,0-0.3c0,0,0,0,0,0c0-0.1,0.1-0.2,0.1-0.3C174.2,13.8,174.2,14.3,174.1,14.4z M174.5,12.2
		c-0.1,0.2-0.2,0.4-0.3,0.6c-0.2,0.2-0.2,0.5-0.3,0.7c-0.1,0.1-0.1,0.3-0.2,0.4c0,0-0.1,0-0.1,0.1c0.1-0.2,0.1-0.3,0.1-0.5
		c0.1-0.2,0.1-0.4,0.2-0.5c0.1-0.1,0.1-0.3,0.3-0.4c0,0,0,0,0-0.1c0-0.1,0.1-0.1,0.1-0.2c0.1-0.1,0.2-0.3,0.5-0.4
		c-0.1,0.1-0.1,0.2-0.2,0.2C174.6,12.1,174.5,12.2,174.5,12.2z M174.7,14.7C174.7,14.8,174.6,14.8,174.7,14.7
		C174.6,14.8,174.6,14.7,174.7,14.7L174.7,14.7c-0.1-0.2,0-0.3,0-0.5c0,0,0-0.1,0-0.1c0,0,0.1,0,0.1,0
		C174.7,14.4,174.7,14.5,174.7,14.7z M174.9,13.8C174.8,13.8,174.8,13.8,174.9,13.8c0-0.1,0-0.2,0.1-0.3c0,0,0,0,0,0
		C174.9,13.6,174.9,13.7,174.9,13.8z M175,13.2c-0.1-0.1,0-0.2,0-0.3c0.1-0.2,0.2-0.3,0.3-0.4c0,0,0.1,0,0.1-0.1c0,0,0,0,0,0
		C175.3,12.7,175.1,12.9,175,13.2z M175.5,13.6C175.5,13.6,175.5,13.6,175.5,13.6c0-0.1,0.1-0.1,0.1-0.2c0,0,0,0,0,0
		C175.7,13.6,175.6,13.6,175.5,13.6z M175.9,15.2c0-0.1-0.1-0.2,0.1-0.2C175.9,15,175.9,15.1,175.9,15.2z M176,14.8
		c0-0.1,0.3-1,0.5-1.1C176.3,14,176.2,14.4,176,14.8z M176.5,14.7c0.1-0.2,0.1-0.4,0.2-0.6c0,0,0,0,0.1,0
		C176.8,14.3,176.6,14.5,176.5,14.7z M176.8,15.4c-0.1-0.1-0.1-0.1,0-0.2C176.9,15.3,176.8,15.3,176.8,15.4z M177,15
		C177,15,177,15,177,15c0-0.1,0-0.2,0.1-0.3c0-0.1,0.1-0.1,0-0.1c0-0.1,0.1-0.1,0.1-0.1c0-0.1,0.1-0.1,0.1-0.2c0,0,0,0,0.1,0
		C177.3,14.5,177.2,14.8,177,15z M177.7,15.6C177.7,15.6,177.6,15.6,177.7,15.6c0.1-0.3,0.3-0.6,0.4-0.9c0,0,0,0,0,0
		C177.9,15.1,177.9,15.4,177.7,15.6z M178.1,14.7c0.1-0.3,0.1-0.6,0.3-0.9C178.3,14.1,178.4,14.4,178.1,14.7z M178.5,13.8
		C178.4,13.8,178.4,13.8,178.5,13.8c-0.1-0.1,0-0.1,0-0.2c0,0,0.1,0,0.1,0C178.5,13.7,178.5,13.7,178.5,13.8z M178.6,13.1
		c-0.1-0.1-0.1-0.2,0.1-0.2C178.7,12.9,178.6,13,178.6,13.1z M178.7,15.1C178.7,15.1,178.7,15.1,178.7,15.1c0-0.3,0.1-0.7,0.1-1
		C178.9,14.3,178.8,14.9,178.7,15.1z M179.1,15.6c0-0.1,0-0.3,0-0.4C179.2,15.4,179.2,15.5,179.1,15.6z M179.7,15.1L179.7,15.1
		c0-0.2,0-0.3,0-0.5c0,0,0.1,0,0.1,0C179.7,14.7,179.7,14.9,179.7,15.1z M182.5,15.1c0-0.1,0-0.3-0.1-0.4c0,0,0,0,0.1,0
		C182.5,14.8,182.5,14.9,182.5,15.1L182.5,15.1z M183.6,14.3c0,0-0.1,0.1-0.1,0.1c0-0.1,0-0.1-0.1-0.1
		C183.5,14.3,183.6,14.3,183.6,14.3z M183.6,16.6C183.6,16.6,183.6,16.6,183.6,16.6c-0.1-0.2-0.1-0.4-0.1-0.5c0,0,0,0,0.1,0
		C183.6,16.2,183.6,16.4,183.6,16.6z M183.5,15.9c0-0.1-0.1-0.3-0.1-0.4c0.2,0,0-0.2,0.2-0.2C183.6,15.6,183.6,15.7,183.5,15.9z
		 M183.7,15c0-0.2,0-0.3-0.1-0.5c0,0,0,0,0-0.1c0.1,0.1,0.2,0.1,0.2,0.2c-0.1,0.1,0,0.1,0,0.2c0,0.1,0.1,0.3,0.1,0.4c0,0,0,0-0.1,0
		C183.7,15.2,183.7,15.1,183.7,15z M183.9,16.5c0-0.1-0.1-0.1-0.1-0.2c0,0,0,0,0.1,0C183.9,16.4,184,16.4,183.9,16.5z M184,16.2
		C184,16.2,184,16.2,184,16.2c-0.1-0.1-0.1-0.2-0.1-0.3C184,16,184,16.1,184,16.2z M184.4,15.7c-0.1,0.1-0.1,0.2-0.1,0.3
		c0,0,0,0,0,0c0-0.1-0.1-0.2,0-0.2c0.1-0.2,0.1-0.5,0-0.7c0-0.4-0.1-0.7-0.3-1.1c0-0.1,0-0.1,0-0.1C184,14,184,14,184,14.1
		c0.1,0.1,0.1,0.3,0.2,0.4c0.1,0.1,0.1,0.3,0.1,0.4c0,0.1,0,0.1,0,0.2c0,0.1,0,0.3,0.1,0.4C184.5,15.5,184.5,15.6,184.4,15.7z
		 M184.6,16c0-0.1-0.1-0.1-0.1-0.2C184.7,15.9,184.8,16,184.6,16z"/>
	<path class="st0" d="M178.7,6.4L178.7,6.4c-0.1-0.1-0.1-0.1-0.1-0.2c0,0,0,0,0.1-0.1c0,0,0-0.1,0-0.1c-0.1,0-0.1,0-0.2-0.1
		c0,0-0.1,0.1-0.1,0.1c0,0.1-0.1,0.1-0.1,0.2c0,0.3-0.1,0.5-0.1,0.8c0,0.1,0,0.3-0.1,0.3c0,0.1,0,0.1,0,0.2h0c0-0.1,0-0.2,0-0.3
		c0-0.3,0.1-0.7,0.1-1c0-0.1-0.1-0.2,0-0.3c0,0,0-0.1,0-0.1c-0.1-0.1-0.3-0.1-0.4-0.2c0,0.3-0.2,0.6,0,0.9c-0.1,0-0.1,0-0.1-0.1
		s0-0.2,0-0.3c0-0.2,0.1-0.3,0.1-0.5c0-0.1,0-0.2,0.1-0.3c0-0.1,0-0.1-0.1-0.1c-0.1,0-0.1,0-0.1,0.1c0,0.1,0,0.1,0.1,0.2
		c0,0,0,0.1,0,0.1s0,0,0,0c-0.1,0-0.1-0.1-0.2-0.1c-0.1,0-0.1,0-0.2,0c0-0.1-0.1-0.2-0.1-0.3c0,0-0.1,0-0.1,0c0,0,0,0,0,0
		c0,0,0,0.1-0.1,0.1c-0.1,0.1-0.1,0.1,0,0.2c0.1,0.1,0.2,0.2,0.2,0.3c0,0.1,0,0.1-0.1,0.1c0-0.1,0-0.1,0-0.2c0-0.1,0-0.2-0.1-0.2
		c-0.2-0.1-0.2-0.2-0.2-0.3c0-0.1,0-0.1-0.1-0.1c0,0-0.1,0-0.1,0.1c-0.1,0.1-0.1,0.2-0.3,0.1c0,0-0.1,0.1-0.1,0.1c0.1,0,0.2,0,0.3,0
		c0,0,0,0.1,0,0.1c0.1,0,0.2,0.1,0.3,0.1c0,0,0,0,0,0.1c0,0.2,0.1,0.5,0.1,0.7c0,0.2,0,0.4,0.1,0.6c0,0.1,0.1,0.2,0.1,0.3
		s0,0.2,0,0.3c-0.1-0.1-0.1-0.1-0.1-0.1c-0.1,0-0.1-0.1-0.1-0.1c0.1,0,0.2-0.1,0.2-0.2c-0.1-0.2,0-0.4,0-0.5c0-0.3-0.1-0.5-0.1-0.8
		c0,0-0.1-0.1-0.1-0.1c0,0-0.1,0-0.1,0c-0.1,0-0.1,0-0.1,0c0,0,0-0.1,0-0.1c-0.1-0.1-0.2,0.1-0.2-0.1c-0.1,0-0.2,0.1-0.2,0.2
		c-0.1,0.1-0.1,0.1-0.1,0.3c0,0.1,0,0.1,0,0.1c0-0.1-0.1-0.1-0.1-0.2c0-0.1,0-0.1-0.1-0.1c0,0-0.1,0-0.1,0c-0.1,0-0.1,0-0.2,0.1
		c-0.1,0-0.1,0.1-0.2,0.2c-0.1-0.1-0.2-0.1-0.3,0c0,0-0.1,0-0.1,0c0,0-0.1,0-0.1,0c0,0.1,0.1,0.2,0,0.3h0c0-0.1,0-0.1-0.1-0.1
		c0,0,0,0.1,0,0.1v0c-0.2-0.1-0.3,0-0.4,0.2c-0.1-0.1-0.1,0-0.1,0.1c0,0.1,0,0.2,0.1,0.3c-0.1,0-0.1-0.1-0.1-0.1
		c0.1-0.1-0.1-0.2-0.1-0.3c-0.2,0.1,0,0.2-0.1,0.3c0,0-0.1-0.1-0.1-0.1c0,0.1,0,0.1,0,0.2c0,0,0,0,0,0c0-0.1-0.1-0.1-0.1-0.1
		c0-0.1-0.1-0.1-0.1-0.1c-0.1,0-0.1,0.1-0.1,0.1c0,0.1,0,0.1,0,0.1c0,0-0.1-0.1-0.1-0.1c0,0-0.1,0-0.1-0.1c0,0,0,0.1,0,0.1
		c0.1,0.3,0.2,0.5,0.4,0.7c0,0,0,0.1,0,0.1c0,0-0.1,0-0.1,0c-0.1-0.1-0.1-0.2-0.2-0.3c-0.1-0.1-0.1-0.2-0.1-0.2
		c-0.1-0.1-0.1-0.2-0.1-0.3c0,0-0.1-0.1-0.1-0.1c0,0,0,0-0.1,0c0,0.1,0,0.1,0,0.2c0.1,0.1,0,0.1-0.1,0.1c0,0,0,0-0.1,0
		c0.1,0.1,0.1,0.2,0.2,0.3c0.1,0.2,0.2,0.4,0.4,0.5c0.1,0.1,0.2,0.2,0.3,0.3c0.1,0.2,0.3,0.3,0.5,0.4c0.1,0,0.2,0.1,0.3,0.1
		c0.1,0,0.1,0,0.2,0c0,0,0.1,0,0.1,0c0.1,0.1,0.1,0.1,0.2,0.1c0.3,0.1,0.7,0.3,1,0.4c0.1,0.1,0.1,0.1,0.2,0.2c0.1,0,0.1,0.1,0.2,0.1
		c0.1,0,0.1,0,0.1-0.1c0,0,0-0.1,0-0.1c0-0.1,0-0.3-0.2-0.3c0,0-0.1,0-0.1,0c-0.2-0.3-0.4-0.4-0.6-0.6c-0.3-0.2-0.5-0.4-0.8-0.6
		c0,0-0.1,0-0.1,0c-0.1,0-0.2,0-0.3-0.1c-0.1-0.1-0.1-0.1-0.2-0.1c-0.1-0.1-0.1-0.1-0.2,0c-0.1-0.2-0.3-0.4-0.4-0.6c0,0,0,0,0.1,0
		c0.1,0.1,0.1,0.2,0.2,0.3c0.1,0,0.1,0.1,0.1,0.1c0.1,0.1,0.3,0.1,0.4,0.2c0.1,0,0.2,0.1,0.3,0.1c0-0.1,0-0.2-0.1-0.2
		c-0.2-0.1-0.2-0.3-0.3-0.5c0,0,0,0,0-0.1c0,0.1,0.1,0.1,0.1,0.1c0,0.2,0.1,0.3,0.3,0.4c0,0,0,0,0,0c0,0,0,0-0.1,0.1
		c0.1,0.1,0.2,0.2,0.3,0.3c0.1,0.1,0.1,0.1,0.2,0.2c0.1,0.1,0.2,0.1,0.3,0.2c0.1,0,0.2,0.1,0.3,0.2c0.1,0.1,0.2,0.1,0.3,0.1
		c0.1,0,0.1,0,0.1-0.1c-0.1-0.1-0.1-0.1,0-0.2c0,0,0,0,0-0.1c-0.1-0.2,0-0.3-0.2-0.5c0,0,0-0.1,0-0.1c0-0.1,0-0.1,0-0.2
		c0-0.1-0.1-0.2,0-0.3c0,0,0-0.1,0-0.1c0-0.1,0-0.1,0-0.2c0,0,0,0,0,0c0,0.1,0.1,0.1,0.1,0.2c0.1,0.1,0.1,0.3,0.1,0.4
		c0.1,0.4,0.2,0.8,0.5,1.2c0,0,0,0,0,0c0,0.2,0.3,0.3,0.4,0.5c0.1,0.1,0.2,0.1,0.3,0.2c0-0.1,0-0.1,0-0.2c0.1,0.1,0.2,0.2,0.2,0.3
		c0,0.1,0,0.1,0.1,0.2c0,0,0,0.1,0.1,0.1c0.1,0.1,0.1,0.1,0.1,0.2c0.1-0.1,0.1-0.1,0.1-0.2c0,0.1,0.1,0.2,0.3,0.3c0-0.1,0-0.1,0-0.1
		c0,0,0.1,0,0.1,0c0.1,0,0.1,0,0.1-0.1c0,0,0-0.1,0-0.1c0,0,0.1,0,0.1,0c0.1,0.1,0.3,0.2,0.4,0.3c0.1,0.1,0.1,0.1,0.1,0.2
		c0.1,0,0.2,0,0.2,0.1l0.1,0c0,0,0.1-0.1,0.1-0.1c0,0,0-0.1,0-0.1c0,0,0.1,0,0.1,0c0.1,0.1,0.2,0.1,0.3,0.1c0.2-0.1,0.2-0.1,0.3-0.1
		c0,0,0,0,0,0.1c0.1,0,0.2,0,0.3,0.1c0,0,0,0,0.1,0c0.1,0,0.1,0,0.1,0.1c0.2,0.1,0.2,0,0.3-0.1c0,0-0.1-0.1-0.1-0.1c0,0,0,0,0,0
		c0.1,0.1,0.1,0.1,0.2,0.2c0,0,0.1-0.1,0.1-0.1c0,0,0-0.1,0.1-0.1c0.1,0,0.1-0.1,0.2-0.1c0.2,0,0.2-0.1,0.3-0.2c0,0,0.1-0.1,0.1-0.1
		c0.1,0,0.2-0.1,0.3-0.2c0.1-0.1,0.3-0.2,0.4-0.4c0.1-0.1,0.2-0.3,0.3-0.4c0-0.1,0.1-0.1,0.1-0.1c0.1-0.1,0.1-0.2,0.3-0.3
		c0.1-0.1,0.2-0.2,0.3-0.3c0,0,0,0,0.1,0c-0.1,0.1-0.1,0.1-0.1,0.2c0,0,0,0.1,0,0.1c0,0.1,0,0.1-0.1,0.1c-0.1,0.1-0.1,0.1-0.1,0.2
		c-0.1,0.1-0.1,0.1-0.1,0.2c-0.1,0.1-0.1,0.2-0.1,0.3c0.1,0.1,0.1,0.1,0.2,0.1c0.2-0.1,0.4-0.2,0.5-0.4c0,0,0.1,0,0.1-0.1
		c0,0.1,0,0.1,0.1,0.1l0,0.1c-0.2,0.1-0.3,0.2-0.5,0.3c0,0-0.1,0-0.1,0.1c-0.1,0.1-0.2,0.1-0.3,0.2c-0.1,0.1-0.3,0.2-0.4,0.3
		c0,0,0,0.1,0,0.2c0,0-0.1,0-0.1,0.1c0,0.1,0.1,0.1,0.1,0.1c0.1,0,0.2,0,0.3,0c0.1-0.1,0.2-0.1,0.3-0.1c0,0,0.1,0,0.1,0
		c0.3-0.1,0.5-0.1,0.7-0.1c0.1,0,0.3-0.1,0.4,0c0,0,0.1,0,0.1,0c0.1,0,0.1,0,0.2,0c0.1,0,0.2,0,0.3,0c0,0,0.1,0,0.1,0
		c0.1,0,0.2,0.1,0.3,0c0.1,0,0.1-0.1,0-0.1c0.1,0,0.2,0,0.3,0c0,0,0,0.1,0,0.1c0.1,0,0.1,0,0.1,0c0.1-0.1,0.3-0.1,0.4-0.2
		c0,0,0,0,0-0.1c-0.1,0-0.1-0.1-0.1-0.1c-0.1-0.1-0.2-0.1-0.3-0.1c0.1,0,0.2-0.1,0.2-0.2c-0.2-0.1-0.3,0-0.4,0.1c0,0,0-0.1,0.1-0.1
		c0.1-0.1,0.1-0.1,0.2-0.2c0,0,0-0.1,0-0.1c0,0-0.1,0-0.1,0c0,0-0.1,0.1-0.1,0.1c0,0-0.1,0-0.1,0c0,0,0-0.1,0-0.1
		c0.2,0,0.3-0.2,0.2-0.3c-0.1,0-0.1,0.1-0.2,0c0,0-0.1,0-0.1-0.1c0-0.1,0.1-0.1,0.1-0.2c0-0.1-0.1-0.1-0.1-0.1
		c-0.1,0-0.1-0.1-0.1-0.2c0-0.1,0.1-0.1,0.1-0.1c0-0.1,0.1-0.1-0.1-0.2c0,0-0.1,0-0.1,0c0,0.1,0,0.1,0,0.2c0,0.1,0,0.1,0,0.1
		c-0.1-0.1-0.1-0.1-0.1-0.3c0,0,0,0,0,0c-0.1,0-0.1,0-0.2,0.1v0c-0.1,0-0.1-0.1-0.2-0.1c0,0-0.1,0-0.1,0c0,0,0-0.1,0.1-0.1
		c0.1,0,0.1,0,0.2,0.1c0.1,0.1,0.2,0.1,0.2-0.1c-0.1-0.1-0.1-0.1-0.1-0.2c0,0-0.1,0-0.1,0.1c0-0.1-0.1-0.1-0.1-0.2
		c0,0,0.1-0.1,0.1-0.1c0,0-0.1-0.1-0.1-0.1c0,0-0.1-0.1-0.1-0.1c-0.2,0.1-0.4-0.1-0.6-0.1c0-0.2-0.2-0.1-0.4-0.2c0,0,0,0,0-0.1
		c0.1,0,0.2,0,0.3,0c-0.1-0.1-0.1-0.1-0.3-0.1l0,0c-0.1-0.1-0.2-0.2-0.4-0.2c0,0-0.1,0-0.1-0.1c0.1,0,0.1-0.1,0.2-0.1
		c-0.1-0.1,0-0.2-0.2-0.2c0,0-0.1,0-0.1-0.1c-0.1-0.1-0.2-0.1-0.3-0.2h0c0,0.1,0,0.1,0,0.1c0.1,0.1,0.2,0.1,0.3,0.2
		c0,0,0,0.1,0.1,0.1c0,0.1,0.1,0.1,0.1,0.2l-0.1,0c-0.1-0.1-0.1-0.1-0.1-0.1c-0.1-0.1-0.1-0.1-0.2-0.2c-0.1-0.1-0.2-0.1-0.3,0.1
		c0,0-0.1-0.1-0.1-0.1c0-0.1-0.1-0.1-0.2-0.1c-0.1,0-0.1,0-0.2,0c-0.1-0.1-0.1,0-0.1,0.1c0,0.1,0,0.2-0.1,0.3h0c0-0.1,0-0.1,0-0.2
		c0-0.1,0-0.1-0.1-0.1c0,0-0.1,0-0.1-0.1c-0.1,0.1-0.3,0.3-0.5,0.2c0,0,0.1,0.1,0.1,0.1c-0.2,0.1-0.4,0.1-0.5,0.2
		c-0.1-0.1-0.1-0.1-0.3,0c0,0-0.1,0-0.2,0c0,0-0.1-0.1-0.1-0.1c0,0.1,0,0.1-0.1,0.1c-0.1,0-0.2,0-0.3,0c-0.1,0-0.2-0.1-0.2-0.2
		c-0.1,0.1-0.1,0.1-0.2,0.1c-0.1,0.1-0.1,0-0.2-0.1c0-0.1-0.1-0.1-0.2-0.1c0,0,0-0.1,0-0.1c-0.1,0-0.1,0-0.2,0
		c-0.1-0.1-0.1-0.2-0.2-0.4c0,0,0,0,0,0C178.7,6.2,178.7,6.3,178.7,6.4z M174.8,7c0-0.1-0.2-0.3-0.2-0.4c0,0,0,0,0.1,0
		C174.7,6.8,174.8,6.9,174.8,7C174.8,7,174.8,7,174.8,7z M177.9,9.2c-0.1,0-0.1,0-0.2,0c0,0,0-0.1,0.1-0.1c0.1,0,0.1-0.1,0.1-0.1
		c0-0.1-0.1-0.3-0.1-0.5c0-0.3-0.1-0.5-0.1-0.8c0-0.1,0-0.2,0-0.3c0-0.2,0-0.3,0-0.5c0,0,0,0,0.1,0c0,0.1,0,0.1,0,0.2
		c0,0.1,0,0.3,0.1,0.4c0,0.1,0,0.1,0,0.2c0,0.1,0,0.3,0,0.4c0,0.1,0,0.2,0.1,0.3c0.1,0.1,0.1,0.2,0.1,0.3c0,0,0,0.1,0,0.1
		C177.9,8.9,177.9,9,177.9,9.2C177.9,9.2,177.9,9.2,177.9,9.2z M184.8,7.5c0.1,0.2,0.1,0.2,0.1,0.2C184.7,7.6,184.7,7.6,184.8,7.5z"
		/>
	<path class="st0" d="M187.2,11c-0.1,0-0.2,0-0.3,0c-0.1,0-0.3,0-0.4,0c0,0-0.1,0-0.1,0c-0.2,0-0.5,0.1-0.7,0c-0.3,0-0.6-0.1-0.9,0
		c-0.1,0-0.3,0.1-0.5,0.1c-0.3,0-0.5,0.1-0.8,0.2c0,0,0,0,0,0c0,0,0-0.1,0-0.1c-0.1,0-0.1-0.1-0.2-0.1c0.2-0.1,0.3-0.1,0.5-0.1
		c0.4-0.1,0.9-0.1,1.3-0.2c0.1,0,0.3,0,0.4-0.1c0,0,0.1,0,0.1,0c0,0,0.1,0,0.1,0c0.1,0,0.2,0,0.3,0c0.1,0,0.2,0,0.3,0
		c0.1,0,0.2,0,0.2-0.1c0.1,0,0.1,0,0.1,0c0,0,0.1,0,0.1,0c0.1-0.1,0.1-0.1,0.3-0.1c0.1,0,0.1,0,0.1,0c0,0,0,0,0-0.1c0,0-0.1,0-0.1,0
		c0-0.1,0-0.1,0-0.1c0,0-0.2,0-0.2,0c0,0.1-0.2,0.1-0.3,0.2c-0.1-0.1-0.2-0.1-0.3-0.1c0.1-0.1,0.1-0.1,0.2-0.1c0.1,0,0.2,0,0.3-0.1
		c0,0,0-0.1,0.1-0.1c0,0-0.1,0-0.1,0s-0.1,0-0.1,0c-0.1,0-0.2,0-0.3,0c-0.2,0-0.4,0.1-0.6,0.2c0,0-0.1,0-0.1,0c-0.1,0-0.2,0-0.3,0
		c-0.1,0-0.1,0-0.2,0c-0.2,0-0.4,0-0.6,0c-0.4,0-0.8,0.1-1.2,0.1c-0.2,0-0.4,0-0.6,0.1c-0.1,0-0.1,0.1-0.1,0.1c0.1,0,0.1,0,0.2,0.1
		c0,0.1-0.1,0-0.2,0c-0.1,0.1,0.1,0.2,0.2,0.3c0.1,0,0.2,0,0.1,0.1c0,0,0,0.1,0.1,0.1c0,0,0.1,0.1,0.1,0.1c0.2,0,0.4,0.1,0.5,0.1
		c0.1,0,0.1,0.1,0.2,0.1c0.1,0.1,0.1,0.1,0.2,0.1c0.1,0,0.2,0.1,0.3,0.1c0.2,0.1,0.3,0.1,0.5,0.2c0.1,0,0.1,0.1,0.2,0.1
		c0.1,0,0.1,0.1,0.1,0c0.1,0,0.1,0,0.2,0.1c0.1,0,0.1,0.1,0.2,0.1c0,0,0.1,0.1,0.1,0.1c0.1,0.1,0.1,0.2,0.2,0.2
		c0.1,0,0.1,0.1,0.2,0.1c0.1,0,0.2,0.1,0.3,0.1c0.1,0,0.2,0,0.3,0.1c0,0,0.1,0,0.1,0c0,0,0.1-0.1,0-0.1c-0.1-0.1,0-0.2,0.1-0.3
		c0,0,0.1,0,0.1,0c0,0,0,0,0,0c0.1,0,0.1,0,0.1-0.1c0,0,0.1-0.1,0.1-0.1c0,0,0-0.1-0.1-0.1c0,0-0.1,0-0.1,0
		c-0.2-0.1-0.2-0.1-0.3-0.2c0.1,0,0.2,0,0.3,0v0c-0.1,0-0.1-0.1-0.1-0.1c-0.1,0-0.3,0-0.4,0.1c-0.1,0.1-0.1,0-0.2-0.1
		c0.1,0,0.2,0,0.3,0c-0.2-0.2-0.3-0.3-0.6-0.3c0,0-0.1,0-0.1,0c-0.2-0.1-0.3-0.1-0.5-0.1c-0.2,0-0.3,0-0.5,0c-0.1,0-0.1,0-0.2-0.1v0
		c0,0,0.1,0,0.1,0c0.2,0,0.5-0.1,0.7-0.1c0.2,0,0.3,0,0.5,0c0.2,0.1,0.3,0.1,0.5,0.1c0.1,0,0.2,0,0.3,0c0-0.1-0.1-0.1-0.1-0.1
		C187,11.1,187.1,11.1,187.2,11C187.2,11,187.2,11,187.2,11z"/>
	<path class="st0" d="M173.1,9.8c0.2,0.1,0.5,0.1,0.7,0c0.1-0.1,0.4-0.1,0.5,0c0,0,0.1,0.1,0.1,0.1c0.1-0.1,0.2,0,0.3-0.1
		c0-0.1,0.1-0.1,0.2-0.1s0.1-0.1,0.2-0.1c0.1,0.1,0.2,0,0.3,0c0,0,0.1,0,0.1,0c0.1,0,0.2,0.1,0.3,0.1c0.1-0.1,0.1-0.1,0.2-0.1
		c-0.2-0.3-0.6-0.4-0.9-0.5c-0.2-0.1-0.3-0.1-0.5-0.1c-0.2-0.1-0.4-0.2-0.6-0.3c-0.1,0-0.3-0.1-0.4-0.1c-0.1,0-0.2-0.1-0.2-0.1
		c-0.2-0.1-0.3-0.2-0.5-0.3c-0.1-0.1-0.2-0.1-0.3-0.1c-0.1,0-0.1-0.1-0.2-0.1l0,0c-0.2-0.1-0.3-0.3-0.5-0.4c-0.1-0.1-0.1,0-0.2,0
		c0,0,0,0.1,0,0.1c0,0.1,0.1,0.1,0.1,0.2c-0.1-0.1-0.1-0.1-0.2-0.2c-0.2-0.1,0,0.1-0.1,0.1c0,0.1,0.1,0.1,0.1,0.1v0c0,0-0.1,0-0.1,0
		c0,0.1,0.2,0.3,0.4,0.3c0.1,0,0.1,0,0.1,0.1c0.1,0.1,0.2,0.2,0.4,0.2c0.2,0,0.4,0,0.5,0.1c0.3,0.1,0.5,0.2,0.8,0.3
		c0,0,0.1,0,0.1,0.1c-0.2-0.1-0.5-0.1-0.7-0.1c0.1,0.1,0.1,0.1,0.1,0.1c-0.3,0-0.5-0.2-0.7-0.3c-0.2-0.1-0.5-0.2-0.7-0.3
		c-0.1-0.1-0.2-0.1-0.3-0.1l0,0c0.2,0.1,0.3,0.3,0.5,0.4c-0.1-0.1-0.2-0.1-0.3-0.2c0,0.1,0,0.1,0,0.2c0,0.1,0.1,0.1,0.2,0.1
		c0,0,0.1,0,0.1,0c0.1,0.1,0.3,0.1,0.4,0.1c0,0,0,0,0,0c-0.1-0.1-0.1-0.1-0.1-0.1c0,0,0,0,0,0c0.2,0.1,0.4,0.1,0.6,0.2c0,0,0,0,0,0
		c-0.1,0-0.3,0-0.4-0.1c0.1,0.1,0.1,0.1,0.1,0.1c-0.2,0-0.3,0-0.5,0.1c0,0,0,0,0,0c0.2,0.1,0.4,0.3,0.6,0.4c0.1,0.1,0.1,0.1,0.2,0.1
		c0.1,0,0.1,0,0.1,0.1C172.9,9.7,173,9.7,173.1,9.8z M173.2,9.2c-0.1-0.1-0.2-0.1-0.3-0.2C173.1,9,173.2,9,173.2,9.2z"/>
	<path class="st0" d="M172.5,7.7c-0.1-0.1-0.1-0.2-0.2-0.3c0,0-0.1-0.1-0.1-0.1c-0.1,0,0,0.1,0,0.1c0.1,0.1,0.1,0.1,0.1,0.2
		c0.1,0.1,0.1,0.1,0.2,0.2c0.1,0.1,0.2,0.1,0.3,0.2c0.1,0.1,0.1,0.1,0.2,0c0.1,0.1,0.3,0.2,0.5,0.3c0,0,0,0,0,0
		c0.2,0.1,0.2,0.1,0.4,0.1c-0.1-0.2-0.2-0.4-0.4-0.5c-0.1,0-0.1-0.1-0.2-0.2c0-0.1-0.1-0.2-0.1-0.3c0-0.1-0.1-0.2-0.1-0.3
		c0-0.1-0.1-0.1-0.1-0.2c0,0-0.1,0-0.1,0c-0.1,0.1-0.1,0.1-0.2,0c0,0,0,0-0.1,0c0,0,0,0.1,0,0.1c0.1,0.1,0.1,0.2,0.1,0.3
		c-0.1-0.1-0.1-0.1-0.2-0.1c-0.1,0-0.1,0-0.2,0c0,0,0,0.1,0.1,0.1c0.1,0.1,0.2,0.2,0.3,0.3c0.1,0.1,0.2,0.2,0.2,0.3
		C173,8,172.9,8,172.8,8C172.7,7.9,172.6,7.8,172.5,7.7z"/>
	<path class="st0" d="M176.3,9.6c-0.1,0-0.1-0.1-0.2,0c-0.1,0.1,0,0.1,0,0.1c0.1,0,0.1,0.1,0.1,0.1c0.1,0,0.1,0,0.2,0
		c0,0,0.1,0,0.1-0.1c0,0-0.1-0.1-0.1-0.1C176.4,9.7,176.3,9.7,176.3,9.6z"/>
	<path class="st0" d="M172.7,30.5c0-0.1-0.1-0.1-0.1-0.2l0,0c0-0.1,0-0.2-0.1-0.2c0,0,0-0.1,0-0.1c0-0.1,0.1-0.1,0.1-0.1
		c0,0,0-0.1,0-0.1c0-0.1,0-0.1,0-0.1c0,0,0,0,0-0.1c0,0,0,0,0-0.1c0.1-0.2,0.1-0.4,0-0.6c0,0,0,0,0-0.1c0,0,0.1,0,0.1,0
		c0-0.3-0.1-0.4-0.4-0.4c0,0-0.1,0-0.1-0.1c-0.1-0.1-0.4-0.1-0.6-0.2c-0.1-0.1-0.3,0-0.3,0.2c-0.1-0.1-0.1-0.1-0.2-0.1
		c-0.1-0.1-0.1-0.1-0.2-0.1c-0.1,0-0.1-0.1-0.2-0.1c-0.1-0.1-0.2-0.1-0.3,0c0,0-0.1,0-0.1-0.1c0,0,0,0-0.1-0.1c0,0,0,0,0,0.1
		c-0.1,0-0.2,0-0.3-0.1c0,0-0.1,0-0.1,0c0,0-0.1,0-0.1,0c-0.1,0-0.1,0-0.2-0.1v0c0.1,0,0.1,0,0.2,0c0,0,0,0,0.1,0c0-0.1,0-0.1,0-0.1
		c-0.1,0-0.2-0.1-0.3-0.1c-0.1,0-0.2,0-0.3,0c-0.1,0-0.1,0-0.2,0c-0.2,0-0.3,0.1-0.4,0.2c0,0.1-0.1,0.1-0.2,0.1c0,0-0.1,0-0.1,0
		c-0.1,0.1-0.1,0.1-0.1,0c0,0-0.1-0.1-0.1-0.1c0,0-0.1,0-0.1,0C168,28,168,28,167.9,28c-0.1,0.1-0.2,0-0.3-0.1
		c0,0.1-0.1,0.2-0.3,0.2c0,0.1,0,0.1,0,0.2c-0.2,0,0,0.2-0.1,0.3c0-0.1-0.1-0.2-0.1-0.3c-0.2,0-0.3,0-0.4-0.1c-0.1,0-0.2,0-0.2-0.1
		c-0.1,0-0.1,0-0.2,0c0,0-0.1,0-0.1,0c-0.1,0-0.1,0-0.2,0.1c0,0,0,0,0-0.1c0,0,0,0.1,0,0.1c-0.3-0.2-0.4-0.1-0.5,0.1c0,0,0,0,0,0
		c0,0,0-0.1,0-0.1c0-0.1,0-0.2-0.1-0.3c-0.1,0-0.1-0.1-0.1-0.1c0,0,0,0-0.1,0c-0.1,0-0.1-0.1-0.1-0.1c-0.1-0.1-0.2-0.1-0.3-0.2
		c0,0-0.1,0-0.1,0c0,0-0.1,0-0.1,0c0-0.1-0.1-0.3-0.3-0.3c0.1-0.1-0.1-0.2-0.1-0.3c0,0-0.1,0-0.1,0c-0.1,0-0.1-0.1-0.1-0.1
		c0-0.1-0.1-0.1-0.2-0.1c0,0-0.1,0-0.1,0c0.1-0.1,0.1-0.1-0.1-0.2c-0.1,0-0.1,0-0.1-0.1c-0.1-0.2-0.3-0.2-0.5-0.2c0,0-0.1,0-0.1,0
		c-0.2-0.1-0.3,0-0.5,0.1c0,0,0,0,0,0c0,0,0,0,0,0c0-0.1,0-0.1,0-0.1c0-0.1-0.1-0.2-0.3-0.2c0,0-0.1,0-0.1,0
		c-0.2-0.1-0.5-0.1-0.7-0.2c-0.3,0-0.5,0-0.8-0.1c0,0-0.1,0-0.1,0c-0.1,0.1-0.2,0.2-0.3,0.3c-0.1,0.1-0.2,0.1-0.2,0.1
		c0,0.1,0,0.1-0.1,0.2c-0.1,0.1-0.2,0.3-0.2,0.4c0,0.1-0.1,0.2-0.2,0.3c-0.1,0-0.1,0.1-0.1,0.1c-0.1,0.1-0.1,0.1-0.1,0.2
		c0,0.1,0.1,0.1,0.2,0.1c0,0,0,0.1,0,0.1c0,0.1,0.1,0.1,0.1,0.1c0.1,0,0.3-0.1,0.3-0.2c0,0,0,0-0.1-0.1c-0.1,0-0.1,0-0.2-0.1
		c0.1,0,0.1-0.1,0.1-0.1c0.2-0.1,0.3-0.2,0.4-0.4c0,0,0.1-0.1,0.1-0.1c0.1-0.1,0.1-0.1,0.1-0.1c0,0,0,0,0-0.1
		c0.1-0.1,0.3-0.2,0.4-0.3c0,0,0,0,0.1,0c-0.1,0.1-0.1,0.2-0.2,0.3c-0.1,0.1-0.2,0.2-0.3,0.3c-0.1,0.1-0.1,0.1-0.1,0.2
		c0,0.1-0.1,0.1-0.1,0.1c0,0.1-0.1,0.1-0.1,0.1c-0.1,0.1-0.1,0.3-0.3,0.3c0.2,0.1,0.3,0.1,0.4,0c0.2-0.2,0.3-0.3,0.5-0.6
		c0.1-0.1,0.1-0.1,0.3-0.1c0,0.1-0.1,0.1-0.1,0.1c0,0,0,0.1,0,0.1c0.1,0.1,0,0.1-0.1,0.1c-0.1,0.1-0.3,0.2-0.3,0.3c0,0,0,0-0.1,0.1
		c-0.1,0.1-0.1,0.1-0.2,0.1c-0.1,0.1-0.1,0.1-0.2,0.2c-0.1,0-0.2,0.1-0.3,0.2c0,0-0.1,0-0.1,0c0,0,0,0-0.1,0
		c0.1-0.1,0.3-0.2,0.5-0.3c-0.1,0-0.2-0.1-0.3-0.1h0c-0.1,0.1-0.3,0.2-0.4,0.2c0,0.1,0.1,0.1,0.1,0.2c0,0,0.1,0,0.1,0
		c0,0.1-0.3,0.1-0.1,0.2c0,0.1,0,0.1,0.1,0.2c0.2,0,0.2,0.2,0.1,0.3c0,0-0.1,0.1-0.1,0.1l0,0c0.1-0.1,0.2-0.1,0.2-0.2
		c0.2,0.1,0.3,0.1,0.4-0.1c0.1-0.1,0.1-0.3,0.3-0.5c0.3-0.4,0.5-0.9,0.9-1.2c0.1-0.1,0.2-0.1,0.3-0.2l0,0c-0.1,0.1-0.1,0.1-0.2,0.2
		c-0.1,0.1-0.3,0.2-0.3,0.4c0,0.1-0.1,0.1-0.1,0.1c-0.1,0.1-0.1,0.1-0.1,0.2c0,0,0,0,0,0c-0.2,0.1-0.3,0.3-0.3,0.5
		c-0.1,0.2-0.3,0.4-0.4,0.5c-0.1,0.1-0.1,0.1-0.2,0.2s-0.1,0.1-0.2,0.1c0,0-0.1,0.1-0.1,0.1c0.1,0,0.1,0,0.2,0c0,0,0,0,0.1,0
		c0,0,0,0.1,0.1,0.1c0,0,0,0-0.1,0c0,0-0.1,0-0.1,0c0,0,0,0.1,0,0.1c0.1,0.1,0.2,0.1,0.3,0.2c0-0.1,0-0.1,0-0.1
		c0.1,0.1,0.2,0.1,0.4,0.2c0.1,0,0.1,0.1,0.2,0.1c-0.2,0-0.1,0.1-0.2,0.2c0.1,0,0.1,0,0.1,0c0,0,0.1,0,0.1,0
		c0.1,0.1,0.2,0.1,0.3,0.2c0,0,0.1,0,0.1,0.1c0,0,0.1,0.1,0.1,0.1c0.1,0,0.1,0.1,0.2,0.1c0,0,0.1,0.1,0.1,0c0.1-0.1,0.1,0,0.1,0
		c0,0.1,0.1,0.2,0.2,0.2c0.1,0,0.2,0.1,0.2,0.1c0.1,0,0.1-0.1,0.1-0.2c0,0,0-0.1,0.1-0.1c0,0.1,0,0.1,0,0.2c-0.1,0.1,0,0.3,0.2,0.3
		c0.1,0,0.1,0,0.2,0c0.1,0.1,0.2,0.1,0.3,0.3c0.1-0.1,0.2,0,0.2,0.1c0.1,0,0.3,0.1,0.4,0.1c0.2,0.1,0.3,0,0.3-0.1c0,0,0,0,0.1-0.1
		c0,0,0,0.1,0,0.1c0,0.1,0.1,0.2,0.2,0.2c0.1,0,0.2,0,0.3,0.1c0,0,0.1,0,0.1,0c0.1-0.1,0.1,0,0.2,0.1c0.2,0,0.3,0,0.5,0.1
		c0,0,0,0,0.1,0c0,0.1,0.1,0.1,0.1,0c0.2,0.2,0.4,0.1,0.6,0.1c0.1,0,0.2,0.1,0.2,0.1c0.1,0.1,0.2,0.1,0.4,0.1c0.1,0,0.1,0,0.2,0.1
		c0.1,0.1,0.2,0.1,0.3,0.1h0.1c0.1,0,0.1-0.1,0.1-0.1c0,0,0,0,0,0c0,0.1,0,0.1,0.2,0.2c0.1,0,0.3,0,0.4,0.1c0,0,0.1-0.1,0.1-0.1h0
		c0,0.1,0,0.1,0.2,0.1c0.1,0,0.2,0,0.3,0c0.2,0,0.4,0.1,0.5,0c0.2,0.1,0.4,0.1,0.6,0.1c0.1,0,0.2,0,0.3,0c0.1,0,0.1,0,0.2,0
		c0.1,0,0.1,0,0.2,0c0.1,0,0.1,0,0.1,0c0.1,0,0.1-0.1,0.2-0.1c0-0.1,0-0.1,0.1-0.2c0,0,0.1,0.1,0.1,0.1c0.2,0,0.3-0.1,0.5-0.2
		c0.1,0,0.1,0,0.2-0.1c0-0.1,0-0.1,0.1-0.1c0.1,0.1,0.1,0.1,0.1,0.2c0,0,0.1,0,0.1,0c0,0,0,0,0-0.1c0-0.1,0-0.1,0-0.1
		c0,0,0.1,0,0.1,0c0,0,0,0.1,0,0.1c0.1,0,0.1,0,0.2,0c0.2,0,0.2,0,0.1-0.1c0.1,0,0.2,0,0.3,0c0.1-0.1,0.1-0.3,0.1-0.4
		c0,0,0.1-0.1,0.1-0.1c0.2,0,0.3-0.1,0.2-0.3c0-0.1-0.1-0.2-0.2-0.2c-0.1-0.1-0.1-0.1-0.1-0.2c0-0.1,0-0.1-0.1-0.2
		c-0.1-0.1-0.1-0.2-0.1-0.3c0-0.1,0-0.2-0.1-0.3c-0.2,0.4-0.2,0.8-0.1,1.2c0,0,0,0,0,0c0-0.1,0-0.1,0-0.2c-0.1-0.2-0.1-0.4-0.1-0.6
		c0,0,0-0.1,0-0.1c0.1-0.1,0.1-0.3,0.2-0.4c0.1-0.2,0.1-0.5-0.1-0.7c0,0-0.1-0.1-0.1-0.1c0-0.1,0-0.2,0-0.3c0,0,0.1,0.1,0.1,0.1
		c0.1,0.1,0.1,0.2,0.2,0.3c0,0,0,0.1,0.1,0.1c0,0,0,0.1,0,0.1c0,0.1,0,0.2,0,0.3c0,0.2,0,0.4,0,0.6c0,0.3,0.1,0.6,0.4,0.8
		c0-0.1,0.1-0.1,0.1-0.1c0.1-0.1,0.2-0.1,0.2-0.1c0,0-0.1-0.1-0.1-0.2c0,0,0-0.1,0-0.1c0,0,0.1,0,0.1,0.1c0.1,0.1,0.1,0.1,0.1,0
		C172.8,30.7,172.8,30.7,172.7,30.5C172.7,30.6,172.7,30.5,172.7,30.5z M159.8,29.1c0.1-0.1,0.1-0.2,0.2-0.3
		C160,28.9,159.9,29.1,159.8,29.1z M160.6,30C160.6,30,160.6,30,160.6,30c0-0.1,0-0.1,0-0.2c0-0.1,0.1-0.2,0-0.3v0
		c0-0.1,0.1-0.2,0.1-0.3C160.7,29.4,160.7,29.9,160.6,30z M161,27.8c-0.1,0.2-0.2,0.4-0.3,0.6s-0.2,0.5-0.3,0.7
		c-0.1,0.1-0.1,0.3-0.2,0.4c0,0-0.1,0-0.1,0.1c0-0.2,0.1-0.3,0.1-0.5c0.1-0.2,0.1-0.4,0.2-0.5c0.1-0.1,0.1-0.3,0.3-0.4
		c0,0,0,0,0-0.1c0.1-0.1,0.1-0.1,0.1-0.2c0.1-0.1,0.3-0.3,0.5-0.4c-0.1,0.1-0.1,0.2-0.2,0.2C161.1,27.7,161.1,27.8,161,27.8z
		 M161.2,30.3C161.2,30.3,161.1,30.3,161.2,30.3c-0.1,0-0.1,0-0.1,0L161.2,30.3c-0.1-0.2,0-0.3,0-0.5c0,0,0-0.1,0-0.1
		c0,0,0.1,0,0.1,0C161.3,29.9,161.2,30.1,161.2,30.3z M161.4,29.4C161.3,29.4,161.3,29.4,161.4,29.4c0-0.1,0-0.2,0.1-0.3l0,0
		C161.4,29.2,161.4,29.3,161.4,29.4z M161.5,28.8c-0.1-0.1,0-0.2,0-0.3c0.1-0.2,0.2-0.3,0.3-0.4c0,0,0.1,0,0.1-0.1c0,0,0,0,0,0
		C161.8,28.3,161.6,28.5,161.5,28.8z M162,29.2C162,29.2,162,29.2,162,29.2c0-0.1,0.1-0.1,0.1-0.2c0,0,0,0,0,0
		C162.2,29.2,162.1,29.2,162,29.2z M162.4,30.7c0-0.1-0.1-0.2,0.1-0.2C162.4,30.6,162.4,30.7,162.4,30.7z M162.5,30.3
		c0-0.2,0.3-1,0.5-1.1C162.8,29.6,162.7,30,162.5,30.3z M163,30.3c0.1-0.2,0.1-0.4,0.2-0.6l0,0C163.3,29.9,163.1,30.1,163,30.3z
		 M163.4,31c-0.1-0.1-0.1-0.1,0.1-0.2C163.4,30.9,163.4,30.9,163.4,31z M163.5,30.6C163.5,30.6,163.5,30.6,163.5,30.6
		c0-0.1,0-0.2,0.1-0.3c0.1-0.1,0.1-0.1,0-0.1c0.1-0.1,0.1-0.1,0.1-0.1c0.1-0.1,0.1-0.1,0.1-0.2c0,0,0.1,0,0.1,0
		C163.8,30.1,163.7,30.3,163.5,30.6z M164.2,31.2C164.2,31.2,164.1,31.2,164.2,31.2c0.1-0.3,0.3-0.6,0.4-0.9c0,0,0,0,0,0
		C164.5,30.7,164.4,30.9,164.2,31.2z M164.6,30.3c0.1-0.3,0.1-0.6,0.3-0.9C164.9,29.7,164.9,30,164.6,30.3z M165,29.4
		C164.9,29.4,164.9,29.4,165,29.4c-0.1-0.1,0-0.1,0-0.2c0,0,0,0,0.1,0C165,29.3,165,29.3,165,29.4z M165.1,28.7
		c-0.1-0.1-0.1-0.2,0.1-0.2C165.2,28.5,165.1,28.6,165.1,28.7z M165.2,30.7L165.2,30.7c0-0.3,0.1-0.7,0.1-1
		C165.4,29.9,165.3,30.5,165.2,30.7z M165.6,31.2c0-0.1,0-0.3,0-0.4C165.7,30.9,165.7,31.1,165.6,31.2z M166.2,30.6
		C166.2,30.6,166.2,30.6,166.2,30.6c-0.1-0.2-0.1-0.3-0.1-0.5c0,0,0.1,0,0.1,0C166.2,30.3,166.2,30.5,166.2,30.6z M169,30.6
		c0-0.1,0-0.3-0.1-0.4c0,0,0,0,0.1,0C169,30.4,169,30.5,169,30.6C169,30.6,169,30.6,169,30.6z M170.2,29.9
		C170.2,29.9,170.2,29.9,170.2,29.9c0,0.1-0.1,0.1-0.1,0.1c0-0.1,0-0.1-0.1-0.1C170,29.9,170.1,29.9,170.2,29.9z M170.1,32.2
		C170.1,32.2,170.1,32.2,170.1,32.2c-0.1-0.2-0.1-0.3-0.1-0.5c0,0,0,0,0.1,0C170.1,31.8,170.1,32,170.1,32.2z M170,31.5
		c0-0.1-0.1-0.3-0.1-0.4c0.2,0,0-0.2,0.2-0.2C170.1,31.2,170.1,31.3,170,31.5z M170.2,30.6c0-0.2,0-0.4-0.1-0.5c0,0,0,0,0-0.1
		c0.1,0.1,0.2,0.1,0.2,0.2c-0.1,0.1,0,0.1,0,0.2c0,0.1,0.1,0.3,0.1,0.4c0,0,0,0-0.1,0C170.2,30.7,170.2,30.7,170.2,30.6z
		 M170.4,32.1c0-0.1-0.1-0.1-0.1-0.1c0,0,0.1,0,0.1,0C170.4,32,170.5,32,170.4,32.1z M170.5,31.8C170.5,31.8,170.5,31.8,170.5,31.8
		c-0.1-0.1-0.1-0.2-0.1-0.3C170.6,31.6,170.5,31.7,170.5,31.8z M170.9,31.3c-0.1,0.1-0.1,0.2-0.1,0.3c0,0,0,0,0,0c0-0.1,0-0.1,0-0.2
		c0.1-0.2,0.1-0.5,0-0.7c0-0.4-0.1-0.7-0.3-1.1c0-0.1,0-0.1,0-0.1c0,0,0.1,0.1,0.1,0.1c0.1,0.1,0.1,0.2,0.2,0.4
		c0,0.1,0.1,0.3,0.1,0.4c0,0.1,0,0.1,0,0.2c0,0.1,0,0.3,0.1,0.4C171,31.1,171,31.2,170.9,31.3z M171.1,31.6c0-0.1-0.1-0.1-0.1-0.2
		C171.2,31.5,171.3,31.6,171.1,31.6z"/>
	<path class="st0" d="M160.3,23.7c0.1,0.1,0.3,0.2,0.3,0.4c0.1,0.2,0.3,0.3,0.5,0.4c0.1,0,0.2,0.1,0.3,0.1c0.1,0,0.1,0,0.2,0
		s0.1,0,0.1,0c0.1,0.1,0.1,0.1,0.2,0.1c0.3,0.1,0.7,0.3,1,0.4c0.1,0.1,0.2,0.1,0.2,0.2c0.1,0,0.1,0.1,0.2,0.1s0.1,0,0.1-0.1
		c0,0,0-0.1,0-0.1c0-0.1,0-0.3-0.2-0.3c0,0-0.1,0-0.1-0.1c-0.2-0.2-0.4-0.4-0.6-0.6c-0.3-0.2-0.5-0.3-0.8-0.5c0,0-0.1,0-0.1,0
		c-0.1,0-0.2-0.1-0.3-0.1c0-0.1-0.1-0.1-0.1-0.1c-0.1-0.1-0.1-0.1-0.2,0c-0.1-0.2-0.3-0.4-0.4-0.6c0,0,0,0,0.1,0
		c0.1,0.1,0.1,0.2,0.2,0.3c0,0.1,0.1,0.1,0.1,0.1c0.1,0.1,0.3,0.1,0.4,0.2c0.1,0,0.2,0.1,0.3,0.1c0-0.1,0-0.2-0.1-0.2
		c-0.2-0.1-0.2-0.3-0.3-0.5c0,0,0,0,0-0.1c0,0.1,0.1,0.1,0.1,0.1c0,0.2,0.1,0.3,0.3,0.4h0c0,0,0,0,0,0c0,0-0.1,0-0.1,0.1
		c0.1,0.1,0.2,0.2,0.3,0.3c0.1,0,0.1,0.1,0.2,0.2c0.1,0.1,0.2,0.1,0.3,0.2c0.1,0,0.2,0.1,0.3,0.2s0.2,0.1,0.3,0.1
		c0.1,0,0.1,0,0.1-0.1c-0.1-0.1-0.1-0.1-0.1-0.2c0,0,0,0,0-0.1c-0.1-0.2,0-0.3-0.1-0.5c0-0.1,0-0.1,0-0.1c0-0.1,0-0.1,0-0.2
		c0-0.1-0.1-0.2,0-0.3c0,0,0-0.1,0-0.1c0-0.1,0-0.1,0-0.2h0c0,0.1,0.1,0.1,0.1,0.2c0,0.1,0,0.3,0.1,0.4c0.1,0.4,0.2,0.8,0.5,1.2
		c0,0,0,0,0,0c0,0.2,0.3,0.3,0.4,0.5c0.1,0.1,0.2,0.1,0.3,0.2c0-0.1,0-0.1,0-0.2c0,0.1,0.2,0.2,0.1,0.3c0,0.1,0,0.1,0.1,0.2
		c0,0,0,0.1,0.1,0.1c0.1,0.1,0.1,0.1,0.1,0.2c0.1-0.1,0.1-0.1,0.1-0.2c0.1,0.2,0.1,0.2,0.3,0.3c0-0.1,0-0.1,0-0.1c0,0,0.1,0,0.1,0
		c0.1,0,0.1,0,0.1-0.1c0,0,0-0.1,0-0.1c0,0,0.1,0,0.1,0c0.1,0.1,0.3,0.2,0.4,0.3c0.1,0.1,0.1,0.1,0.1,0.2c0.1,0,0.2,0,0.2,0.1
		c0,0,0.1,0.1,0.1,0.1c0.1,0,0.1-0.1,0.1-0.1c0,0,0,0,0-0.1c0,0,0,0,0,0c0.1,0.1,0.2,0.1,0.3,0.1c0.2-0.1,0.2-0.1,0.3-0.1
		c0,0,0,0,0,0.1c0.1,0,0.2,0.1,0.3,0.1c0,0,0.1,0,0.1,0c0.1,0,0.1,0,0.1,0.1c0.2,0.1,0.2,0,0.3-0.1c0,0-0.1-0.1-0.1-0.1c0,0,0,0,0,0
		c0.1,0.1,0.1,0.1,0.2,0.2c0,0,0.1-0.1,0.1-0.1c0,0,0-0.1,0.1-0.1c0.1,0,0.1-0.1,0.2-0.1c0.2,0,0.2-0.1,0.3-0.2c0,0,0.1-0.1,0.1-0.1
		c0.1,0,0.2-0.1,0.3-0.2c0.1-0.1,0.3-0.3,0.4-0.4c0.1-0.1,0.2-0.3,0.3-0.4c0-0.1,0.1-0.1,0.1-0.1c0.1-0.1,0.2-0.2,0.3-0.3
		c0.1-0.1,0.2-0.2,0.3-0.4c0,0,0,0,0.1,0.1c0,0.1-0.1,0.1-0.1,0.1c0,0.1,0,0.1,0,0.1c0,0.1,0,0.1-0.1,0.2c-0.1,0.1-0.1,0.1-0.1,0.2
		c0,0.1-0.1,0.1-0.1,0.2c0,0.1-0.1,0.2-0.1,0.3c0,0.1,0.1,0.1,0.1,0.1c0.2-0.1,0.4-0.2,0.6-0.4c0,0,0.1,0,0.1-0.1
		c0,0.1,0.1,0.1,0.1,0.1c0,0,0,0.1,0,0.1c-0.2,0.1-0.3,0.2-0.5,0.3c0,0,0,0-0.1,0.1c-0.1,0.1-0.2,0.1-0.3,0.2
		c-0.1,0.1-0.3,0.2-0.4,0.3c-0.1,0,0,0.1,0,0.2c0,0-0.1,0-0.1,0.1c0,0.1,0.1,0.1,0.1,0.1c0.1,0,0.2,0,0.3,0c0.1-0.1,0.2-0.1,0.3-0.1
		c0,0,0.1,0,0.1,0c0.3-0.1,0.5-0.1,0.7-0.1c0.2,0,0.3-0.1,0.5,0c0,0,0.1,0,0.1,0c0.1,0,0.1,0,0.2,0c0.1,0,0.1,0,0.2,0
		c0.1,0,0.1,0,0.1,0c0.1,0,0.2,0.1,0.3,0c0.1,0,0.1-0.1,0-0.1c0.1,0,0.2,0,0.3,0c0,0,0,0.1,0,0.1c0.1,0,0.1,0,0.1,0
		c0.1-0.1,0.3-0.1,0.4-0.2c0,0,0,0,0-0.1c0,0-0.1-0.1-0.1-0.1c-0.1-0.1-0.2-0.1-0.3-0.1c0.1,0,0.2-0.1,0.2-0.2
		c-0.2-0.1-0.3,0-0.4,0.1c0,0,0,0,0,0c0,0,0-0.1,0.1-0.1c0.1-0.1,0.1-0.1,0.2-0.2c0,0,0-0.1,0-0.1c-0.1,0-0.1,0-0.1,0
		c0,0-0.1,0.1-0.1,0.1c0,0-0.1,0-0.1,0c0,0-0.1-0.1-0.1-0.1c0.3-0.1,0.3-0.2,0.2-0.3c-0.1,0-0.1,0.1-0.1,0c0,0-0.1,0-0.1-0.1
		c0-0.1,0-0.1,0-0.2c0-0.1,0-0.1-0.1-0.1c-0.1,0-0.1-0.1-0.1-0.2c0-0.1,0.1-0.1,0.1-0.1c0,0,0.1-0.1,0-0.1c0,0-0.1,0-0.1,0
		c0,0.1,0,0.1,0,0.2c0,0.1,0.1,0.1,0,0.1c-0.1-0.1-0.1-0.1-0.1-0.3c0,0,0,0,0,0c-0.1,0-0.1,0-0.2,0.1l0,0c-0.1,0-0.2-0.1-0.3-0.1
		c0,0,0,0-0.1-0.1c0,0,0.1,0,0.1,0c0.1,0,0.1,0,0.1,0.1c0.1,0.1,0.2,0.1,0.2-0.1c0-0.1-0.1-0.1-0.1-0.2c-0.1,0-0.1,0-0.2,0.1
		c0-0.1-0.1-0.1-0.1-0.2c0,0,0.1-0.1,0.1-0.1c0,0-0.1-0.1-0.1-0.1c0,0-0.1-0.1-0.1-0.1c-0.2,0.1-0.4-0.1-0.6-0.1
		c0-0.2-0.2-0.1-0.4-0.2c0,0,0,0,0-0.1c0.1,0,0.2,0,0.3,0c-0.1-0.1-0.2-0.1-0.3-0.1c0,0,0,0,0,0c-0.1-0.1-0.2-0.2-0.4-0.2
		c0,0-0.1,0-0.1-0.1c0.1,0,0.1,0,0.2-0.1c-0.1-0.1,0-0.2-0.2-0.2c0,0-0.1,0-0.1-0.1c-0.1-0.1-0.2-0.1-0.3-0.2c0,0,0,0,0,0
		c0,0.1,0,0.1,0.1,0.1c0.1,0.1,0.2,0.1,0.3,0.2c0,0,0.1,0.1,0.1,0.1c0,0.1,0.1,0.1,0.1,0.2c0,0-0.1,0-0.1,0c0-0.1-0.1-0.1-0.1-0.1
		c-0.1-0.1-0.1-0.1-0.2-0.2c-0.2-0.1-0.2-0.1-0.3,0.1c0,0-0.1-0.1-0.1-0.1c0-0.1-0.1-0.1-0.2-0.1c-0.1,0-0.1,0-0.2,0
		c-0.1-0.1-0.1,0-0.1,0.1c0,0.1,0,0.2-0.1,0.3c0,0,0,0,0,0c0-0.1,0-0.1,0-0.2c0-0.1,0-0.1-0.1-0.1c0,0-0.1,0-0.1-0.1
		c-0.1,0.1-0.3,0.3-0.5,0.2c0,0,0.1,0.1,0.1,0.1c-0.2,0.1-0.3,0.1-0.5,0.2c-0.1-0.1-0.1-0.1-0.2,0c-0.1,0-0.1,0-0.2,0
		c0,0-0.1-0.1-0.1-0.1c0,0.1,0,0.1-0.1,0.1c-0.1,0-0.2,0-0.3,0c-0.1,0-0.2-0.1-0.2-0.2c-0.1,0.1-0.1,0.1-0.2,0.1
		c-0.1,0.1-0.1,0-0.1-0.1c0-0.1-0.1-0.1-0.2-0.1c0,0,0-0.1,0-0.1c-0.1,0-0.1,0-0.1,0.1c-0.1-0.1-0.1-0.3-0.2-0.4h0
		c0,0.1-0.1,0.2-0.1,0.3h0c0-0.1-0.1-0.1,0-0.2c0,0,0,0,0-0.1c0,0,0-0.1,0-0.1c-0.1,0-0.1,0-0.2-0.1c0,0,0,0.1-0.1,0.1
		c0,0.1-0.1,0.1-0.1,0.2c0,0.3-0.1,0.5-0.1,0.8c0,0.1,0,0.3-0.1,0.3c0,0.1,0,0.1,0,0.2c0,0,0,0,0,0c0-0.1,0-0.2,0-0.3
		c0-0.3,0.1-0.6,0.1-1c0-0.1-0.1-0.2,0-0.3c0,0,0-0.1,0-0.1c-0.1-0.1-0.3-0.1-0.4-0.2c0,0.3-0.2,0.6,0,0.9c-0.1,0-0.1,0-0.1-0.1
		c0-0.1,0-0.2,0-0.3c0-0.2,0.1-0.3,0.1-0.5c0-0.1,0.1-0.2,0.1-0.3c0-0.1,0-0.1-0.1-0.1c0,0-0.1,0-0.1,0.1c0,0.1,0,0.1,0,0.1
		c0,0.1,0,0.1,0,0.1c0,0,0,0,0,0c-0.1-0.1-0.1-0.1-0.2-0.1c0,0-0.1,0-0.2,0c0-0.1-0.1-0.2-0.1-0.3c0,0-0.1,0-0.1,0c0,0,0,0,0,0
		c0,0-0.1,0.1-0.1,0.1c-0.1,0.1-0.1,0.1,0,0.2c0.1,0.1,0.2,0.2,0.2,0.3c0,0.1,0,0.1-0.1,0.1c0-0.1,0-0.1,0-0.2c0-0.1,0-0.2-0.1-0.2
		c-0.2-0.1-0.2-0.2-0.2-0.3c0-0.1,0-0.1-0.1-0.1c0,0-0.1,0-0.1,0.1c-0.1,0.1-0.1,0.2-0.3,0.1c0,0-0.1,0.1-0.1,0.1c0,0,0,0,0,0
		c0.1,0,0.2,0,0.3,0c0,0,0,0.1,0,0.1c0.1,0,0.2,0.1,0.3,0.1c0,0,0,0,0,0.1c0,0.2,0.1,0.5,0.1,0.7c0,0.2,0,0.4,0.1,0.6
		c0,0.1,0.1,0.2,0.1,0.3s0,0.2,0,0.3c-0.1-0.1-0.1-0.1-0.1-0.1c-0.1,0-0.1-0.1-0.1-0.1c0.1,0,0.2-0.1,0.2-0.2c0-0.2,0-0.3,0-0.5
		c0-0.3-0.1-0.5-0.1-0.8c0,0-0.1-0.1-0.1-0.1c0,0-0.1,0-0.1,0c0,0-0.1,0-0.1,0c0-0.1,0-0.1,0-0.1c-0.1-0.1-0.2,0.1-0.2-0.1
		c-0.2,0-0.2,0.1-0.2,0.2c-0.2,0.1-0.2,0.1-0.1,0.3c0,0.1,0,0.1,0,0.1c0-0.1-0.1-0.1-0.1-0.2c0-0.1-0.1-0.1-0.1-0.1c0,0-0.1,0-0.1,0
		c-0.1,0-0.1,0-0.2,0.1c-0.1,0.1-0.1,0.1-0.2,0.2c-0.1-0.1-0.2-0.1-0.2,0c0,0-0.1,0-0.2,0c0,0-0.1,0-0.1,0c0,0.1,0.1,0.2-0.1,0.3h0
		c0-0.1,0-0.1-0.1-0.1c0,0,0,0.1,0,0.1v0c-0.2-0.1-0.3,0-0.3,0.2c-0.1-0.1-0.2-0.1-0.1,0.1c0,0.1,0,0.2,0.1,0.3
		c-0.1,0-0.1,0-0.1-0.1c0.1-0.1-0.1-0.2-0.1-0.3c-0.2,0.1,0,0.2-0.1,0.3c0,0-0.1-0.1-0.1-0.1c0,0.1,0,0.1,0,0.2c0,0,0,0-0.1,0
		c0-0.1,0-0.1-0.1-0.1c0-0.1-0.1-0.1-0.1-0.1c-0.1,0-0.1,0.1-0.1,0.1c0,0.1,0,0.1,0,0.1c0,0-0.1-0.1-0.1-0.1c0,0-0.1,0-0.1-0.1
		c0,0,0,0.1,0,0.1c0.1,0.3,0.2,0.5,0.4,0.7c0,0,0,0,0,0.1c0,0-0.1,0-0.1,0c-0.1-0.1-0.1-0.2-0.2-0.3c0-0.1-0.1-0.2-0.1-0.3
		c0-0.1-0.1-0.1-0.1-0.2c0,0-0.1-0.1-0.1-0.1h0c0,0.1,0,0.1,0,0.2c0,0.1,0,0.1-0.1,0.1c0,0,0,0-0.1,0c0.1,0.1,0.1,0.2,0.2,0.3
		C160,23.3,160.1,23.5,160.3,23.7z M171.3,23.1c0.1,0.2,0.1,0.2,0.1,0.2C171.2,23.2,171.2,23.2,171.3,23.1z M164.1,22.6
		C164.1,22.6,164.1,22.5,164.1,22.6c0.1,0,0.1,0.1,0.1,0.2c0,0.1,0,0.3,0,0.4c0,0.1,0,0.1,0,0.2c0,0.1,0,0.3,0,0.4
		c0,0.1,0,0.2,0.1,0.2c0.1,0.1,0.1,0.2,0.1,0.3c0,0,0,0.1,0,0.1c0,0.1,0,0.3,0.1,0.4c0,0,0,0.1,0,0.1c-0.1,0-0.1,0-0.2,0
		c0,0,0-0.1,0.1-0.1c0.1,0,0.1-0.1,0.1-0.1c0-0.2-0.1-0.3-0.1-0.5c-0.1-0.3-0.2-0.5-0.1-0.8c0-0.1,0-0.2,0-0.3
		C164.1,22.8,164.1,22.7,164.1,22.6z M161.1,22.2C161.1,22.2,161.1,22.2,161.1,22.2c0.1,0.1,0.1,0.3,0.2,0.4h0
		C161.3,22.5,161.1,22.4,161.1,22.2z"/>
	<path class="st0" d="M173,26.5c0,0-0.1,0-0.1,0c-0.2,0-0.5,0.1-0.7,0c-0.3,0-0.6-0.1-0.9,0c-0.2,0-0.3,0.1-0.5,0.1
		c-0.3,0-0.5,0.1-0.7,0.2c0,0,0,0-0.1,0c0,0,0-0.1,0-0.1c-0.1,0-0.1-0.1-0.2-0.1c0.2,0,0.3-0.1,0.5-0.1c0.4-0.1,0.9-0.1,1.3-0.2
		c0.1,0,0.3,0,0.4-0.1c0,0,0.1,0,0.1,0c0,0,0.1,0,0.1,0c0.1,0,0.2,0,0.3,0c0.1,0,0.2,0,0.3,0c0.1,0,0.2,0,0.2-0.1c0.1,0,0.1,0,0.1,0
		c0,0,0.1,0,0.1,0c0.1-0.1,0.2-0.1,0.3-0.1c0.1,0,0.1,0,0.1,0c0,0,0,0,0,0c0,0-0.1,0-0.1,0c0-0.1,0-0.1,0-0.1c0,0-0.2,0-0.2,0
		c-0.1,0.1-0.2,0.1-0.3,0.2c-0.1-0.1-0.2-0.1-0.3-0.1c0-0.1,0.1-0.1,0.2-0.1c0.1,0,0.1,0,0.2-0.1c0,0,0.1-0.1,0.1-0.1
		c0,0-0.1,0-0.1,0c0,0,0,0-0.1,0c-0.1,0-0.2,0.1-0.3,0.1c-0.2,0-0.4,0.1-0.6,0.2c0,0-0.1,0-0.1,0c-0.1,0-0.2,0-0.3,0
		c-0.1,0-0.1,0-0.2,0c-0.2,0-0.4,0-0.6,0c-0.4,0-0.8,0.1-1.2,0.1c-0.2,0-0.4,0-0.6,0.1c-0.1,0-0.1,0.1-0.1,0.1c0.1,0,0.1,0,0.2,0.1
		c-0.1,0.1-0.1,0-0.2,0c-0.1,0.1,0.1,0.2,0.2,0.3c0.1,0,0.2,0.1,0.1,0.1c0,0,0,0.1,0.1,0.1c0,0,0.1,0,0.1,0.1c0.2,0,0.3,0.1,0.5,0.1
		c0.1,0,0.2,0,0.2,0.1c0.1,0.1,0.1,0.1,0.2,0.1c0.1,0,0.2,0.1,0.3,0.1c0.2,0.1,0.3,0.1,0.5,0.2c0.1,0,0.1,0,0.2,0.1
		c0,0,0.1,0.1,0.1,0c0.1,0,0.1,0,0.2,0.1c0.1,0,0.1,0.1,0.2,0.1c0,0,0.1,0.1,0.1,0.1c0,0.1,0.1,0.2,0.2,0.2c0.1,0,0.1,0.1,0.2,0.1
		c0.1,0,0.2,0.1,0.3,0.1c0.1,0,0.2,0,0.3,0.1c0,0,0.1,0,0.1,0c0,0,0.1-0.1,0-0.1c-0.1-0.1,0-0.2,0.1-0.3c0,0,0.1,0,0.1,0v0
		c0,0,0.1,0,0.1-0.1c0,0,0.1-0.1,0.1-0.1c0,0,0-0.1-0.1-0.1c0,0-0.1,0-0.1,0c-0.2-0.1-0.2-0.1-0.3-0.2c0.1,0,0.2,0,0.3,0v0
		c0,0-0.1-0.1-0.1-0.1c-0.1,0-0.3,0-0.4,0.1c-0.1,0.1-0.1,0-0.2-0.1c0.1,0,0.2,0,0.3,0c-0.1-0.2-0.3-0.3-0.6-0.3c0,0-0.1,0-0.1,0
		c-0.2-0.1-0.3-0.1-0.5-0.1c-0.2,0-0.3,0-0.5,0c-0.1,0-0.1,0-0.2-0.1v0c0.1,0,0.1,0,0.1,0c0.2,0,0.5-0.1,0.7-0.1c0.2,0,0.3,0,0.5,0
		c0.2,0.1,0.3,0.1,0.5,0.1c0.1,0,0.2,0,0.3,0c0-0.1-0.1-0.1-0.1-0.1c0.1,0,0.3-0.1,0.4-0.1c0,0,0,0,0,0c-0.1,0-0.2,0-0.3,0
		C173.3,26.6,173.2,26.6,173,26.5z"/>
	<path class="st0" d="M159.2,25.2C159.4,25.2,159.3,25.2,159.2,25.2c0.2,0.1,0.3,0.1,0.3,0.2c0.2,0.1,0.5,0.1,0.7,0
		c0.1-0.1,0.4-0.1,0.5,0c0,0,0.1,0,0.1,0c0.1-0.1,0.2,0,0.3-0.1c0,0,0.1-0.1,0.2-0.1c0.1,0,0.1-0.1,0.2-0.1c0.1,0.1,0.2,0,0.3,0
		c0,0,0.1,0,0.1,0c0.1,0.1,0.2,0.1,0.3,0.2c0.1-0.1,0.1-0.1,0.2-0.1c-0.2-0.3-0.6-0.4-0.9-0.5c-0.2-0.1-0.4-0.1-0.5-0.1
		c-0.2-0.1-0.4-0.2-0.6-0.3c-0.1,0-0.3-0.1-0.4-0.1c-0.1,0-0.2-0.1-0.2-0.1c-0.2-0.1-0.3-0.2-0.5-0.3c-0.1-0.1-0.2-0.1-0.3-0.1
		c-0.1,0-0.1-0.1-0.2-0.1c0,0,0,0,0,0c-0.1-0.1-0.3-0.3-0.5-0.4c-0.1-0.1-0.1,0-0.2,0c0,0,0,0.1,0,0.1c0,0.1,0.1,0.1,0.1,0.2
		c-0.1-0.1-0.2-0.1-0.3-0.2c-0.2-0.1,0,0.1-0.1,0.1c0.1,0,0.1,0.1,0.1,0.1l0,0c0,0-0.1,0-0.1,0c0,0.1,0.2,0.3,0.4,0.3
		c0,0,0.1,0,0.1,0.1c0.1,0.1,0.2,0.2,0.4,0.2c0.2,0,0.4,0,0.5,0.1c0.3,0.1,0.5,0.2,0.8,0.3c0,0,0.1,0,0.1,0.1
		c-0.2-0.1-0.5-0.1-0.7-0.1c0.1,0.1,0.1,0.1,0.2,0.1c-0.3,0-0.5-0.2-0.7-0.3c-0.2-0.1-0.5-0.2-0.7-0.3c-0.1-0.1-0.2-0.1-0.3-0.1
		c0,0,0,0,0,0c0.2,0.1,0.3,0.3,0.5,0.4c-0.1-0.1-0.2-0.1-0.3-0.2c0,0.1,0,0.1,0,0.2c0,0.1,0.1,0.1,0.2,0.1c0.1,0,0.1,0,0.1,0
		c0.1,0.1,0.3,0.1,0.4,0.1c0,0,0,0,0,0c-0.1-0.1-0.1-0.1-0.1-0.1c0,0,0,0,0,0c0.2,0.1,0.4,0.1,0.6,0.2c0,0,0,0,0,0
		c-0.1,0-0.3,0-0.4-0.1c0,0.1,0,0.1,0.1,0.1c-0.1,0-0.3,0-0.5,0.1c0,0,0,0,0,0c0.2,0.1,0.3,0.3,0.5,0.4
		C159.1,25.2,159.2,25.2,159.2,25.2z M159.7,24.8c-0.1-0.1-0.2-0.1-0.3-0.2C159.6,24.6,159.7,24.6,159.7,24.8z"/>
	<path class="st0" d="M158.8,23.3c0.1,0.1,0.1,0.1,0.2,0.2c0.1,0.1,0.2,0.1,0.3,0.2c0.1,0.1,0.1,0.1,0.2,0c0.1,0.1,0.3,0.2,0.5,0.3
		h0c0.2,0.1,0.2,0.1,0.4,0.1c-0.1-0.2-0.2-0.4-0.4-0.5c-0.1-0.1-0.1-0.1-0.1-0.2c0-0.1-0.1-0.2-0.2-0.3c0-0.1-0.1-0.2-0.1-0.3
		c0-0.1-0.1-0.1-0.1-0.2c-0.1-0.1-0.1-0.1-0.1,0c0,0.1-0.1,0.1-0.2,0c0,0,0,0-0.1,0c0,0,0,0.1,0,0.1c0.1,0.1,0.1,0.2,0.2,0.3
		c-0.1-0.1-0.1-0.1-0.2-0.1c-0.1,0-0.1,0-0.2,0c0,0,0,0.1,0.1,0.1c0.1,0.1,0.2,0.2,0.3,0.3c0.1,0.1,0.2,0.1,0.2,0.3
		c-0.1,0-0.1-0.1-0.2-0.1c-0.1-0.1-0.3-0.1-0.4-0.2c-0.1-0.1-0.1-0.2-0.2-0.3c0,0-0.1-0.1-0.1-0.1c-0.1,0,0,0.1,0,0.1
		C158.8,23.2,158.8,23.3,158.8,23.3z"/>
	<path class="st0" d="M162.6,25.2c-0.1,0.1,0,0.1,0,0.1c0.1,0,0.1,0.1,0.1,0.1c0.1,0,0.1,0,0.2,0c0,0,0.1,0,0.1-0.1
		c0,0-0.1-0.1-0.1-0.1c-0.1,0-0.1,0-0.1-0.1C162.7,25.2,162.7,25.2,162.6,25.2z"/>
</g>
</svg>
