<?xml version="1.0" encoding="utf-8"?>
<!-- Generator: Adobe Illustrator 19.1.0, SVG Export Plug-In . SVG Version: 6.00 Build 0)  -->
<svg version="1.1" id="Слой_1" xmlns="http://www.w3.org/2000/svg" xmlns:xlink="http://www.w3.org/1999/xlink" x="0px" y="0px"
	 viewBox="75.5 7.4 109.2 84" style="enable-background:new 75.5 7.4 109.2 84;" xml:space="preserve">
<style type="text/css">
	.st0{fill:#595959;}
</style>
<path class="st0" d="M165.7,7.4c-10.5,0-19,8.5-19,19c0,1.7,0.2,3.4,0.7,5c-5-3.1-10.9-4.9-17.2-4.9c-6.3,0-12.2,1.8-17.2,4.9
	c0.5-1.6,0.7-3.3,0.7-5c0-10.5-8.5-19-19-19c-10.5,0-19,8.5-19,19s8.5,19,19,19c2.3,0,4.5-0.4,6.6-1.2c-2.2,4.4-3.5,9.4-3.5,14.7
	c0,17.9,14.5,32.4,32.5,32.4c18,0,32.5-14.5,32.5-32.4c0-5.3-1.3-10.3-3.5-14.7c2.1,0.8,4.3,1.2,6.6,1.2c10.5,0,19-8.5,19-19
	S176.2,7.4,165.7,7.4z M151.6,58.4c-0.6,1.9-5.6,8.2-9.4,9.8c0-6.3-5.3-5.5-6.3-9.7c-1.1-4.4,4.1-7.3,7.7-3.7
	C147.5,49.1,153.9,52.5,151.6,58.4z"/>
</svg>
