<?xml version="1.0" encoding="utf-8"?>
<!-- Generator: Adobe Illustrator 19.1.0, SVG Export Plug-In . SVG Version: 6.00 Build 0)  -->
<svg version="1.1" id="Слой_1" xmlns="http://www.w3.org/2000/svg" xmlns:xlink="http://www.w3.org/1999/xlink" x="0px" y="0px"
	 viewBox="77.4 7.6 105.6 93.9" style="enable-background:new 77.4 7.6 105.6 93.9;" xml:space="preserve">
<style type="text/css">
	.st0{fill:#595959;}
</style>
<g>
	<path class="st0" d="M111.6,36.2c-0.1,0.3-0.2,0.6-0.2,0.8c0,0.2,0,0.3,0.1,0.3c0.1,0,0.3-0.2,0.4-0.5c0.9-2,2.1-4.3,3.9-6.8
		c1.7-2.6,2.7-3.9,3.1-3.9c0.1,0,0.2,0.1,0.2,0.2c0,0.3-0.2,0.8-0.5,1.6c-2.1,5.1-3.1,9.1-3.1,11.8c0,1,0.2,1.6,0.6,2
		c1.1,1.1,1.9,1.7,2.3,1.7c0.5,0,1-0.6,1.5-1.9c0.4-0.9,0.7-1.8,1.1-2.7c0.1-0.1,0.1-0.2,0.1-0.3c0,0-0.1,0-0.1,0
		c-0.1,0-0.1,0.1-0.2,0.2c-0.8,1-1.4,1.7-1.8,2.3c-0.3,0.3-0.6,0.4-0.8,0.4c-0.5,0-0.8-0.6-0.8-1.7c0-0.3,0-0.7,0.1-1
		c0.2-1.1,1.3-3.9,3.4-8.4c2-4.3,3-6.9,3-7.9c0-0.3-0.1-0.5-0.2-0.7c-0.2-0.3-0.7-0.4-1.3-0.5c-0.7-0.1-1.1-0.2-1.3-0.4
		c-2.7,3.6-5,6.9-6.6,10C113,33.2,112.1,35,111.6,36.2z"/>
	<path class="st0" d="M153,40.9c-0.3,0.4-0.6,0.6-0.7,0.6c-0.2,0-0.3-0.3-0.3-0.8c0-2,1.2-5.2,3.6-9.3c-0.6-0.9-1.1-1.4-1.6-1.4
		c-0.3,0-0.7,0.2-0.9,0.7c-0.2,0.3-1,1.8-2.5,4.5c-1.2,2.3-2.2,3.9-2.9,4.8c-0.7,0.9-1,1.1-1,0.5c0-0.2,0.1-0.6,0.2-1
		c0.3-1,0.8-2.4,1.6-4c0.4-0.9,1.1-2.1,2.1-3.8c-0.7-0.9-1.2-1.4-1.7-1.4s-1.5,1.6-3,4.7c-0.1,0.2-0.1,0.4,0,0.8
		c-0.9,2.7-1.4,4.5-1.5,5.3c-0.2,1.4,0.4,2,1.8,2c0.5,0,1.4-1,2.6-3.1c0.7-1.2,1.4-2.5,2.2-3.7c-0.6,2.2-0.9,3.5-1,4
		c-0.1,0.7,0.1,1.3,0.5,1.8c0.4,0.5,1,0.8,1.7,0.8c0.5,0,1.3-0.8,2.3-2.4c0.5-0.9,1-1.7,1.3-2.4c0.2-0.3,0.3-0.6,0.5-0.8
		c0.5-1.1,1-2.1,1.3-2.8l0-0.1c0.7,1.3,1.4,2.2,1.8,2.7c0.2,0.3,0.3,0.7,0.3,1c0,0.6-0.2,1.2-0.6,1.7c-0.4,0.5-0.9,0.8-1.4,0.8
		c-0.4,0-0.8-0.2-1.1-0.5c-0.3-0.3-0.5-0.8-0.4-1.3c0-0.1,0-0.2-0.1-0.2c-0.3,0-0.5,0.3-0.6,1c-0.1,0.3-0.1,0.7-0.1,1
		c0,1.6,0.8,2.4,2.4,2.4c0.9,0,1.6-0.3,2.3-1c0.1-0.1,0.2-0.2,0.3-0.3c0,0.1,0.1,0.1,0.2,0.1c0.1,0,0.3-0.1,0.5-0.4
		c1.1-1.9,1.9-3.3,2.4-4.2c0.5-1.1,1-2.1,1.3-2.8l0-0.1c0.7,1.3,1.4,2.2,1.8,2.7c0.2,0.3,0.3,0.7,0.3,1c0,0.6-0.2,1.2-0.6,1.7
		c-0.4,0.5-0.9,0.8-1.4,0.8c-0.4,0-0.8-0.2-1.1-0.5s-0.5-0.8-0.4-1.3c0-0.1,0-0.2-0.1-0.2c-0.3,0-0.5,0.3-0.6,1
		c-0.1,0.3-0.1,0.7-0.1,1c0,1.6,0.8,2.4,2.4,2.4c0.9,0,1.6-0.3,2.3-1c0.8-0.7,1.2-1.7,1.2-2.8c0-0.8-0.2-1.5-0.7-2.3
		c-0.3-0.5-0.8-1-1.5-1.7c-0.5-0.4-0.7-0.9-0.8-1.4c-0.1-0.9,0.5-1.7,1.7-2.4c1.1-0.7,2-1.1,2.9-1.1c0.1,0,0.3,0,0.4,0
		c0.1,0.1,0.2,0.1,0.3,0c0.1-0.1,0.1-0.1,0.1-0.3c-0.6-1.5-1-2.3-1.2-2.3c-1.2-0.1-2.3,0.3-3.3,1.3c-1.2,1-1.8,2.3-1.7,3.9
		c-0.2,0.8-0.6,1.9-1.3,3.3c-0.6,1.2-1.3,2.4-1.9,3.6c0-0.2,0-0.3,0-0.5c0-0.8-0.2-1.5-0.7-2.3c-0.3-0.5-0.8-1-1.5-1.7
		c-0.5-0.4-0.7-0.9-0.8-1.4c-0.1-0.9,0.5-1.7,1.7-2.4c1.1-0.7,2-1.1,2.9-1.1c0.1,0,0.3,0,0.4,0c0.1,0.1,0.2,0.1,0.3,0
		c0.1-0.1,0.1-0.1,0.1-0.3c-0.6-1.5-1-2.3-1.2-2.3c-1.2-0.1-2.3,0.3-3.3,1.3c-1.2,1-1.8,2.3-1.7,3.9c-0.2,0.8-0.6,1.9-1.3,3.3
		c-0.5,0.9-0.9,1.7-1.4,2.6C154,39.5,153.4,40.3,153,40.9z"/>
	<path class="st0" d="M81.2,22.5c0.5,0.1,0.8,0,0.8-0.2c0-0.1-0.1-0.2-0.2-0.3c-0.7,0-1-0.3-1-0.9c0-0.4,0.2-0.9,0.6-1.4
		c2.2-2.5,6.2-5.1,12.1-7.6c5.4-2.4,9.4-3.5,11.8-3.5c1.4,0,2.2,0.5,2.2,1.3c0,0.6-0.4,1.7-1.2,3.5c-3.7,6.9-6.6,12.2-8.8,15.8
		c-3.4,6.7-5.1,10.6-5.1,11.7c0,0.8,0.2,1.4,0.7,1.9c0.4,0.4,0.8,0.6,1.3,0.6c0.4,0,0.7-0.1,0.8-0.4c2.1-4.4,5.3-9.5,9.5-15.2
		c2.5-2.9,4.3-5,5.6-6.3c1.5-1.5,2.6-2.3,3.1-2.3c0.3,0,0.5,0.3,0.5,0.8c0,0.4-0.1,1-0.3,1.8c-0.2,0.8-1,2.9-2.4,6.4
		c-1,2.5-1.6,4.8-1.9,6.7c-0.1,0.9-0.2,1.7-0.2,2.4c0,1.7,0.5,2.5,1.4,2.3c0.1-2,0.7-4.4,1.9-7.4c0.2-0.6,1.3-3,3.2-7.2
		c1.1-2.5,1.7-4.2,1.7-5c0-0.5-0.2-1-0.6-1.6c-0.4-0.7-0.9-1-1.3-1c-1.4,0-3,0.9-4.9,2.5c-3.9,3.4-8.1,8.5-12.6,15.2
		c-0.1,0.1-0.1,0.1-0.1,0.2c-0.2,0-0.1-0.3,0.1-0.8c1.1-2.4,3-5.7,5.6-9.8c2.9-4.6,4.6-7.3,5.2-8.3c0.6-1.1,0.9-1.8,1-2.1
		c0.3-0.7,0.5-1.5,0.5-2.4c0-2.7-1.9-4.1-5.7-4.1c-2.6,0-6,0.6-10,1.9c-1.3,0.4-2.7,1-4.4,1.7c-0.3,0.1-1.7,0.8-4.2,2
		c-1.2,0.6-2.6,1.4-4.3,2.6c-2.2,1.5-3.3,2.7-3.3,3.5c0,0.7,0.4,1.4,1.2,2.1C80.2,22,80.8,22.4,81.2,22.5z"/>
	<path class="st0" d="M130.2,70.4c-0.3-0.6-0.4-1-0.5-1c-0.3-0.4-0.5-0.6-0.7-0.6c-0.4,0-0.9,0.6-1.6,1.9c-2,4.1-3.3,6.8-3.9,7.9
		c-0.7,1.1-1,1.3-1,0.6c0-0.3,0.1-0.7,0.1-1.2c0.3-1.2,0.8-2.6,1.5-4.2c0.7-1.3,1.3-2.6,2-3.9c-0.7-1.1-1.2-1.6-1.7-1.6
		c-0.5,0-1.4,1.6-2.7,4.8c-0.3,0.7-0.3,1-0.2,1c-0.7,2.7-1.1,4.6-1.3,5.7c0,0.5,0,1,0.1,1.4c0,0-0.1,0.1-0.2,0.2
		c-0.7,1.1-1.3,2-1.7,2.7c-0.3,0.3-0.5,0.4-0.7,0.4c-0.5,0-0.8-0.7-0.8-2c0-0.4,0-0.8,0.1-1.2c0.2-1.2,1.2-4.5,3.1-9.7
		c1.8-4.9,2.7-8,2.7-9.1c0-0.3-0.1-0.6-0.2-0.8c-0.2-0.3-0.6-0.5-1.2-0.6c-0.7-0.1-1-0.3-1.2-0.4c-2.5,4.1-4.6,7.9-6.1,11.5
		c-1.2,2.9-2,5-2.4,6.3c-0.1,0.4-0.2,0.7-0.2,0.9s0.1,0.3,0.1,0.3c0.1,0,0.3-0.2,0.4-0.6c0.8-2.3,1.9-4.9,3.5-7.9
		c1.6-2.9,2.6-4.4,2.9-4.4c0.1,0,0.1,0.1,0.1,0.3c0,0.3-0.1,0.9-0.5,1.8c-1.9,5.9-2.9,10.4-2.9,13.5c0,1.1,0.2,1.8,0.5,2.3
		c1,1.3,1.7,1.9,2.1,1.9c0.4,0,0.9-0.7,1.4-2.2c0.3-1,0.7-2.1,1-3.1c0,0,0-0.1,0-0.1c0.3,0.5,0.7,0.8,1.5,0.8c0.8,0,2.4-2.5,4.7-7.6
		c0.6-1.3,0.9-2,1-2c0.1,0,0.1,0.1,0.1,0.3c0,0.9-0.2,2.4-0.7,4.5c-0.5,2.2-0.9,3.4-1.2,3.6c-2.3,1.6-3.7,2.5-4,2.8
		c-1.3,1-2.6,2.2-3.9,3.7c-1.1,1.2-2.2,2.7-3.3,4.5c-1.5,2.4-2.3,4.1-2.3,5.3c0,0.9,0.4,1.9,1.2,3c0.8,1,1.5,1.6,2,1.6
		c2.1,0,4.4-2.4,7-7.2c2-3.6,3.7-7.6,5.2-12c0.7,0,1.1,0.4,1.4,1.1c0.1,0.5,0.2,1.4,0.3,2.8c0,0.5,0.1,0.8,0.1,0.8
		c0.1,0,0.2-0.3,0.4-0.8s0.2-1.1,0.2-1.7c0-2.2-0.6-3.5-1.8-3.8c1.4-3.9,2.1-7.1,2.3-9.6C130.5,71,130.3,70.8,130.2,70.4z
		 M122.7,89.6c-2.2,4.2-4.1,7-5.8,8.4c-0.9,0.7-1.5,1.1-2,1.1c-0.5,0-0.7-0.4-0.7-1.2c0-1.3,0.5-2.8,1.3-4.5
		c2.7-5.4,6.2-9.2,10.5-11.4C125.9,83.2,124.8,85.7,122.7,89.6z"/>
	<path class="st0" d="M182.9,71.6c-0.6-1.5-1-2.2-1.2-2.3c-1.2-0.1-2.3,0.3-3.3,1.2c-1.2,1-1.8,2.3-1.7,3.9
		c-0.2,0.8-0.6,1.9-1.3,3.3c-0.7,1.4-1.4,2.7-2.2,4c-0.5,0.8-1.1,1.4-1.6,1.8c-0.6,0.5-1.2,0.7-1.8,0.7c-0.9,0-1.3-0.6-1.3-1.7
		c0-0.3,0.1-0.7,0.1-1.1c0.6-3.3,2.2-6.1,4.6-8.2c0.4-0.3,0.7-0.5,1-0.5c0.3,0,0.5,0.2,0.5,0.7c0,0.4-0.1,0.8-0.4,1.3
		c-0.3,0.4-1.1,1.4-2.7,3c-1.2,1.2-2,2.4-2.2,3.6c-0.1,0.2,0,0.4,0.1,0.5c0.1,0,0.2-0.1,0.3-0.3c0.2-0.6,0.9-1.5,2.1-2.5
		c1.7-1.5,2.7-2.4,3.1-2.7c0.8-0.9,1.2-1.8,1.2-2.8c0-0.9-0.3-1.4-1-1.7c-1-0.4-1.6-0.7-1.7-0.8c-1.4,0-2.9,1.3-4.4,4
		c-0.2,0.3-0.3,0.5-0.5,0.8c-0.2,0.3-0.5,0.9-0.9,1.8c-0.7,1.7-1.8,3.6-3.1,5.5c-0.6,0.9-1.2,1.4-1.8,1.4c-0.7,0-1-0.7-1-1.9
		c-0.2-5.1,3.1-13.2,9.9-24.1c0.9-1.5,1.5-2.2,1.8-2.2c0.1,0,0.1,0.1,0.1,0.3c0,0.5-0.3,1.3-1,2.6c-0.5,0.9-1.2,2.1-2,3.5
		c-5.1,8.4-7.7,13.4-7.9,15c0,0.3,0,0.5,0.2,0.5c0.1,0,0.1-0.1,0.2-0.4c0.2-0.9,1.5-3.4,3.9-7.3c1.7-2.7,3.4-5.5,5-8.2
		c2-3.3,3-5.6,3-7c-0.2-0.1-0.5-0.6-1-1.4c-0.4-0.7-0.8-1-1.3-1.1c-0.1,0-0.2,0-0.3,0c2-3,3.7-6.4,5.1-10c0.7,0,1.2,0.3,1.5,1
		c0.1,0.5,0.2,1.2,0.3,2.4c0,0.5,0.1,0.7,0.1,0.7c0.1,0,0.3-0.2,0.4-0.7c0.1-0.5,0.2-1,0.2-1.5c0-1.9-0.6-3-1.9-3.3
		c1.4-3.4,2.2-6.2,2.4-8.4c-0.2,0-0.4-0.2-0.5-0.5c-0.3-0.5-0.4-0.9-0.5-0.9c-0.3-0.4-0.5-0.6-0.7-0.6c-0.4,0-1,0.6-1.6,1.7
		c-2.1,3.6-3.5,5.9-4.1,6.8c-0.7,1-1,1.1-1,0.5c0-0.2,0.1-0.6,0.1-1c0.3-1,0.8-2.2,1.6-3.7c0.7-1.2,1.4-2.3,2.1-3.5
		c-0.7-0.9-1.3-1.4-1.8-1.4s-1.4,1.4-2.8,4.2c-0.3,0.6-0.4,0.9-0.2,0.9c-0.7,2.3-1.2,4-1.3,5c-0.1,1.4,0.4,2,1.8,2
		c0.9,0,2.5-2.2,4.9-6.7c0.7-1.1,1-1.7,1-1.7s0.1,0.1,0.1,0.2c0,0.8-0.2,2.1-0.7,3.9c-0.5,1.9-0.9,2.9-1.3,3.1
		c-2.4,1.4-3.8,2.2-4.2,2.4c-1.4,0.9-2.7,2-4.1,3.2c-1.1,1.1-2.3,2.4-3.5,3.9c-1.6,2.1-2.4,3.6-2.4,4.6c0,0.8,0.4,1.7,1.2,2.6
		c0.8,0.9,1.5,1.4,2.1,1.4c1,0,2.2-0.5,3.3-1.4l-0.1,0.1c-2,3.5-3.9,7.5-5.5,12c-0.9,2.4-1.5,4.5-2,6.4c-0.1,0.1-0.1,0.2-0.2,0.4
		c-0.6,1-1.1,2.1-1.7,3.1c-0.7,1.2-1.3,2.2-1.8,2.9c-0.3,0.4-0.6,0.5-0.7,0.5c-0.2,0-0.3-0.3-0.3-0.8c0-2.1,1.2-5.2,3.6-9.3
		c-0.6-0.9-1.1-1.4-1.6-1.4c-0.3,0-0.7,0.3-0.9,0.7c-0.2,0.3-1,1.8-2.5,4.5c-1.2,2.2-2.2,3.8-2.9,4.8c-0.7,0.9-1,1-1,0.5
		c0-0.3,0.1-0.6,0.2-1.1c0.3-1,0.8-2.4,1.6-3.9c0.4-0.9,1.1-2.2,2.1-3.8c-0.7-1-1.2-1.4-1.7-1.4s-1.5,1.6-3,4.7
		c-0.1,0.2-0.1,0.4,0,0.8c-0.2,0.6-0.4,1.1-0.5,1.6c-1.1,2.1-1.8,3.3-2.1,3.7c-0.7,1-1.3,1.6-1.9,1.6c-1.3,0-2.3-2-3.1-6.2
		c-0.6-3.1-0.9-5.8-0.9-8.2c0-0.1,0.6-0.3,1.7-0.5c1-0.2,1.7-0.3,2-0.4c1.7-0.2,3.3-0.8,4.8-1.8c2-1.3,2.9-2.9,2.9-4.9
		c0-0.9-0.2-1.8-0.7-2.8c0,0-0.1-0.3-0.2-1c-0.1-0.7-0.5-1.3-1.2-1.8c-0.8-0.6-1.9-1.2-3.3-1.6c0.9-1.1,1.4-1.9,1.6-2.3
		c0.1-0.2,0.1-0.4,0.1-0.6c0-0.5-0.3-1-1-1.4c-0.5-0.3-1-0.5-1.5-0.5c-0.5,0.5-1,1-1.5,1.5c-0.7,0.7-1,1.3-1,1.8
		c0,0.3,0.1,0.5,0.2,0.7l-0.1,0.1c-3-0.3-6.3-0.2-9.9,0.3c-2.7,0.5-5.1,1.2-7,2.1c-2.2,1-3.2,2.2-3.2,3.5c0,0.6,0.3,1.3,0.9,2.2
		s1.2,1.3,1.6,1.3c0.2,0,0.4,0,0.4-0.1c0-0.1,0-0.2-0.1-0.3c-0.5,0-0.7-0.2-0.7-0.7c0-1.2,1-2.4,3.2-3.7c2-1.2,4.2-2,6.4-2.3
		c2.9-0.5,5.3-0.7,7.2-0.8c-2.2,3.3-4.2,6.8-6,10.7c-2.2,4.8-3.4,8.4-3.4,10.9c0,0.9,0.2,1.7,0.6,2.6c0.5,0.9,0.9,1.4,1.5,1.4
		c0.2,0,0.3-0.1,0.5-0.2v-0.4c-0.9,0-1.3-0.8-1.3-2.3c0-4.5,3.5-11.6,10.6-21.5c0.2-0.2,0.5-0.6,0.9-1.1c3.3,0.3,4.9,1.5,4.9,3.4
		c0,0.7-0.1,1.3-0.5,1.9c-1.1,2.5-2.7,4.4-4.9,5.6c-1.4,0.8-3.4,1.5-6.2,2.1c-0.8,0.2-1.2,0.5-1.2,0.7c0,0.1,0,0.1,0.1,0.2
		c-0.1,0.1-0.2,0.1-0.3,0.2c1.4,10.4,3.4,15.7,5.8,15.9c1.4,0.1,2.8-1.1,4.1-3.5l0.1-0.1c-0.1,1.3,0.5,1.9,1.8,1.9
		c0.5,0,1.4-1,2.6-3.1c0.7-1.2,1.4-2.4,2.2-3.7c-0.6,2.2-0.9,3.5-1,3.9c-0.1,0.7,0.1,1.3,0.5,1.8c0.4,0.5,1,0.8,1.7,0.8
		c0.5,0,1.3-0.8,2.3-2.4c0.8-1.4,1.3-2.4,1.6-3.1c0.1-0.2,0.2-0.3,0.3-0.5c-0.2,1.1-0.3,2.2-0.3,3.1c0,2.6,0.8,3.9,2.5,3.9
		c1.1,0,2.2-0.7,3.1-2.2c0.6-0.9,1-1.7,1.5-2.5c0,0.4,0,0.8,0,1.1c0.2,2,1,3.1,2.5,3.3c1.3,0.2,2.6-0.4,3.7-1.9c0,0,0.1-0.1,0.1-0.1
		c0.2-0.3,0.4-0.6,0.6-0.9c0.4-0.7,0.7-1.3,0.9-1.7c0.4-0.7,0.7-1.2,0.9-1.6c0.5-1.2,1-2.1,1.3-2.8l0-0.1c0.7,1.3,1.4,2.2,1.8,2.7
		c0.2,0.3,0.3,0.7,0.3,1c0,0.6-0.2,1.2-0.6,1.7c-0.4,0.5-0.9,0.8-1.4,0.8c-0.4,0-0.8-0.2-1.1-0.5s-0.5-0.8-0.4-1.3
		c0-0.1,0-0.2-0.1-0.2c-0.3,0-0.5,0.3-0.6,1c-0.1,0.3-0.1,0.7-0.1,1c0,1.6,0.8,2.4,2.4,2.4c0.9,0,1.6-0.3,2.3-1
		c0.8-0.7,1.2-1.7,1.2-2.8c0-0.8-0.2-1.6-0.7-2.3c-0.3-0.5-0.8-1-1.5-1.7c-0.5-0.4-0.7-0.9-0.8-1.4c-0.1-0.9,0.5-1.6,1.7-2.4
		c1.1-0.7,2-1,2.9-1c0.1,0,0.3,0,0.4,0c0.1,0.1,0.2,0.1,0.3,0C182.9,71.8,183,71.7,182.9,71.6z M166,56.2c-0.9,0.7-1.6,1-2.1,1
		c-0.5,0-0.8-0.3-0.8-1c0-1.1,0.5-2.4,1.4-4c2.8-4.6,6.5-7.9,10.9-9.9c-0.1,1-1.2,3.2-3.4,6.6C169.6,52.5,167.7,55,166,56.2z"/>
	<path class="st0" d="M116.1,65.5c1.2-2.9,1.7-4.8,1.7-5.8c0-0.5-0.2-1.1-0.6-1.8c-0.1-0.2-0.3-0.5-0.4-0.6c2-0.4,4.2-2.4,6.7-6.2
		c2.1-3.1,3.9-6.6,5.4-10.4c0.7,0,1.2,0.3,1.4,0.9c0.1,0.5,0.2,1.3,0.3,2.4c0,0.5,0.1,0.7,0.1,0.7c0.1,0,0.2-0.1,0.3-0.3
		c-0.1,0.5-0.1,1-0.1,1.6c0,0.7,0.1,1.1,0.3,1.1c0.1,0,0.1-0.1,0.2-0.1c1.3-1.7,2.9-3.1,5-4.3c1.8-1,3.4-1.5,4.7-1.5
		c0.2,0,0.3-0.1,0.3-0.5c0-0.3-0.1-0.5-0.3-0.5c-1.4,0-2.9,0.2-4.4,0.5v-0.3c-0.9,0-1.3-0.8-1.3-2.4c0-2.9,1.5-7,4.4-12.4
		c2.4-4.3,4.8-7.9,7.2-10.8c5,0.1,7.5,1.3,7.5,3.5c0,0.7-0.1,1.3-0.5,2c-1.1,2.6-3.4,4.8-6.9,6.9c-2.7,1.5-5.4,2.6-8.1,3.3
		c-0.9,0.2-1.3,0.4-1.3,0.7s0.4,0.4,1.1,0.4c-0.1,0,0.4-0.2,1.4-0.5c1.4-0.5,2.7-0.8,4-1c1.8-0.2,4.1-1.2,6.7-3
		c3.2-2.2,4.8-4.5,4.8-6.9c0-0.7-0.1-1.4-0.4-2.1c-0.1,0-0.1-0.3-0.2-1c-0.1-0.7-0.5-1.2-1.2-1.8c-1.1-0.9-3-1.5-5.6-1.9
		c0.8-1.1,1.2-1.9,1.2-2.5c0-0.5-0.4-1-1.1-1.4c-0.6-0.3-1.2-0.5-1.6-0.6c-0.5,0.5-1,1-1.5,1.6c-0.7,0.7-1,1.3-1,1.8
		c0,0.3,0.1,0.5,0.2,0.7c-3.2-0.1-6.4,0.1-9.6,0.6c-2.7,0.5-5.1,1.2-7,2.2c-2.2,1.1-3.2,2.2-3.2,3.6c0,0.6,0.3,1.3,0.9,2.2
		c0.6,0.8,1.2,1.3,1.6,1.4c0.2,0,0.4,0,0.4-0.1c0-0.1,0-0.2-0.1-0.4c-0.5,0-0.7-0.2-0.7-0.7c0-1.2,1-2.4,3.2-3.7
		c2-1.2,4.2-2,6.4-2.3c2.8-0.5,5.1-0.7,6.8-0.8c-2.2,3.3-4.1,6.9-6,10.9c-2.2,4.8-3.3,8.6-3.3,11.1c0,0.9,0.2,1.8,0.6,2.5
		c0.4,0.8,0.9,1.2,1.4,1.4c-2.1,0.5-3.6,1.3-4.4,2.4c-0.1,0.1-0.2,0.3-0.3,0.4c0.1-0.4,0.1-0.8,0.1-1.3c0-1.9-0.6-3-1.9-3.3
		c1.4-3.4,2.2-6.2,2.4-8.4c-0.2,0-0.4-0.2-0.5-0.6c-0.3-0.5-0.4-0.9-0.5-0.9c-0.3-0.4-0.5-0.6-0.7-0.6c-0.4,0-0.9,0.6-1.6,1.7
		c-2.1,3.6-3.4,5.9-4.1,6.8c-0.7,1-1,1.1-1,0.5c0-0.2,0-0.6,0.1-1c0.3-1,0.8-2.2,1.6-3.7c0.7-1.1,1.4-2.3,2.1-3.5
		c-0.7-0.9-1.3-1.4-1.8-1.4c-0.5,0-1.4,1.4-2.8,4.2c-0.3,0.6-0.4,0.9-0.2,0.9c-0.7,2.3-1.2,4-1.3,5c-0.1,1.4,0.5,2,1.8,2
		c0.9,0,2.5-2.2,4.9-6.6c0.6-1.2,1-1.7,1-1.7c0.1,0,0.1,0.1,0.1,0.3c0,0.8-0.2,2.1-0.7,3.9c-0.5,1.9-0.9,2.9-1.3,3.1
		c-2.4,1.4-3.8,2.2-4.2,2.4c-1.4,0.9-2.7,2-4.1,3.2c-1.2,1.1-2.3,2.4-3.5,3.9c-1.6,2-2.4,3.6-2.4,4.6c0,0.8,0.4,1.7,1.2,2.6
		c0.3,0.3,0.6,0.6,0.9,0.9c-1.2,0.3-2.6,1.2-4.2,2.7c-4,3.9-8.4,9.7-13.1,17.5c-0.1,0.1-0.1,0.1-0.1,0.2c-0.2,0-0.1-0.3,0.1-0.9
		c1.2-2.7,3.1-6.5,5.9-11.3c3-5.2,4.8-8.4,5.4-9.6c0.6-1.3,1-2.1,1.1-2.4c0.3-0.8,0.5-1.7,0.5-2.8c0-3.2-2-4.8-6-4.8
		c-2.7,0-6.2,0.7-10.4,2.2c-1.3,0.5-2.8,1.1-4.6,1.9c-0.3,0.2-1.7,0.9-4.4,2.3c-1.3,0.7-2.7,1.6-4.4,2.9c-2.3,1.8-3.4,3.1-3.4,4
		c0,0.7,0.4,1.6,1.2,2.4c0.7,0.7,1.3,1.2,1.7,1.3c0.5,0.1,0.8,0.1,0.8-0.2c0-0.1-0.1-0.2-0.2-0.3c-0.7,0-1-0.3-1-1
		c0-0.5,0.2-1,0.7-1.6c2.2-2.9,6.4-5.8,12.6-8.8c5.6-2.7,9.7-4,12.3-4c1.5,0,2.3,0.5,2.3,1.5c0,0.7-0.4,2-1.3,4
		c-3.8,7.9-6.9,13.9-9.1,18.1c-3.6,7.7-5.3,12.2-5.3,13.4c0,0.9,0.2,1.6,0.7,2.2c0.4,0.5,0.9,0.7,1.4,0.7c0.4,0,0.7-0.1,0.8-0.5
		c2.2-5.1,5.5-10.9,9.9-17.5c2.6-3.3,4.5-5.7,5.8-7.3c1.5-1.7,2.6-2.6,3.2-2.6c0.4,0,0.5,0.3,0.5,0.9c0,0.5-0.1,1.1-0.3,2
		c-0.2,0.9-1,3.3-2.5,7.4c-1,2.9-1.6,5.4-2,7.7c-0.2,1-0.2,2-0.2,2.7c0,2,0.5,2.8,1.5,2.7c0.1-2.2,0.7-5.1,1.9-8.5
		C113.1,73.1,114.2,70.3,116.1,65.5z M114.7,54.2c0-1.1,0.5-2.4,1.4-3.9c2.8-4.7,6.5-8,10.9-9.9c0,1-1.2,3.2-3.4,6.6
		c-2.4,3.6-4.3,6-6,7.3c-0.9,0.6-1.6,1-2.1,1C114.9,55.3,114.7,54.9,114.7,54.2z"/>
</g>
</svg>
