<?xml version="1.0" encoding="utf-8"?>
<!-- Generator: Adobe Illustrator 19.1.0, SVG Export Plug-In . SVG Version: 6.00 Build 0)  -->
<svg version="1.1" id="Слой_1" xmlns="http://www.w3.org/2000/svg" xmlns:xlink="http://www.w3.org/1999/xlink" x="0px" y="0px"
	 viewBox="77.8 12.7 105.8 77.2" style="enable-background:new 77.8 12.7 105.8 77.2;" xml:space="preserve">
<style type="text/css">
	.st0{fill:#595959;}
</style>
<g>
	<path class="st0" d="M183.4,53.5h-3.2c-0.1,0-0.1,0.3-0.1,0.7s0.1,0.7,0.1,0.7h1.3l-3.1,15.2L175,55h0.9c0.1,0,0.1-0.3,0.1-0.7
		s0-0.7-0.1-0.7h-6.2c-0.1,0-0.1,0.3-0.1,0.7s0.1,0.7,0.1,0.7h1.2l4.1,18.5v14.5h-1.2c-0.1,0-0.1,0.3-0.1,0.7c0,0.5,0,0.8,0.1,0.8
		h6.1c0.1,0,0.1-0.3,0.1-0.8c0-0.5,0-0.7-0.1-0.7h-1.2V71.6l3.4-16.6h1.3c0.1,0,0.2-0.3,0.2-0.7S183.5,53.5,183.4,53.5z"/>
	<path class="st0" d="M168.6,54v-0.1c0-0.3,0-0.4-0.1-0.4h-11.2c0,0-0.1,0.1-0.1,0.4l-0.1,10.9l0,1c0,0.1,0,0.1,0.1,0.2
		c0.1,0.1,0.1,0.1,0.2,0.1c0,0,0.1,0,0.1-0.1s0.1-0.1,0.1-0.2c0-0.7,0.1-1.5,0.1-2.4c0.1-0.9,0.2-1.8,0.3-2.9c0.2-1,0.3-2,0.5-2.8
		c0.2-0.8,0.5-1.5,0.8-2.1c0.3-0.6,0.7-0.8,1-0.8h0.8v32.9H160c-0.1,0-0.2,0.3-0.2,0.7c0,0.5,0.1,0.8,0.2,0.8h5.9
		c0.1,0,0.1-0.3,0.1-0.8c0-0.5-0.1-0.7-0.1-0.7h-1.3V55h0.8c0.4,0,0.7,0.3,1,0.8c0.3,0.5,0.6,1.2,0.8,2.1c0.2,0.8,0.4,1.7,0.5,2.7
		c0.1,1,0.3,2,0.3,2.9c0.1,0.9,0.1,1.7,0.1,2.4c0,0.1,0,0.1,0.1,0.2c0.1,0.1,0.1,0.1,0.2,0.1c0,0,0.1,0,0.1-0.1
		c0.1-0.1,0.1-0.1,0.1-0.2v-1c0-0.9-0.1-2.9-0.1-5.9C168.6,56,168.6,54.4,168.6,54z"/>
	<path class="st0" d="M155.7,82.2c-0.1,0-0.1,0-0.2,0.1c-0.1,0.1-0.1,0.2-0.1,0.4c0,1.1-0.1,1.9-0.3,2.5c-0.2,0.6-0.4,0.9-0.7,0.9
		c-0.3,0-0.5-0.3-0.7-1c-0.2-0.7-0.3-1.6-0.3-2.8c0-3.9-0.3-6.9-0.8-8.7c-0.5-1.9-1.2-2.9-2.2-3v-0.2c1.1-0.4,2-1.4,2.7-3
		s0.9-3.5,0.9-5.5c0-1.1-0.1-2.2-0.3-3.1c-0.2-1-0.5-1.9-0.8-2.7c-0.3-0.8-0.8-1.4-1.3-1.9c-0.6-0.5-1.2-0.7-1.8-0.7h-8
		c-0.1,0-0.1,0.3-0.1,0.7s0.1,0.7,0.1,0.7h1.3v32.9h-1.3c-0.1,0-0.1,0.3-0.1,0.7c0,0.5,0.1,0.8,0.1,0.8h6c0.1,0,0.2-0.3,0.2-0.8
		c0-0.5-0.1-0.7-0.2-0.7h-1.3V71.6h2.1c0.3,0,0.5,0.3,0.7,0.8c0.2,0.5,0.3,1.2,0.5,2c0.1,0.9,0.2,1.8,0.3,2.8c0.1,1,0.1,2.1,0.1,3.2
		c0,1.6,0.1,3.1,0.2,4.3c0.2,1.3,0.4,2.3,0.7,3s0.6,1.3,0.9,1.6c0.3,0.4,0.7,0.6,1.1,0.6c0.8,0,1.5-0.7,2.1-2c0.6-1.3,0.9-3,0.9-5.1
		C155.9,82.4,155.8,82.2,155.7,82.2z M150,67.8c-0.4,1.5-0.9,2.3-1.5,2.3h-2V55h2c0.6,0,1.1,0.7,1.5,2.2c0.4,1.5,0.6,3.3,0.6,5.3
		C150.5,64.5,150.3,66.3,150,67.8z"/>
	<path class="st0" d="M140.2,88.2h-1l-5-34.9c0-0.2-0.1-0.2-0.3-0.2c0,0-0.1,0-0.2,0.1s-0.1,0.1-0.1,0.2l-4.9,34.9h-1
		c-0.1,0-0.2,0.2-0.2,0.7c0,0.5,0.1,0.7,0.2,0.7h2.9c0.1,0,0.1-0.2,0.1-0.7c0-0.5-0.1-0.7-0.1-0.7h-1.3l1-7.5h4.1l1.1,7.5h-1.4
		c-0.1,0-0.1,0.2-0.1,0.7c0,0.5,0,0.7,0.1,0.7h6.1c0.1,0,0.1-0.2,0.1-0.7C140.3,88.4,140.3,88.2,140.2,88.2z M130.5,79.2l1.8-13
		l1.9,13H130.5z"/>
	<path class="st0" d="M125.7,58.1c-0.3-0.9-0.6-1.7-0.9-2.4c-0.4-0.7-0.8-1.2-1.3-1.6c-0.5-0.4-1-0.6-1.6-0.6h-7.7
		c-0.1,0-0.1,0.3-0.1,0.7s0.1,0.7,0.1,0.7h1.3v32.9h-1.3c-0.1,0-0.1,0.3-0.1,0.7c0,0.5,0.1,0.8,0.1,0.8h6c0.1,0,0.2-0.3,0.2-0.8
		c0-0.5-0.1-0.7-0.2-0.7h-1.3V74.5h2.5c0.8,0,1.6-0.3,2.3-0.9c0.7-0.6,1.2-1.4,1.6-2.4c0.4-1,0.7-2.1,0.9-3.3
		c0.2-1.2,0.3-2.5,0.3-3.9c0-1-0.1-2.1-0.2-3.1C126.2,59.9,126,59,125.7,58.1z M122.6,68.3c-0.1,1.4-0.4,2.5-0.7,3.4
		c-0.3,0.9-0.7,1.3-1.2,1.3h-1.9V55h2c0.4,0,0.8,0.4,1.1,1.3c0.3,0.9,0.5,2,0.7,3.3c0.1,1.3,0.2,2.8,0.2,4.3
		C122.9,65.5,122.8,67,122.6,68.3z"/>
	<path class="st0" d="M103.8,59.7c-0.4-1.4-0.9-2.7-1.4-3.7c-0.5-1-1.1-1.8-1.7-2.2c-0.6-0.5-1.2-0.7-1.9-0.7
		c-0.6,0-1.2,0.3-1.8,0.7c-0.6,0.5-1.2,1.2-1.7,2.2c-0.5,1-1,2.2-1.4,3.7c-0.4,1.4-0.7,3.2-0.9,5.2c-0.2,2-0.3,4.3-0.3,6.6
		c0,2.4,0.1,4.6,0.3,6.6c0.2,2,0.5,3.7,0.9,5.2c0.4,1.4,0.9,2.6,1.4,3.7c0.5,1,1.1,1.7,1.7,2.2c0.6,0.5,1.2,0.7,1.8,0.7
		s1.2-0.3,1.8-0.7c0.6-0.5,1.2-1.2,1.7-2.2c0.5-1,1-2.2,1.4-3.7c0.4-1.4,0.7-3.1,1-5.2c0.2-2,0.3-4.2,0.3-6.6c0-2.4-0.1-4.6-0.3-6.6
		C104.5,62.9,104.2,61.1,103.8,59.7z M101.5,73.6c0,2.2,0,4-0.1,5.5c-0.1,1.5-0.1,2.9-0.2,4.2c-0.1,1.3-0.3,2.3-0.5,3
		c-0.2,0.7-0.5,1.3-0.7,1.7c-0.3,0.4-0.7,0.6-1.1,0.6c-0.4,0-0.8-0.2-1.1-0.6c-0.3-0.4-0.6-1-0.8-1.8s-0.4-1.8-0.5-3
		c-0.1-1.3-0.2-2.7-0.3-4.2c0-1.5-0.1-3.3-0.1-5.5v-4.3c0-2.1,0-3.9,0.1-5.5c0.1-1.5,0.1-2.9,0.3-4.2c0.1-1.3,0.3-2.3,0.5-3.1
		c0.2-0.8,0.5-1.3,0.8-1.8s0.7-0.6,1.1-0.6c0.4,0,0.7,0.1,1,0.4c0.3,0.3,0.5,0.7,0.7,1.3c0.2,0.6,0.4,1.3,0.5,2.1
		c0.1,0.8,0.3,1.8,0.3,2.9c0.1,1.2,0.1,2.4,0.2,3.7c0,1.3,0,2.9,0,4.6V73.6z"/>
	<path class="st0" d="M90.4,53.5h-3.2c-0.1,0-0.1,0.3-0.1,0.7s0.1,0.7,0.1,0.7h1.3v19.9l-6.8-21.3h-3.8c-0.1,0-0.1,0.3-0.1,0.7
		s0,0.7,0.1,0.7h1.3v32.9h-1.3c-0.1,0-0.1,0.3-0.1,0.7c0,0.5,0,0.8,0.1,0.8h3.2c0.1,0,0.1-0.3,0.1-0.8c0-0.5-0.1-0.7-0.1-0.7h-1.4
		V62l8.7,27.4H89V55h1.4c0.1,0,0.2-0.3,0.2-0.7S90.5,53.5,90.4,53.5z"/>
	<path class="st0" d="M169.8,49.5h2.9c0.1,0,0.1-0.3,0.1-0.7s0-0.7-0.1-0.7h-1.3l1-7.5h4.1l1.1,7.5h-1.4c-0.1,0-0.1,0.3-0.1,0.7
		s0.1,0.7,0.1,0.7h6.1c0.1,0,0.1-0.3,0.1-0.7s-0.1-0.7-0.1-0.7h-1l-5-34.9c0-0.1-0.1-0.2-0.3-0.2c0,0-0.1,0-0.2,0.1
		c-0.1,0-0.1,0.1-0.1,0.1L170.8,48h-1c-0.1,0-0.1,0.3-0.1,0.7S169.7,49.5,169.8,49.5z M174.5,26.1l1.9,13h-3.7L174.5,26.1z"/>
	<path class="st0" d="M154,47.8c-0.1,0-0.1,0.2-0.1,0.7s0,0.7,0.1,0.7h6c0.1,0,0.2-0.3,0.2-0.7s-0.1-0.7-0.2-0.7h-1.3V30.6h4.8v17.2
		h-1.3c-0.1,0-0.1,0.2-0.1,0.7s0.1,0.7,0.1,0.7h6c0.1,0,0.2-0.3,0.2-0.7s-0.1-0.7-0.2-0.7h-1.3v-33h1.3c0.1,0,0.2-0.2,0.2-0.7
		c0-0.5-0.1-0.7-0.2-0.7h-6c-0.1,0-0.1,0.2-0.1,0.7c0,0.5,0.1,0.7,0.1,0.7h1.3v14.3h-4.8V14.8h1.3c0.1,0,0.2-0.2,0.2-0.7
		c0-0.5-0.1-0.7-0.2-0.7h-6c-0.1,0-0.1,0.2-0.1,0.7c0,0.5,0,0.7,0.1,0.7h1.3v33H154z"/>
	<path class="st0" d="M142.8,49.2c0,0.2,0,0.4,0.1,0.5c0.1,0.1,0.1,0.2,0.3,0.2c0.1,0,0.1-0.1,0.2-0.2c0.1-0.1,0.1-0.3,0.1-0.5
		c0-0.3,0-0.7,0.1-1.1c0.1-0.4,0.2-0.6,0.4-0.6c0.1,0,0.3,0.2,0.6,0.6c0.3,0.4,0.7,0.7,1.2,1.1c0.5,0.4,0.9,0.6,1.3,0.6
		c0.5,0,1-0.1,1.4-0.5c0.5-0.3,0.9-0.8,1.4-1.4c0.5-0.6,0.8-1.4,1.2-2.3c0.3-0.9,0.6-2,0.8-3.3c0.2-1.3,0.3-2.7,0.3-4.2
		c0-3.1-1.8-6-3.4-8.8c-1.8-3.1-3.9-5.9-3.9-9.6c0-1.7,0.2-3.1,0.6-4s0.9-1.4,1.6-1.4c0.3,0,0.7,0.1,1,0.4c0.3,0.3,0.7,0.7,1,1.2
		c0.3,0.5,0.6,1.2,0.8,2c0.3,0.7,0.4,1.7,0.6,2.7c0.1,1.1,0.2,2.2,0.2,3.5c0,0.1,0,0.1,0.1,0.2c0.1,0,0.1,0.1,0.2,0.1
		c0,0,0.1,0,0.1-0.1c0.1,0,0.1-0.1,0.1-0.1c-0.1-4.9-0.2-8.5-0.2-10.8c0-0.4-0.1-0.6-0.2-0.6c-0.2,0-0.3,0.1-0.3,0.3
		c0,1.5-0.2,2.2-0.4,2.2c-0.1,0-0.3-0.1-0.5-0.4c-0.2-0.3-0.3-0.5-0.5-0.9c-0.2-0.3-0.4-0.6-0.8-0.9c-0.3-0.3-0.7-0.4-1.1-0.4
		c-0.6,0-1.2,0.2-1.6,0.6c-0.5,0.4-0.9,1-1.3,1.9c-0.4,0.9-0.7,2.1-0.9,3.6c-1.5,12.8,6.7,13.4,6.8,23.2c0,2-0.3,3.5-0.8,4.6
		c-0.5,1.1-1.2,1.6-2,1.6c-0.4,0-0.7-0.1-1.1-0.4c-0.4-0.3-0.7-0.7-1.1-1.2c-0.3-0.5-0.7-1.2-0.9-2c-0.3-0.8-0.5-1.7-0.7-2.8
		c-0.1-1.1-0.2-2.4-0.2-3.7c0-0.1-0.1-0.2-0.1-0.3c-0.1-0.1-0.1-0.1-0.2-0.1c-0.1,0-0.1,0-0.2,0.1c-0.1,0-0.1,0.1-0.1,0.2
		c0,1.2,0,3.3,0.1,6.3C142.8,47.5,142.8,49.1,142.8,49.2z"/>
	<path class="st0" d="M141.4,48h-1l-5-34.9c0-0.1-0.1-0.2-0.3-0.2c0,0-0.1,0-0.2,0.1c-0.1,0-0.1,0.1-0.1,0.1L129.8,48h-1
		c-0.1,0-0.1,0.3-0.1,0.7s0.1,0.7,0.1,0.7h2.9c0.1,0,0.1-0.3,0.1-0.7s0-0.7-0.1-0.7h-1.3l1-7.5h4.1l1.1,7.5h-1.4
		c-0.1,0-0.1,0.3-0.1,0.7s0.1,0.7,0.1,0.7h6.1c0.1,0,0.1-0.3,0.1-0.7S141.5,48,141.4,48z M131.7,39.1l1.8-13l1.9,13H131.7z"/>
	<path class="st0" d="M125.9,19.9c-0.4-1.4-0.9-2.6-1.4-3.6c-0.5-1-1.1-1.8-1.7-2.2c-0.6-0.5-1.2-0.7-1.8-0.7h-6.7
		c-0.1,0-0.2,0.2-0.2,0.7c0,0.5,0.1,0.7,0.2,0.7h1.3v33h-1.3c-0.1,0-0.2,0.2-0.2,0.7s0.1,0.7,0.2,0.7h6.7c0.6,0,1.2-0.2,1.8-0.7
		c0.6-0.5,1.2-1.2,1.7-2.2c0.5-1,1-2.2,1.4-3.6c0.4-1.4,0.7-3.1,0.9-5c0.3-2,0.4-4.1,0.4-6.3c0-2.3-0.1-4.4-0.4-6.4
		C126.6,23,126.3,21.3,125.9,19.9z M123.7,33c0,2.1,0,3.9-0.1,5.3c0,1.5-0.1,2.9-0.2,4.1c-0.1,1.3-0.3,2.3-0.5,3
		c-0.2,0.7-0.5,1.3-0.8,1.7c-0.3,0.4-0.7,0.6-1.1,0.6c-1.1,0-1.8,0-2-0.1V14.8h2c0.4,0,0.8,0.2,1.1,0.6c0.3,0.4,0.6,1,0.7,1.8
		c0.2,0.8,0.4,1.8,0.5,3c0.1,1.3,0.2,2.6,0.2,4.1c0.1,1.5,0.1,3.3,0.1,5.4V33z"/>
	<path class="st0" d="M103.8,19.6c-0.4-1.4-0.9-2.7-1.4-3.7c-0.5-1-1.1-1.8-1.7-2.2c-0.6-0.5-1.2-0.7-1.9-0.7
		c-0.6,0-1.2,0.2-1.8,0.7c-0.6,0.5-1.2,1.2-1.7,2.3c-0.5,1-1,2.2-1.4,3.7c-0.4,1.4-0.7,3.1-0.9,5.2c-0.2,2-0.3,4.3-0.3,6.7
		c0,2.4,0.1,4.6,0.3,6.6c0.2,2,0.5,3.7,0.9,5.2c0.4,1.4,0.9,2.6,1.4,3.6c0.5,1,1.1,1.7,1.7,2.2c0.6,0.5,1.2,0.7,1.8,0.7
		s1.2-0.2,1.8-0.7c0.6-0.5,1.2-1.2,1.7-2.2c0.5-1,1-2.2,1.4-3.6c0.4-1.4,0.7-3.1,1-5.2c0.2-2,0.3-4.2,0.3-6.6c0-2.4-0.1-4.6-0.3-6.6
		S104.2,21,103.8,19.6z M101.5,33.5c0,2.1,0,4-0.1,5.4c-0.1,1.5-0.1,2.9-0.2,4.2c-0.1,1.3-0.3,2.3-0.5,3c-0.2,0.8-0.5,1.3-0.7,1.7
		c-0.3,0.4-0.7,0.6-1.1,0.6c-0.4,0-0.8-0.2-1.1-0.6c-0.3-0.4-0.6-1-0.8-1.8s-0.4-1.8-0.5-3c-0.1-1.2-0.2-2.6-0.3-4.2
		c0-1.5-0.1-3.3-0.1-5.4v-4.3c0-2.1,0-4,0.1-5.5c0.1-1.5,0.1-2.9,0.3-4.2c0.1-1.3,0.3-2.3,0.5-3.1s0.5-1.4,0.8-1.8
		c0.3-0.4,0.7-0.6,1.1-0.6c0.4,0,0.7,0.1,1,0.4c0.3,0.3,0.5,0.7,0.7,1.3c0.2,0.6,0.4,1.3,0.5,2.1c0.1,0.8,0.3,1.8,0.3,3
		c0.1,1.2,0.1,2.4,0.2,3.7c0,1.3,0,2.9,0,4.6V33.5z"/>
	<path class="st0" d="M90.4,13.4h-3.2c-0.1,0-0.1,0.2-0.1,0.7c0,0.5,0.1,0.7,0.1,0.7h1.3v19.9l-6.8-21.3h-3.8
		c-0.1,0-0.1,0.2-0.1,0.7c0,0.5,0,0.7,0.1,0.7h1.3v33h-1.3c-0.1,0-0.1,0.2-0.1,0.7s0,0.7,0.1,0.7h3.2c0.1,0,0.1-0.3,0.1-0.7
		s-0.1-0.7-0.1-0.7h-1.4V21.9l8.7,27.3H89V14.8h1.4c0.1,0,0.2-0.2,0.2-0.7C90.5,13.6,90.5,13.4,90.4,13.4z"/>
</g>
</svg>
