<?xml version="1.0" encoding="UTF-8"?>
<!DOCTYPE svg PUBLIC "-//W3C//DTD SVG 1.1//EN" "http://www.w3.org/Graphics/SVG/1.1/DTD/svg11.dtd">
<!-- Creator: CorelDRAW X7 -->
<svg xmlns="http://www.w3.org/2000/svg" xml:space="preserve" width="92.115mm" height="92.115mm" version="1.1" style="shape-rendering:geometricPrecision; text-rendering:geometricPrecision; image-rendering:optimizeQuality; fill-rule:evenodd; clip-rule:evenodd"
viewBox="0 0 9212 9212"
 xmlns:xlink="http://www.w3.org/1999/xlink">
 <defs>
  <style type="text/css">
   <![CDATA[
    .fil0 {fill:none}
    .fil1 {fill:white}
   ]]>
  </style>
 </defs>
 <g id="Слой_x0020_1">
  <metadata id="CorelCorpID_0Corel-Layer"/>
  <rect class="fil0" width="9212" height="9211"/>
  <g id="PRADA_x0020_без_x0020_рамки.cdr">
   <path class="fil1" d="M2949 2973l0 169c0,33 3,53 7,62 5,8 13,15 25,20 12,5 34,8 66,8l0 17 -358 0 0 -17c33,0 55,-3 66,-8 12,-5 20,-12 25,-20 5,-9 7,-29 7,-62l0 -396c0,-33 -2,-53 -7,-62 -5,-9 -13,-15 -25,-20 -12,-6 -34,-8 -66,-8l0 -17 307 0c101,0 173,16 217,47 44,31 66,70 66,117 0,39 -14,73 -42,101 -29,28 -68,48 -118,58 -33,7 -90,11 -170,11zm0 -299l0 264c12,0 20,1 26,1 42,0 75,-11 98,-33 23,-22 34,-55 34,-101 0,-45 -11,-78 -34,-99 -23,-21 -57,-32 -102,-32l-22 0zm645 297l0 171c0,33 2,53 7,62 5,8 13,15 24,20 12,5 34,8 66,8l0 17 -360 0 0 -17c33,0 55,-3 66,-8 12,-5 20,-12 25,-20 4,-9 7,-29 7,-62l0 -396c0,-33 -3,-53 -7,-62 -5,-9 -13,-15 -25,-20 -12,-6 -34,-8 -66,-8l0 -17 327 0c85,0 148,5 187,15 39,11 72,29 97,57 24,27 37,59 37,96 0,45 -19,82 -56,112 -24,18 -57,32 -100,42l169 206c22,27 38,43 47,50 14,9 31,14 49,15l0 17 -221 0 -227 -278 -46 0zm0 -299l0 267 29 0c48,0 84,-4 108,-11 24,-8 43,-22 57,-42 13,-20 20,-46 20,-78 0,-46 -12,-80 -38,-103 -24,-22 -65,-33 -121,-33l-55 0zm927 403l-248 0 -30 59c-10,20 -14,37 -14,49 0,18 8,30 24,38 9,5 32,9 68,11l0 17 -234 0 0 -17c26,-3 46,-12 63,-27 16,-15 36,-46 60,-92l252 -486 9 0 254 499c24,48 44,77 60,90 12,9 28,14 50,16l0 17 -341 0 0 -17 14 0c28,0 47,-3 58,-10 7,-5 11,-12 11,-21 0,-5 -1,-11 -3,-16 -1,-3 -6,-14 -15,-34l-38 -76zm-17 -33l-105 -210 -108 210 213 0zm357 207l0 -17 23 0c20,0 36,-3 47,-8 11,-6 19,-13 24,-23 3,-6 5,-25 5,-57l0 -401c0,-31 -2,-50 -6,-58 -4,-8 -11,-15 -23,-20 -12,-6 -27,-9 -47,-9l-23 0 0 -17 315 0c84,0 151,10 203,30 62,24 110,61 142,110 32,49 49,105 49,167 0,43 -8,82 -24,118 -16,36 -37,66 -62,89 -25,24 -54,43 -88,57 -33,14 -73,25 -121,33 -21,4 -54,6 -99,6l-315 0zm268 -575l0 475c0,26 1,41 4,47 3,5 8,10 14,13 9,4 23,6 41,6 57,0 101,-17 132,-51 41,-46 62,-118 62,-215 0,-78 -14,-140 -42,-187 -23,-37 -52,-61 -87,-75 -25,-9 -66,-13 -124,-13zm927 401l-248 0 -30 59c-10,20 -14,37 -14,49 0,18 8,30 24,38 9,5 32,9 69,11l0 17 -234 0 0 -17c25,-3 46,-12 62,-27 16,-15 36,-46 60,-92l252 -486 10 0 253 499c25,48 44,77 60,90 12,9 28,14 50,16l0 17 -341 0 0 -17 14 0c28,0 47,-3 58,-10 8,-5 12,-12 12,-21 0,-5 -2,-11 -4,-16 0,-3 -6,-14 -15,-34l-38 -76zm-17 -33l-105 -210 -108 210 213 0z"/>
   <path class="fil1" d="M3832 3789l0 -292 86 0 51 199 51 -199 85 0 0 292 -53 0 0 -230 -56 230 -55 0 -56 -230 0 230 -53 0zm585 0l-62 0 -25 -66 -113 0 -23 66 -61 0 110 -292 60 0 114 292zm-105 -115l-39 -109 -39 109 78 0zm135 115l0 -292 120 0c30,0 52,3 66,8 14,5 25,15 33,28 8,14 12,29 12,46 0,22 -6,40 -19,54 -12,15 -31,24 -55,27 12,8 22,16 30,25 8,9 19,25 33,47l34 57 -68 0 -41 -63c-15,-23 -25,-37 -30,-43 -6,-6 -12,-10 -18,-12 -6,-3 -15,-4 -28,-4l-12 0 0 122 -57 0zm57 -168l42 0c28,0 45,-1 52,-4 6,-2 12,-6 16,-12 3,-6 5,-13 5,-22 0,-10 -2,-18 -7,-24 -5,-6 -12,-10 -22,-11 -4,-1 -18,-1 -41,-1l-45 0 0 74zm228 168l0 -292 194 0 0 50 -137 0 0 69 118 0 0 49 -118 0 0 124 -57 0zm496 0l-62 0 -25 -66 -113 0 -23 66 -61 0 110 -292 61 0 113 292zm-105 -115l-39 -109 -38 109 77 0z"/>
   <g>
    <polygon class="fil1" points="5630,4636 5370,4764 5374,4673 4613,4673 4613,4594 5374,4594 5370,4503 "/>
    <path class="fil1" d="M3508 4677l-37 0 0 -116c-13,10 -29,18 -47,23l0 -28c9,-3 20,-8 31,-15 11,-8 19,-16 23,-26l30 0 0 162zm87 -87c-10,-3 -17,-8 -21,-14 -5,-6 -7,-12 -7,-19 0,-12 5,-22 15,-30 10,-8 25,-12 43,-12 18,0 32,4 42,12 11,8 16,18 16,30 0,7 -3,14 -7,20 -5,6 -12,10 -20,13 11,4 19,9 24,16 6,7 9,15 9,24 0,15 -6,27 -17,36 -12,9 -27,14 -45,14 -18,0 -32,-4 -44,-11 -14,-10 -21,-22 -21,-38 0,-9 3,-17 8,-24 5,-7 13,-13 25,-17zm7 -31c0,6 2,11 6,14 5,4 10,5 17,5 7,0 13,-1 17,-5 4,-3 6,-8 6,-14 0,-6 -2,-11 -6,-14 -4,-4 -10,-5 -17,-5 -7,0 -12,1 -17,5 -4,3 -6,8 -6,14zm-3 69c0,9 2,15 8,20 5,5 11,7 19,7 8,0 14,-2 19,-7 5,-4 7,-11 7,-20 0,-7 -2,-13 -7,-18 -5,-4 -12,-7 -20,-7 -9,0 -15,3 -20,8 -4,5 -6,11 -6,17zm112 6l35 -3c2,7 5,13 10,17 5,4 11,6 18,6 7,0 14,-2 19,-7 5,-5 8,-11 8,-20 0,-7 -3,-14 -8,-18 -5,-5 -11,-7 -18,-7 -5,0 -10,1 -17,2l4 -25c10,0 18,-1 23,-5 5,-4 8,-9 8,-16 0,-5 -2,-9 -6,-13 -4,-3 -9,-5 -15,-5 -7,0 -12,2 -16,6 -5,4 -8,9 -8,16l-34 -5c2,-10 5,-17 10,-23 5,-6 12,-11 20,-14 9,-3 18,-5 29,-5 18,0 32,5 43,15 9,8 14,16 14,26 0,15 -9,26 -28,34 11,2 20,7 27,14 6,7 9,15 9,25 0,14 -6,26 -18,36 -12,10 -28,15 -46,15 -17,0 -32,-4 -43,-13 -12,-8 -18,-19 -20,-33zm150 -87l0 -29 126 0 0 22c-10,9 -21,21 -32,37 -10,16 -18,34 -24,52 -6,18 -8,34 -8,48l-36 0c1,-22 6,-45 17,-68 10,-23 24,-44 41,-62l-84 0zm306 130l0 -161 58 0 35 110 34 -110 59 0 0 161 -36 0 0 -127 -38 127 -38 0 -38 -127 0 127 -36 0zm223 0l0 -161 39 0 0 161 -39 0z"/>
   </g>
  </g>
 </g>
</svg>
