<?xml version="1.0" encoding="utf-8"?>
<!-- Generator: Adobe Illustrator 19.1.0, SVG Export Plug-In . SVG Version: 6.00 Build 0)  -->
<svg version="1.1" id="Слой_1" xmlns="http://www.w3.org/2000/svg" xmlns:xlink="http://www.w3.org/1999/xlink" x="0px" y="0px"
	 viewBox="-239 403.5 115.4 35.4" style="enable-background:new -239 403.5 115.4 35.4;" xml:space="preserve">
<style type="text/css">
	.st0{fill:#FFFFFF;}
	.st1{fill:#818181;}
	.st2{fill:url(#SVGID_1_);}
</style>
<g>
	<g>
		<path class="st0" d="M-140.3,428.8c0,0.6,0.3,1.1,0.8,1.3c0.5,0.3,1.2,0.5,2,0.7c0.8,0.2,1.6,0.3,2.6,0.4c0.9,0.1,1.8,0.2,2.6,0.4
			c0.8,0.1,1.4,0.4,2,0.6c0.5,0.3,0.8,0.7,0.8,1.3c0,0.5-0.5,1-1.6,1.5s-2.6,0.7-4.4,0.7c-0.2,0-0.5,0-0.8-0.1c-0.3,0-0.7-0.1-1-0.2
			c-0.3-0.1-0.6-0.2-0.8-0.3c-0.2-0.1-0.3-0.2-0.3-0.4c0-0.8,0.4-1.2,1.1-1.2c0.8,0,1.5,0.2,2.3,0.5c0.8,0.3,1.4,0.5,1.9,0.5
			c0.6,0,1.1-0.1,1.6-0.4s0.7-0.6,0.7-0.9c-0.3-0.3-0.9-0.6-1.8-0.9c-0.8-0.2-1.7-0.4-2.7-0.4c-0.7,0-1.3,0.1-1.8,0.3
			c-0.5,0.2-1,0.4-1.3,0.6c-0.4,0.3-0.6,0.5-0.8,0.8c-0.2,0.3-0.3,0.4-0.3,0.6c0,0.8,0.2,1.5,0.7,2.1c0.4,0.6,1,1,1.6,1.4
			c0.6,0.3,1.3,0.6,2,0.7c0.7,0.1,1.3,0.2,1.9,0.2c0.6,0,1.3-0.2,2-0.5c0.7-0.3,1.4-0.7,1.9-1.2c0.6-0.5,1.1-1,1.5-1.6
			c0.4-0.6,0.6-1.2,0.6-1.8c0-0.7-0.3-1.2-0.8-1.7c-0.5-0.4-1.2-0.8-2-1.1c-0.8-0.3-1.6-0.5-2.6-0.7c-0.9-0.2-1.8-0.4-2.6-0.5
			c-0.8-0.1-1.4-0.3-2-0.4c-0.5-0.1-0.8-0.3-0.8-0.5c0-0.2,0.3-0.3,0.8-0.4c0.5-0.1,1.2-0.2,2-0.3c0.8-0.1,1.7-0.2,2.6-0.3
			c0.9-0.1,1.8-0.3,2.6-0.4c0.8-0.1,1.5-0.4,2-0.6c0.3-0.1,0.5-0.3,0.7-0.5c5.1-0.7,5.1-8.7-0.2-9c-2.4-0.1-4.3,3.1-4.6,4.6
			c-0.3,1.5-0.1,1-0.1,1.5h-0.1c-0.6-0.2-1.2-0.2-1.8-0.2c0.3-0.5,0.5-1,0.6-1.6c0.5-2.5-0.9-5.1-3.2-5.7c-2.3-0.6-4.6,1-5.1,3.5
			s0.9,5.1,3.2,5.7c0.1,0,0.2,0.1,0.4,0.1c-0.6,0.7-0.9,0.6-1.3,2.2c0,0.1-0.1,0.1-0.1,0.2C-140.2,427.8-140.3,428.3-140.3,428.8
			L-140.3,428.8z"/>
		<path class="st0" d="M-153.6,428.8c0,0.6,0.3,1.1,0.8,1.3c0.5,0.3,1.2,0.5,2,0.7c0.8,0.2,1.6,0.3,2.6,0.4c0.9,0.1,1.8,0.2,2.6,0.4
			c0.8,0.1,1.4,0.4,2,0.6c0.5,0.3,0.8,0.7,0.8,1.3c0,0.5-0.5,1-1.6,1.5s-2.6,0.7-4.4,0.7c-0.2,0-0.5,0-0.8-0.1c-0.3,0-0.7-0.1-1-0.2
			c-0.3-0.1-0.6-0.2-0.8-0.3c-0.2-0.1-0.3-0.2-0.3-0.4c0-0.8,0.4-1.2,1.1-1.2c0.8,0,1.5,0.2,2.3,0.5c0.8,0.3,1.4,0.5,1.9,0.5
			c0.6,0,1.1-0.1,1.6-0.4s0.7-0.6,0.7-0.9c-0.3-0.3-0.9-0.6-1.8-0.9c-0.8-0.2-1.7-0.4-2.7-0.4c-0.7,0-1.3,0.1-1.8,0.3
			c-0.5,0.2-1,0.4-1.3,0.6c-0.4,0.3-0.6,0.5-0.8,0.8c-0.2,0.3-0.3,0.4-0.3,0.6c0,0.8,0.2,1.5,0.7,2.1c0.4,0.6,1,1,1.6,1.4
			c0.6,0.3,1.3,0.6,2,0.7c0.7,0.1,1.3,0.2,1.9,0.2s1.3-0.2,2-0.5c0.7-0.3,1.4-0.7,2-1.2s1.1-1,1.5-1.6c0.4-0.6,0.6-1.2,0.6-1.8
			c0-0.7-0.3-1.2-0.8-1.7c-0.5-0.4-1.2-0.8-2-1.1c-0.8-0.3-1.6-0.5-2.6-0.7c-0.9-0.2-1.8-0.4-2.6-0.5c-0.8-0.1-1.4-0.3-2-0.4
			c-0.5-0.1-0.8-0.3-0.8-0.5c0-0.2,0.3-0.3,0.8-0.4c0.5-0.1,1.2-0.2,2-0.3c0.8-0.1,1.7-0.2,2.6-0.3c0.9-0.1,1.8-0.3,2.6-0.4
			c0.8-0.2,1.5-0.4,2-0.6c0.5-0.2,0.8-0.5,0.8-0.9c0-0.1-0.2-0.2-0.5-0.4c-0.3-0.1-0.8-0.2-1.3-0.3s-1-0.2-1.5-0.2s-0.9-0.1-1.3-0.1
			c-1.5,0-2.8,0.1-3.9,0.4c-1.1,0.2-2,0.6-2.6,0.9c-0.7,0.4-1.2,0.8-1.5,1.4C-153.4,427.8-153.6,428.3-153.6,428.8L-153.6,428.8z"/>
		<path class="st0" d="M-163.8,430c0,0.4,0,0.8,0,1.3s0,0.8,0,1c-0.6,1.2-0.9,2.3-0.9,3.2c0,0.4,0,0.8,0.2,1.2
			c0.1,0.4,0.2,0.8,0.5,1.1c0.2,0.3,0.4,0.6,0.7,0.8c0.2,0.2,0.5,0.3,0.8,0.3c0.7,0,1.4-0.1,2.2-0.3c0.8-0.2,1.6-0.4,2.3-0.7
			c0.7-0.3,1.3-0.6,1.8-0.9c0.5-0.3,0.7-0.7,0.7-1c0-0.5-0.1-1-0.4-1.3c-0.3-0.3-0.6-0.5-1.1-0.5c-0.3,0-0.6,0-1.1,0.1
			c-0.4,0.1-0.9,0.2-1.3,0.3c-0.4,0.1-0.9,0.2-1.3,0.3s-0.7,0.1-0.9,0.1c0.3-0.9,0.5-1.5,0.6-1.8c0.1-0.3,0.1-0.5,0.2-0.7l0.4-0.3
			c0.7,0,1.4,0,1.8,0c0.5,0,0.9,0,1.2-0.1c0.3,0,0.5-0.1,0.7-0.1c0.2,0,0.3-0.1,0.5-0.1c0.3-0.2,0.4-0.6,0.4-1.2
			c0-0.3-0.2-0.6-0.5-0.7c-0.3-0.2-0.7-0.3-1.2-0.3h-1.3c-0.4,0-0.7-0.1-0.9-0.3c0.2-0.8,0.4-1.4,0.5-1.7l0.2-0.1c0.1,0,0.3,0,0.7,0
			s0.7,0,1,0c1.3,0,2.3-0.1,2.8-0.3c0.5-0.2,0.8-0.3,0.8-0.5c0-0.7-0.3-1.3-0.8-1.8c-0.5-0.6-1.1-0.8-1.8-0.8
			c-0.9,0-1.8,0.1-2.8,0.1c-0.9,0.1-1.8,0.2-2.5,0.4c-0.7,0.1-1.3,0.3-1.8,0.4s-0.7,0.3-0.7,0.4c0,0.4,0.2,0.8,0.6,1.2
			s0.9,0.6,1.5,0.8l-0.9,2.3c-0.2,0-0.3,0.1-0.5,0.1C-163.5,429.9-163.7,429.9-163.8,430L-163.8,430z"/>
		<path class="st0" d="M-169.3,423.3c-1.2,0-2.4,0.3-3.6,0.9c-1.2,0.6-2.2,1.4-3.1,2.3c-0.9,1-1.6,2.1-2.2,3.3
			c-0.6,1.2-0.8,2.5-0.8,3.7c0,0.8,0.1,1.5,0.4,2.1c0.3,0.6,0.7,1.1,1.2,1.6c0.5,0.4,1.1,0.7,1.7,1c0.6,0.2,1.3,0.3,2.1,0.3
			c2.1,0,3.7-0.2,4.8-0.6s1.7-0.8,1.7-1.5c0-0.7-0.2-1.1-0.5-1.3c-0.3-0.2-0.8-0.3-1.3-0.3c-0.2,0-0.5,0.1-0.8,0.2
			c-0.3,0.1-0.6,0.2-0.9,0.4c-0.3,0.1-0.7,0.3-1,0.4c-0.3,0.1-0.6,0.2-0.9,0.2c-2.4-0.5-3.7-1.4-3.7-2.9c0-0.8,0.2-1.6,0.7-2.3
			c0.5-0.7,1-1.4,1.7-1.9c0.7-0.6,1.4-1,2.1-1.4c0.8-0.4,1.4-0.6,2-0.8c0.5,0.9,1.2,1.3,1.9,1.3c0.6,0,1-0.1,1.2-0.4
			c0.2-0.3,0.3-0.8,0.3-1.4c0-1.2-0.3-1.9-0.9-2.2C-167.6,423.5-168.3,423.3-169.3,423.3L-169.3,423.3z"/>
		<path class="st0" d="M-185.3,423.9c0.2,0.6,0.4,1.3,0.6,2.1c0.2,0.7,0.4,1.5,0.6,2.3c0.2,0.8,0.3,1.6,0.4,2.3
			c0.1,0.8,0.2,1.5,0.2,2.2c0,0.5,0,0.9-0.1,1.4c-0.6-0.8-1.2-1.7-1.7-2.6c-0.5-1-1-1.9-1.5-2.7c-0.5-0.8-0.9-1.5-1.3-2.1
			c-0.4-0.6-0.8-0.8-1.2-0.8c-0.3,0.3-0.5,1-0.8,2c-0.3,1-0.5,2.1-0.8,3.2c-0.2,1.2-0.4,2.3-0.6,3.4s-0.2,1.9-0.2,2.5
			c0,0.4,0.1,0.8,0.3,1.2c0.2,0.3,0.5,0.5,0.9,0.5c0.5,0,0.9-0.3,1.2-0.8c0.3-0.5,0.4-1.1,0.4-1.9c0-0.6,0-1.2,0-1.8
			c0-0.7,0-1.3,0-1.8s0.1-1,0.1-1.4c0.1-0.4,0.1-0.5,0.3-0.5c0.2,0.6,0.6,1.3,1,2.2c0.5,0.9,0.9,1.7,1.4,2.5c0.5,0.8,1,1.5,1.4,2.1
			c0.5,0.6,0.8,0.9,1,0.9c0.6,0,1.1-0.2,1.4-0.5c0.4-0.3,0.7-0.8,0.9-1.3c0.2-0.5,0.4-1.1,0.5-1.8s0.1-1.3,0.1-1.9
			c0-3.8-1.2-7-3.5-9.6c-0.5,0-0.7,0.1-0.8,0.4C-185.3,423.5-185.3,423.7-185.3,423.9L-185.3,423.9z"/>
		<path class="st0" d="M-197.2,425c0,0.3,0,0.8-0.1,1.7c-0.1,0.9-0.1,1.9-0.2,3.1c-0.1,1.2-0.2,2.5-0.2,3.8
			c-0.1,1.3-0.1,2.6-0.1,3.7c0.1,0.4,0.3,0.7,0.6,0.9c0.3,0.2,0.7,0.2,1.1,0.2s0.7-0.1,0.9-0.2c0.2-0.1,0.3-0.4,0.3-0.9
			c0-1,0-2.1-0.1-3.5c0-1.4-0.1-2.7-0.1-3.9c0-1.3-0.1-2.3-0.2-3.3c-0.1-0.9-0.1-1.4-0.1-1.5c-0.5-0.5-1-0.8-1.5-0.8
			c-0.1,0.1-0.1,0.2-0.1,0.3C-197.1,424.9-197.1,425-197.2,425L-197.2,425z"/>
		<path class="st0" d="M-200.8,418c0,0.9,0.3,1.7,0.9,2.6c0,0.1,0,0.2,0,0.3c0,0.1,0,0.2,0,0.3c0,0.7,0.3,1.3,0.8,1.8
			c0.6,0,1-0.3,1.2-1c0.5,0.1,0.9,0.2,1.2,0.2c0.3,0,0.6,0,0.9,0c0.7,0,1.5-0.2,2.4-0.5c0.9-0.4,1.7-0.9,2.5-1.5
			c0.8-0.6,1.4-1.3,2-2.1c0.5-0.8,0.8-1.6,0.8-2.5c0-1.5-0.7-2.4-2.2-2.6c-0.7-1-1.8-1.5-3.2-1.5c-0.8,0-1.6,0.2-2.5,0.5
			s-1.7,0.8-2.4,1.4c-0.7,0.6-1.3,1.3-1.8,2.1C-200.6,416.3-200.8,417.2-200.8,418L-200.8,418z M-198.7,417.9c0.1-1.6,1-2.7,2.7-3.4
			c0.1,0,0.1,0,0.1,0.1L-198.7,417.9z M-196.6,419.5c1.5-2.5,3.4-4.1,5.7-4.7c0.2,0,0.4,0.1,0.6,0.2s0.3,0.4,0.3,0.7
			c-0.5,1.4-1.3,2.3-2.3,2.9s-2.1,0.9-3.2,0.9c-0.2,0-0.3,0-0.5,0C-196.2,419.6-196.4,419.6-196.6,419.5L-196.6,419.5z"/>
		<path class="st0" d="M-212.7,425.6c-0.5,0-0.8,0.2-1.2,0.5c0,0.5,0,1.4,0,2.5c0,1.2-0.1,2.3-0.1,3.6c0,1.2,0,2.4-0.1,3.5
			c0,1.1,0,1.8,0,2.2c0,0.4,0.3,0.6,0.9,0.6c1,0,1.5-0.7,1.5-2c0-0.1,0-0.2,0-0.3c0-0.1,0-0.3,0-0.4c0.3,0.2,0.8,0.4,1.4,0.7
			s1.3,0.6,2,0.9c0.7,0.3,1.4,0.6,2,0.8c0.6,0.2,1.1,0.3,1.4,0.3c0.8,0,1.5,0,2-0.1c0.5,0,0.9-0.1,1.2-0.2c0.3-0.1,0.5-0.2,0.6-0.3
			c0.1-0.1,0.1-0.2,0.1-0.3c0-0.9-0.1-1.6-0.2-1.8c-0.1-0.3-0.3-0.4-0.4-0.4c-0.7,0-1.2,0.1-1.5,0.1c-0.4,0-0.7,0-0.8,0
			s-0.3,0-0.4,0c-0.1,0-0.1,0-0.1,0c-0.7,0-1.5-0.1-2.4-0.4c-0.8-0.3-1.7-0.7-2.6-1.4c1.9-0.9,3.5-2,4.6-3.3c1.1-1.4,1.7-3,1.7-4.9
			c0-1.3-0.3-2.3-0.9-2.9s-1.4-0.9-2.4-0.9c-1.3,0-2.5,0.3-3.5,0.9C-211.1,423.3-212,424.3-212.7,425.6L-212.7,425.6z M-211.8,432.6
			c0.5-4.4,2.2-6.9,5.2-7.2c0.8,0.2,1.2,0.7,1.2,1.5c0,0.8-0.3,1.5-0.8,2.2s-1.1,1.3-1.8,1.8c-0.7,0.5-1.4,0.9-2.1,1.3
			C-210.9,432.5-211.4,432.6-211.8,432.6L-211.8,432.6z"/>
		<path class="st0" d="M-239.1,406.1l0.1,0.6h0.8c0.4,0,0.9,0,1.5-0.1s1.2-0.1,1.8-0.2c0.6-0.1,1.2-0.1,1.7-0.2
			c0.5-0.1,0.9-0.1,1.2-0.1c1.9,0,3.8,0.2,5.7,0.5c1.9,0.4,3.7,0.9,5.3,1.7c1.6,0.8,2.9,1.9,3.9,3.2s1.5,3,1.5,5c0,1-0.3,2-0.8,2.8
			c-0.5,0.8-1.2,1.5-2,2c-0.8,0.5-1.7,0.9-2.6,1.2s-1.8,0.4-2.5,0.4c-0.6,0-1.2,0-1.7-0.1c-0.5-0.1-1-0.1-1.5-0.2v-5.7
			c0.4,0,0.8,0,1.4,0.1c0.6,0.1,1.1,0.1,1.6,0.3c0.5,0.1,1,0.3,1.4,0.5c0.4,0.2,0.6,0.4,0.6,0.7c0,0.2,0,0.4-0.1,0.7
			c1,0,1.5-0.4,1.5-1.3c0-2.4-1.7-3.6-5-3.6c-0.2,0-0.5,0-0.7,0c-0.2,0-0.5,0-0.7,0.1c-0.1-1.3-0.2-2.5-0.5-3.5
			c-0.3-1-0.6-1.6-1-1.6c-0.4,0-0.8,0.2-1,0.6c-0.3,0.4-0.5,0.9-0.6,1.5c-0.1,0.6-0.2,1.2-0.3,1.8s-0.1,1.1-0.1,1.5
			c-1.9,0.4-3.4,0.9-4.4,1.7c-1,0.8-1.5,1.8-1.5,3.1c0,0.8,0.2,1.5,0.6,2.1c0.4,0.6,0.9,1.2,1.6,1.7c0.6,0.5,1.3,0.9,2,1.2
			c0.7,0.3,1.4,0.6,2.1,0.7c0.3,3.9,0.6,7.1,1,9.4c0.4,2.3,0.7,3.5,1.1,3.5c0.6,0,1.2-0.3,1.6-0.9c0.4-0.6,0.7-1.2,0.7-1.8
			c-0.3-2-0.5-3.8-0.6-5.4c-0.1-1.5-0.2-2.6-0.2-3.2v-1l0.8,0.2c4.3,0,7.6-0.7,9.9-2.2c2.3-1.5,3.5-3.9,3.5-7.4c0-2-0.5-3.7-1.6-5.3
			s-2.5-3-4.3-4.1s-3.9-2-6.2-2.6c-2.3-0.6-4.8-0.9-7.4-0.9C-234.9,403.4-237.3,404.3-239.1,406.1L-239.1,406.1z M-229.9,416.9v5.2
			c-0.4-0.1-0.9-0.2-1.4-0.4c-0.5-0.2-1-0.4-1.4-0.7s-0.8-0.6-1.1-1c-0.3-0.4-0.5-0.8-0.5-1.2c0-0.2,0.2-0.5,0.5-0.7
			c0.3-0.2,0.7-0.4,1.1-0.6s0.9-0.3,1.4-0.4S-230.3,416.9-229.9,416.9L-229.9,416.9z"/>
	</g>
	<path class="st1" d="M-138.3,418c0.2,0,0.4,0.2,0.4,0.4c0,0.1,0,0.2-0.1,0.3c0.2-0.1,0.4,0,0.4,0.3c0,0.1,0,0.2,0,0.3
		c0,0.1,0,0.1,0.1,0.2c0.2,0.3,0.4,0.5,0.7,0.8c0.3,0.4,0.7,0.8,1,1.1l0,0c0-1,0-2,0.1-3c0-0.1-0.1-0.1-0.2-0.1
		c-0.1-0.1-0.1-0.2-0.1-0.3s0-0.2,0.1-0.2l0,0c-0.3,0-0.5-0.2-0.5-0.5c0-0.3,0.2-0.5,0.5-0.5c0.3,0,0.5,0.2,0.5,0.5
		c0,0.2-0.1,0.3-0.2,0.4c0.2,0,0.3,0.2,0.3,0.4c0,0.1-0.1,0.2-0.1,0.2s0.1,0.2,0.1,0.3c0.4,0.8,0.9,1.5,1.3,2.3
		c0.3-1.4,0.5-2.8,0.8-4.3c-0.2,0-0.3-0.2-0.3-0.3s0-0.2,0.1-0.3c-0.2-0.1-0.3-0.3-0.3-0.5c0-0.3,0.2-0.5,0.5-0.5
		c0.3,0,0.5,0.2,0.5,0.5c0,0.2-0.1,0.4-0.3,0.5c0.1,0.1,0.2,0.2,0.2,0.3c0,0.2-0.1,0.3-0.3,0.3c0.4,1.4,0.8,2.8,1.2,4.3
		c0.4-0.8,0.7-1.5,1.1-2.3c0,0,0.1-0.2,0.1-0.3c-0.1-0.1-0.1-0.1-0.1-0.2c0-0.2,0.1-0.4,0.3-0.4c-0.1-0.1-0.2-0.3-0.2-0.4
		c0-0.3,0.2-0.5,0.5-0.5c0.3,0,0.5,0.2,0.5,0.5c0,0.3-0.2,0.5-0.5,0.5l0,0c0.1,0.1,0.1,0.1,0.1,0.2s0,0.2-0.1,0.3l-0.2,0.1
		c0.1,1,0.2,2,0.3,3l0,0c0.3-0.4,0.6-0.8,0.9-1.1c0.2-0.2,0.4-0.5,0.6-0.8c0-0.1,0.1-0.1,0.1-0.2c-0.1-0.1-0.1-0.2-0.1-0.3
		c0-0.2,0.2-0.3,0.4-0.3c-0.1-0.1-0.1-0.2-0.1-0.3c0-0.2,0.2-0.4,0.4-0.4c0.2,0,0.4,0.2,0.4,0.4c0,0.2-0.2,0.4-0.4,0.4h-0.1
		c0.1,0.1,0.1,0.2,0,0.3c-0.1,0.1-0.1,0.2-0.3,0.2c-0.1,0-0.1,0-0.1,0.1c-0.1,0.3-0.2,0.5-0.2,0.8c-0.2,0.6-0.4,1.2-0.5,1.8
		c-0.1,0.2-0.1,0.4-0.2,0.6c0,0,0,0.2-0.1,0.2c-2.3,0.3-4.5,0.3-6.9,0l-0.1-0.2c-0.1-0.2-0.2-0.4-0.2-0.6c-0.2-0.6-0.5-1.2-0.7-1.8
		c-0.1-0.3-0.2-0.5-0.3-0.8c0-0.1-0.1,0-0.1-0.1c-0.1,0-0.2-0.1-0.3-0.2s-0.1-0.3,0-0.3h-0.1c-0.2,0-0.4-0.2-0.4-0.4
		C-138.7,418.2-138.5,418-138.3,418L-138.3,418z"/>
	
		<linearGradient id="SVGID_1_" gradientUnits="userSpaceOnUse" x1="-775.8254" y1="1672.0261" x2="-661.8411" y2="1707.2712" gradientTransform="matrix(1 0 0 1 538.6602 -1284.7336)">
		<stop  offset="0" style="stop-color:#E5E2DF"/>
		<stop  offset="0" style="stop-color:#DED9D6"/>
		<stop  offset="6.300000e-002" style="stop-color:#CFCAC9"/>
		<stop  offset="0.1833" style="stop-color:#A8A4A7"/>
		<stop  offset="0.264" style="stop-color:#8B878D"/>
		<stop  offset="0.5225" style="stop-color:#F3F4F4"/>
		<stop  offset="0.5842" style="stop-color:#E5E5E6"/>
		<stop  offset="0.7027" style="stop-color:#C0BEC0"/>
		<stop  offset="0.8647" style="stop-color:#858085"/>
		<stop  offset="0.8764" style="stop-color:#807B80"/>
		<stop  offset="1" style="stop-color:#D1D3D4"/>
		<stop  offset="1" style="stop-color:#A7A9AC"/>
	</linearGradient>
	<path class="st2" d="M-138.3,418.1c0.2,0,0.4,0.2,0.4,0.4c0,0.1,0,0.2-0.1,0.3c0.2,0,0.4,0,0.4,0.3c0,0.1,0,0.2,0,0.3
		c-0.1,0.1,0,0.1,0.1,0.2c0.2,0.2,0.4,0.5,0.6,0.7c0.3,0.4,0.7,0.8,1,1.1l0,0c0-1,0.1-2,0.1-3c0-0.1-0.1-0.1-0.1-0.1
		c-0.1-0.1-0.1-0.2-0.1-0.3s0.1-0.2,0.1-0.2l0,0c-0.3,0-0.5-0.2-0.5-0.5c0-0.3,0.2-0.5,0.5-0.5c0.3,0,0.5,0.2,0.5,0.5
		c0,0.2-0.1,0.3-0.2,0.4c0.2,0,0.3,0.2,0.3,0.4c0,0.1-0.1,0.2-0.1,0.2s0.1,0.2,0.1,0.3c0.5,0.8,0.9,1.5,1.3,2.3
		c0.3-1.4,0.5-2.8,0.8-4.3c-0.2,0-0.3-0.2-0.3-0.3c0-0.1,0-0.2,0.1-0.3c-0.2-0.1-0.3-0.3-0.3-0.5c0-0.3,0.2-0.5,0.5-0.5
		c0.3,0,0.5,0.2,0.5,0.5c0,0.2-0.1,0.4-0.3,0.5c0.1,0.1,0.2,0.2,0.2,0.3c0,0.2-0.1,0.3-0.3,0.3c0.4,1.4,0.8,2.8,1.2,4.3
		c0.4-0.7,0.7-1.5,1.1-2.3c0,0,0.1-0.2,0.1-0.3c-0.1-0.1-0.1-0.1-0.1-0.2c0-0.2,0.1-0.4,0.3-0.4c-0.1-0.1-0.2-0.3-0.2-0.4
		c0-0.3,0.2-0.5,0.5-0.5c0.3,0,0.5,0.2,0.5,0.5c0,0.3-0.2,0.5-0.5,0.5l0,0c0.1,0.1,0.1,0.1,0.1,0.2s0,0.2-0.1,0.3
		c0,0.1-0.1,0.1-0.1,0.1c0.1,1,0.2,2,0.3,3l0,0c0.3-0.4,0.6-0.7,0.9-1.1c0.2-0.3,0.4-0.5,0.6-0.7c0.1-0.1,0.1-0.1,0.1-0.2
		c-0.1-0.1-0.1-0.2-0.1-0.3c0-0.3,0.2-0.3,0.4-0.3c-0.1-0.1-0.1-0.2-0.1-0.3c0-0.3,0.2-0.4,0.4-0.4s0.4,0.2,0.4,0.4
		s-0.2,0.4-0.4,0.4c-0.1,0-0.1,0-0.1,0c0.1,0.1,0.1,0.2,0,0.4c0,0.1-0.1,0.2-0.3,0.2c-0.1,0-0.1,0-0.1,0.1c-0.1,0.3-0.2,0.5-0.3,0.8
		c-0.2,0.6-0.3,1.2-0.5,1.8c-0.1,0.2-0.1,0.4-0.2,0.6l-0.1,0.2c-2.3,0.3-4.5,0.3-6.9,0l-0.1-0.2c-0.1-0.2-0.1-0.4-0.2-0.6
		c-0.2-0.6-0.5-1.2-0.7-1.8c-0.1-0.3-0.2-0.5-0.3-0.8c0-0.1-0.1,0-0.1-0.1c-0.1,0-0.2-0.1-0.3-0.2c-0.1-0.1-0.1-0.3,0-0.4h-0.1
		c-0.2,0-0.4-0.2-0.4-0.4C-138.7,418.3-138.5,418.1-138.3,418.1z"/>
</g>
</svg>
