<?xml version="1.0" encoding="UTF-8"?>
<!DOCTYPE svg PUBLIC "-//W3C//DTD SVG 1.1//EN" "http://www.w3.org/Graphics/SVG/1.1/DTD/svg11.dtd">
<!-- Creator: CorelDRAW X7 -->
<svg xmlns="http://www.w3.org/2000/svg" xml:space="preserve" width="92.115mm" height="92.115mm" version="1.1" style="shape-rendering:geometricPrecision; text-rendering:geometricPrecision; image-rendering:optimizeQuality; fill-rule:evenodd; clip-rule:evenodd"
viewBox="0 0 9212 9212"
 xmlns:xlink="http://www.w3.org/1999/xlink">
 <defs>
  <style type="text/css">
   <![CDATA[
    .fil0 {fill:none}
    .fil1 {fill:white;fill-rule:nonzero}
   ]]>
  </style>
 </defs>
 <g id="Слой_x0020_1">
  <metadata id="CorelCorpID_0Corel-Layer"/>
  <rect class="fil0" width="9212" height="9211"/>
  <g id="квин.cdr">
   <path class="fil1" d="M5776 2901l0 -278 -54 0 0 -42 54 0 0 -34c0,-22 2,-38 6,-48 6,-14 16,-25 31,-34 15,-9 36,-13 62,-13 17,0 36,2 57,5l-9 48c-13,-2 -24,-3 -36,-3 -18,0 -31,3 -39,10 -8,7 -12,20 -12,39l0 30 70 0 0 42 -69 0 0 278 -61 0z"/>
   <path class="fil1" d="M5353 2741c0,-59 18,-103 55,-131 31,-24 69,-36 113,-36 50,0 90,14 122,43 31,29 47,69 47,120 0,41 -7,73 -21,97 -14,23 -34,42 -61,55 -26,13 -55,19 -87,19 -50,0 -91,-14 -122,-43 -31,-29 -46,-70 -46,-124zm62 0c0,41 10,72 30,92 20,21 46,31 76,31 31,0 56,-10 76,-31 20,-20 30,-52 30,-94 0,-39 -10,-69 -30,-89 -20,-21 -45,-31 -76,-31 -30,0 -56,10 -76,30 -20,21 -30,51 -30,92z"/>
   <g>
    <path class="fil1" d="M5437 3595l59 8c3,16 10,28 21,35 15,10 36,15 62,15 28,0 50,-5 66,-15 15,-10 25,-24 31,-42 3,-11 5,-34 4,-69 -26,28 -60,42 -99,42 -50,0 -88,-16 -115,-48 -28,-32 -41,-70 -41,-114 0,-31 6,-59 19,-85 12,-26 30,-46 54,-60 23,-14 51,-21 83,-21 42,0 77,16 105,47l0 -40 56 0 0 277c0,50 -6,85 -17,106 -11,21 -30,37 -54,49 -25,12 -55,18 -91,18 -43,0 -78,-8 -104,-25 -27,-18 -40,-43 -39,-78zm50 -192c0,42 10,72 28,92 19,19 43,28 71,28 28,0 52,-9 71,-28 19,-19 28,-49 28,-90 0,-40 -10,-69 -29,-89 -20,-20 -43,-30 -71,-30 -27,0 -50,10 -69,30 -19,19 -29,48 -29,87z"/>
    <path class="fil1" d="M5063 3569l0 -321 54 0 0 45c27,-34 65,-52 115,-52 22,0 42,4 60,11 18,6 31,16 41,27 9,11 15,24 18,40 3,10 4,28 4,53l0 197 -61 0 0 -195c0,-22 -3,-39 -7,-50 -5,-11 -13,-20 -26,-26 -12,-7 -26,-10 -42,-10 -26,0 -48,7 -67,22 -19,15 -28,43 -28,84l0 175 -61 0z"/>
    <polygon class="fil1" points="4908,3569 4908,3248 4970,3248 4970,3569 "/>
    <polygon class="fil1" points="4908,3188 4908,3126 4970,3126 4970,3188 "/>
    <polygon class="fil1" points="4562,3569 4562,3126 4623,3126 4623,3378 4767,3248 4846,3248 4709,3367 4860,3569 4785,3569 4665,3405 4623,3441 4623,3569 "/>
    <path class="fil1" d="M4450 3451l59 8c-6,36 -23,65 -50,85 -27,21 -60,31 -99,31 -49,0 -89,-14 -119,-43 -30,-28 -45,-69 -45,-122 0,-35 7,-65 20,-91 13,-26 32,-45 59,-58 26,-13 54,-20 85,-20 39,0 71,9 96,27 25,17 41,42 48,74l-59 9c-6,-22 -16,-38 -30,-49 -14,-11 -32,-16 -52,-16 -31,0 -56,9 -75,29 -19,20 -29,51 -29,93 0,43 9,74 28,94 18,19 42,29 72,29 24,0 44,-7 60,-20 16,-13 27,-33 31,-60z"/>
    <path class="fil1" d="M4064 3569l0 -48c-28,36 -66,54 -114,54 -21,0 -41,-3 -59,-10 -19,-8 -32,-17 -41,-28 -9,-11 -16,-24 -19,-40 -3,-11 -4,-28 -4,-51l0 -198 61 0 0 177c0,29 2,48 4,58 4,14 12,25 24,33 13,8 28,12 46,12 19,0 36,-4 52,-12 16,-8 27,-20 34,-34 6,-14 10,-35 10,-63l0 -171 61 0 0 321 -55 0z"/>
    <polygon class="fil1" points="3416,3569 3416,3126 3751,3126 3751,3178 3482,3178 3482,3316 3715,3316 3715,3368 3482,3368 3482,3569 "/>
   </g>
   <g>
    <path class="fil1" d="M4894 4212l0 -442 62 0 0 159c28,-29 64,-44 107,-44 26,0 49,4 69,14 20,9 34,22 42,39 8,16 13,40 13,71l0 203 -61 0 0 -202c0,-28 -7,-47 -20,-60 -13,-12 -32,-18 -56,-18 -18,0 -35,4 -51,12 -15,9 -27,20 -33,34 -7,14 -10,34 -10,59l0 175 -62 0z"/>
    <path class="fil1" d="M4834 4164l9 48c-18,3 -33,5 -46,5 -22,0 -40,-4 -52,-10 -12,-6 -21,-14 -26,-24 -5,-11 -7,-32 -7,-65l0 -184 -45 0 0 -42 45 0 0 -80 61 -32 0 112 61 0 0 42 -61 0 0 187c0,16 1,26 3,30 2,5 6,8 11,11 5,3 12,4 21,4 6,0 15,-1 26,-2z"/>
    <path class="fil1" d="M4352 4335l-7 -50c13,3 25,5 35,5 14,0 24,-2 33,-6 8,-4 14,-10 20,-17 3,-5 10,-19 18,-40 1,-3 3,-8 6,-14l-137 -321 65 0 75 185c10,23 19,48 27,74 7,-25 15,-49 25,-72l77 -187 60 0 -136 326c-14,35 -26,59 -34,72 -11,18 -23,31 -37,40 -14,8 -31,12 -51,12 -11,0 -25,-2 -39,-7z"/>
    <path class="fil1" d="M4123 4212l0 -320 55 0 0 49c14,-23 27,-38 39,-45 11,-8 25,-11 39,-11 20,0 41,6 63,17l-22 50c-15,-7 -30,-11 -45,-11 -13,0 -25,4 -35,11 -11,7 -18,17 -23,29 -7,20 -10,41 -10,64l0 167 -61 0z"/>
    <path class="fil1" d="M3983 4108l63 8c-9,33 -28,58 -55,76 -26,18 -61,27 -102,27 -53,0 -95,-14 -125,-43 -31,-29 -47,-69 -47,-121 0,-54 16,-96 47,-126 31,-29 72,-44 121,-44 48,0 87,14 118,43 30,30 46,71 46,123 0,4 -1,8 -1,15l-268 0c2,35 13,62 33,81 21,18 46,28 76,28 22,0 41,-6 57,-16 16,-11 28,-27 37,-51zm-200 -87l201 0c-3,-27 -10,-47 -23,-60 -19,-21 -45,-32 -75,-32 -28,0 -52,9 -71,25 -19,17 -29,39 -32,67z"/>
    <path class="fil1" d="M3489 4212l-136 -320 66 0 77 192c8,20 16,42 23,64 5,-17 13,-37 22,-61l80 -195 63 0 -136 320 -59 0z"/>
    <polygon class="fil1" points="2937,4212 2937,3770 3296,3770 3296,3822 3003,3822 3003,3958 3277,3958 3277,4010 3003,4010 3003,4160 3307,4160 3307,4212 "/>
    <path class="fil1" d="M5809 4239l59 7c3,16 10,28 21,36 15,10 36,15 62,15 28,0 50,-5 66,-15 15,-10 25,-24 31,-42 3,-11 4,-34 4,-70 -26,28 -60,42 -99,42 -50,0 -88,-16 -115,-47 -28,-32 -41,-70 -41,-115 0,-30 6,-58 18,-84 13,-26 31,-46 54,-60 24,-14 52,-21 84,-21 42,0 77,15 105,46l0 -39 56 0 0 276c0,50 -6,86 -17,107 -11,20 -30,37 -54,49 -25,12 -55,18 -92,18 -42,0 -77,-9 -103,-26 -27,-17 -40,-43 -39,-77zm50 -193c0,42 10,73 28,92 19,19 43,29 71,29 28,0 52,-9 71,-29 19,-19 28,-49 28,-90 0,-39 -10,-68 -29,-88 -20,-20 -43,-30 -71,-30 -27,0 -50,10 -69,29 -19,20 -29,49 -29,87z"/>
    <path class="fil1" d="M5435 4212l0 -320 54 0 0 45c27,-35 65,-52 115,-52 22,0 41,3 60,10 18,7 31,16 40,28 9,11 16,24 19,40 3,10 4,27 4,52l0 197 -61 0 0 -195c0,-22 -3,-38 -7,-49 -5,-11 -14,-20 -26,-26 -12,-7 -26,-10 -42,-10 -26,0 -48,7 -67,22 -19,14 -28,42 -28,83l0 175 -61 0z"/>
    <polygon class="fil1" points="5280,4212 5280,3892 5341,3892 5341,4212 "/>
    <polygon class="fil1" points="5280,3832 5280,3770 5341,3770 5341,3832 "/>
   </g>
   <path class="fil1" d="M4562 2798l63 8c-9,32 -28,58 -55,76 -26,18 -61,27 -102,27 -53,0 -95,-15 -125,-43 -31,-29 -47,-70 -47,-122 0,-53 16,-95 47,-125 31,-30 72,-44 121,-44 48,0 87,14 118,43 30,29 45,70 45,123 0,3 0,8 0,15l-268 0c2,35 13,62 33,80 20,19 46,28 76,28 22,0 41,-5 57,-15 16,-11 28,-28 37,-51zm-200 -87l201 0c-3,-27 -10,-47 -23,-61 -19,-20 -45,-31 -75,-31 -28,0 -52,8 -71,25 -19,17 -30,39 -32,67z"/>
   <path class="fil1" d="M4176 2798l63 8c-9,32 -28,58 -55,76 -26,18 -61,27 -102,27 -53,0 -95,-15 -125,-43 -31,-29 -47,-70 -47,-122 0,-53 16,-95 47,-125 31,-30 72,-44 121,-44 48,0 87,14 118,43 30,29 46,70 46,123 0,3 -1,8 -1,15l-268 0c2,35 13,62 33,80 21,19 46,28 76,28 22,0 41,-5 57,-15 16,-11 28,-28 37,-51zm-200 -87l201 0c-3,-27 -10,-47 -23,-61 -19,-20 -45,-31 -75,-31 -28,0 -52,8 -71,25 -19,17 -29,39 -32,67z"/>
   <path class="fil1" d="M3812 2901l0 -48c-28,37 -66,55 -114,55 -21,0 -40,-4 -59,-11 -18,-7 -32,-16 -41,-27 -9,-11 -15,-25 -19,-40 -2,-11 -3,-28 -3,-51l0 -199 61 0 0 178c0,28 1,47 4,57 3,14 11,26 24,34 12,8 28,12 46,12 18,0 35,-4 51,-13 16,-8 28,-19 34,-34 7,-14 10,-35 10,-62l0 -172 61 0 0 321 -55 0z"/>
   <path class="fil1" d="M3475 2854c31,18 59,32 85,40l-20 41c-36,-11 -71,-29 -107,-54 -36,18 -77,27 -121,27 -45,0 -86,-9 -123,-29 -36,-19 -64,-46 -84,-81 -20,-35 -30,-74 -30,-118 0,-44 10,-83 30,-119 20,-36 48,-63 85,-82 37,-18 78,-28 123,-28 46,0 87,10 124,29 37,20 65,47 84,82 19,35 29,74 29,118 0,36 -6,69 -19,98 -12,29 -31,54 -56,76zm-144 -75c37,9 69,23 93,42 39,-31 58,-78 58,-141 0,-36 -7,-67 -20,-94 -14,-27 -34,-47 -60,-62 -27,-15 -56,-22 -89,-22 -49,0 -89,15 -121,45 -33,29 -49,74 -49,133 0,57 16,102 48,132 32,31 73,46 122,46 24,0 46,-4 67,-11 -21,-12 -43,-21 -65,-26l16 -42z"/>
   <path class="fil1" d="M4685 2901l0 -320 55 0 0 45c26,-35 64,-52 114,-52 22,0 42,4 60,10 18,7 32,17 41,28 9,11 15,24 19,40 2,10 3,27 3,53l0 196 -61 0 0 -194c0,-22 -2,-39 -7,-50 -5,-11 -13,-20 -25,-26 -12,-7 -26,-10 -43,-10 -26,0 -48,7 -67,22 -19,15 -28,43 -28,84l0 174 -61 0z"/>
  </g>
 </g>
</svg>
