<?xml version="1.0" encoding="utf-8"?>
<!-- Generator: Adobe Illustrator 19.1.0, SVG Export Plug-In . SVG Version: 6.00 Build 0)  -->
<svg version="1.1" id="Слой_1" xmlns="http://www.w3.org/2000/svg" xmlns:xlink="http://www.w3.org/1999/xlink" x="0px" y="0px"
	 viewBox="5.8 59.5 136.5 50.7" style="enable-background:new 5.8 59.5 136.5 50.7;" xml:space="preserve">
<style type="text/css">
	.st0{fill:#595959;}
</style>
<g>
	<path class="st0" d="M142.2,86.9c-0.5-0.3-0.7-0.4-0.9,0.3c-0.4,1.4-0.6,3.1-1.9,4.1c-2.5,1.8-6.1-0.6-6.8-3.1
		c-0.6-2.3-0.6-4.5-0.1-6.7c1,0.6,2.1,1.3,3.3,1.2c1.6-0.1,3.1-0.6,4.3-1.6c2.3-1.8,2.4-6-0.2-7.7c-2.9-1.9-6.5,1.3-7.9,3.6
		c-1.7,2.7-2.7,6.2-2.2,9.4c0.5,2.8,2.1,5.3,5.1,6.2c3.2,0.9,6-0.9,7-3.8c0.1-0.2,0.4-0.9,0.4-1.4C142.3,87.1,142.3,87,142.2,86.9z
		 M133.2,79.7c0.1-0.4,0.3-0.9,0.5-1.3c0.8-1.6,1.9-3.8,3.6-4.7c2.5-1.4,3.1,2.1,2.9,3.7c-0.2,2-1.5,3.9-3.6,4.4
		c-1,0.3-2.1-0.1-2.9-0.6S132.9,80.7,133.2,79.7z"/>
	<path class="st0" d="M126.1,76.3c0.3,1.2,0.1,2.6-0.1,3.8c-0.2,1.7-0.4,3.4-0.7,5.1c-0.3,1.9-0.9,4.4,0.3,6.1
		c0.7,1,2.9,1.7,3.9,0.7c0-0.1,0.1-0.1,0.1-0.1c0.4-0.5,0.5-1.2,0.2-1.8c0.2,0.4-2.1,2-2.8,1.1c-0.7-0.8-0.4-2.5-0.3-3.4
		c0.3-3.1,1.4-6.2,1.4-9.4c0-1.1,0-2.5-1-3.3c-1-0.9-2.6-0.6-3.5,0.2c-2,1.7-2.6,4.5-3.1,6.9c0.1-2.1,0.4-5.2-1.3-6.8
		c-2-2-4.5,1.4-5.6,2.7c-0.5-0.9-0.9-1.8-1.4-2.7c-0.2-0.4-0.3-0.8-0.5-1.1c-0.4-0.9-1.5,0.8-1.2,1.1c0.7,0.8,1,2,1.3,3
		c0.5,1.3,0.7,2.1,0.3,3.4c-0.6,2-1.4,3.9-1.8,5.9c-0.3,1.4-0.9,4.2,1.1,4.6c1.8,0.4,2.9-1.4,3.5-2.6c1.5-3.2,0.5-6.7-0.5-9.9
		c-0.3-1-0.1-1.2,0.6-2.1c0.5-0.6,1.1-1.2,1.8-1.6c1.4-0.8,1.7,1.6,1.9,2.4c0.4,2.4,0.3,4.8,0.4,7.2c0,0.6,0.4,2,1.2,0.9
		c0.9-1.1,0.7-3.2,1.1-4.5c0.5-1.7,0.9-3.5,1.9-5C123.9,75.9,125.6,74.4,126.1,76.3z M112.8,90c-1.4,1.8-2.1,0-1.9-1.5
		c0.3-2.4,1.4-5,2.1-7.3c0.2,1,0.4,2.1,0.6,3.1c0,0,0,0.1,0.1,0.3c0,0.1,0,0.2,0,0.2C113.9,86.4,113.8,88.7,112.8,90z"/>
	<path class="st0" d="M129.6,91.9c0,0,0,0.1-0.1,0.1C129.6,92,129.6,91.9,129.6,91.9z"/>
	<path class="st0" d="M113.5,84.3c0,0,0.1,0.4,0.1,0.5c0.1-0.1,0.1-0.1,0-0.2C113.6,84.5,113.6,84.4,113.5,84.3z"/>
	<path class="st0" d="M86,94.5c1-1.9,1-4.6,1.3-6.8c0.6-3.7,1.7-7.5,4.5-10.3c0.6-0.6,1.4-1.3,2.2-0.6c0.6,0.5,0.7,1.3,0.8,2.1
		c0.3,2.3-0.4,4.7-0.6,7c-0.2,1.9-0.1,4,1.4,5.4c1.7,1.5,4.6-0.5,5.2-2.2c0.3-0.7-0.4-0.6-0.8-0.1c-0.5,0.5-1,1.4-1.8,1.4
		c-1.5,0-1.9-2.4-2-3.5c-0.2-2.2,0.3-4.3,0.4-6.5c0.1-1.2,0.1-3.1-0.7-4.1c-0.9-1.3-2.4-1-3.6-0.1c-2.6,2.1-3.9,4.8-4.9,7.8
		c-0.2-0.8,0.1-1.6,0.2-2.4c0.1-1.3,0.3-2.6,0.4-3.8c0.3-2.2,0-6.1,1.6-7.9c1.7-1.8,3.7-3.8,4.7-6.1c0.4-0.9,0.9-2.4,0.3-3.3
		c-0.6-1-2.1-1.1-3.1-0.6c-2.3,1.2-3.2,4.6-3.8,6.8c-0.4,1.3-0.6,2.7-0.7,4c-0.2,0.3-1.4,0.5-0.9,1.1c0.3-0.1,0.5-0.2,0.8-0.3
		c-0.7,4.1-0.9,8.3-1.3,12.4c-0.2,2-0.3,4-0.5,6c-0.1,0.9-0.2,1.9-0.3,2.8C84.7,93.8,85.1,94,86,94.5z M90.2,65.8
		c0.5-1.4,1-3.4,2.2-4.5c0.5-0.4,1.8-0.5,1.8,0.4c-0.1,0.8-0.3,1.6-0.7,2.4c-0.8,1.7-2.1,3.1-3.4,4.5c-0.3,0.3-0.6,0.7-0.9,1
		C89.3,68.3,89.7,67.1,90.2,65.8z"/>
	<path class="st0" d="M84.2,91.3C84.1,91.4,84.1,91.5,84.2,91.3L84.2,91.3z"/>
	<path class="st0" d="M84.2,91.3C84.3,91.2,84.3,91.3,84.2,91.3L84.2,91.3z"/>
	<path class="st0" d="M84.2,91.3c0.6-1,1-1.7,0.8-2.8c-0.9,0.2-0.9,0.2-1.1,1.1c-0.1,0.3-0.2,0.7-0.2,1c-0.1,0.7-0.7,1.4-1.3,1.8
		c-1.4,0.7-2.1-1-2.4-2c-0.5-1.5-0.9-3.1-1-4.7c-0.1-1.3,0.4-2.6,0.7-3.8c0.4-1.5,0.8-3,1.2-4.5c0.2-0.7,0.1-1.6,0.9-1.8
		c0.8-0.2,2,0.1,1.9-0.8c-0.2-1.3-1.2-0.5-2.1-0.3c0.7-1.4,1-3.3,1.4-4.9c0.4-1.6,0.9-3.5,0.7-5.2c-0.2-1.6-1.9-2.4-3.3-1.6
		c-1.4,0.8-2.1,2.6-2.5,4.1c-0.4,1.8-0.7,3.8-0.7,5.7c0,0.9,0.1,1.8,0.1,2.7c0.1,0.7,0,0.5-0.6,0.8c-0.5,0.2-3,0.9-1.6,1.5
		c0.7,0.3,1.5-0.3,2.2-0.5c0.2,2.7,0.5,5.9-0.3,8.5c-0.5,1.8-0.9,3.6-1.7,5.3c-0.3,0.7-0.9,2.9-1.8,3.3c-1.2,0.4-1-2-1-2.6
		c-1,0.5-0.9,2.4-0.2,3c0.9,0.9,2.2-0.4,2.7-1.1c1.3-1.8,2.2-3.8,2.8-5.9c0.4,1.6,0.8,3.8,1.9,5.1C80.8,94,83.4,92.6,84.2,91.3z
		 M78.4,68c0.1-0.7,1.4-6.2,2.9-4.2c1,1.4,0.1,4.2-0.2,5.7c-0.3,1.6-0.8,3.3-1.2,4.9c-0.3,0.6-1.5,0.6-2.1,0.8
		C77.9,72.8,78,70.4,78.4,68z M78,77.8c0-0.2-0.2-1.4,0-1.5c0.5-0.2,1-0.3,1.5-0.5c-0.1,0.3-0.2,0.5-0.3,0.8
		c-0.3,1.4-0.6,2.8-0.9,4.2C78.3,79.7,78.1,78.8,78,77.8z"/>
	<path class="st0" d="M71.9,69.4c0.7-0.6,1.4-1.1,1-2c-0.2-0.3-0.6-1.2-1.1-0.9c-0.7,0.4-0.7,0.4-0.9,1.1
		C70.7,68.5,71,69.1,71.9,69.4z"/>
	<path class="st0" d="M73.4,88.8c0.1-0.2,0.1-0.4,0-0.6c-0.9,0.1-0.6,1.8-1.8,1.7c-0.7-0.1-1-0.6-1.1-1.2c-0.4-2.2-0.1-4.5,0.2-6.6
		c0.2-1.4,0.4-2.7,0.7-4.1c0.1-0.5,0.7-1.6,0.2-2c-1.2-1.1-1.6,0.2-1.8,1.2c-0.7,2.7-0.8,5.4-1,8.1c-0.1,1.3,0.1,2.7,0.7,3.9
		C70.3,91.1,73.1,91.3,73.4,88.8z"/>
	<path class="st0" d="M65.6,89c1.6-1.8,2.1-5.3,2.2-7.7c0.1-0.7,1.1-3.5,0.3-3.9c-1.8-0.7-1.7,1.3-1.8,2.2c-0.1,1.4-0.2,2.7-0.3,4.1
		c-0.1,1.4-0.1,3-0.5,4.4c-0.5,1.5-1.6,0.6-2-0.5c-0.3-1-0.5-2-0.7-3c-0.1-0.8-0.3-1.5-0.4-2.3c-0.1-0.9-0.1-1,0.3-1.8
		c0.5-1,3-6.5,0.5-6.8c-0.9-0.1-1.9,0-2.2,1c-0.2,0.5-0.4,1.1-0.5,1.6c-0.1,1.5-0.1,2.8,0,4.4c0.2,1.2-0.1,1.4-0.6,2.6
		c-0.5,1.1-0.8,2.2-1.1,3.3c-0.5-3.4-2.4-6.4-5-8.8c-0.1-0.1-1.2-1.1-1.4-1c-0.4,0.2-0.8,0.5-1.2,0.7c-0.8,0.5-0.9,1.1,0,1.6
		c2,1.1,3.1,2.4,4.3,4.1c1.2,1.8,1.6,3.6,2.2,5.6c0.4,1.3,0.5,2.7-0.1,4c-0.2,0.4-0.3,0.4-0.1,0.8c0.4,0.7,1-0.1,1.2-0.5
		c0.3-0.7,0.3-1.3,0.4-2c0.3-2.8,0.5-5.8,1.8-8.3c0.2,1.9,0.7,3.7,1.6,5.4C63.1,89.3,64.6,90.4,65.6,89z M62.4,75.1
		c0.4-0.8,1-0.4,1.2,0.3c0.1,0.7-0.1,1.4-0.3,2c-0.3,0.9-0.8,1.8-1.2,2.7C62,78.5,61.7,76.6,62.4,75.1z"/>
	<path class="st0" d="M27.8,88.9c0-0.1,0-0.2,0.1-0.3c0.9,3.2,4.7,1.6,5.8-0.7c1.4-3.2-0.5-6.3-1.2-9.4c-0.4-1.5,0.8-2.5,1.7-3.6
		c0.7-0.8,2.4-2.9,3.7-1.6c1.4,2,1.1,5.6,0.9,8c-0.1,1.6-0.3,3.2,0.3,4.7c0.4,1,1.7,2.1,2.9,1.6c0.1-0.2,0.4-0.6,0.2-0.7
		c-0.6-0.5-0.5,0-1.2-0.2c-1.3-0.3-0.8-2.6-0.7-3.5c0.3-2.6,1-5.4,0.3-8.1c-0.6-2-2.4-4.3-4.8-3.1c-1.8,0.9-2.9,3.1-4.2,4.5
		c-0.4-0.7-1.1-5.9-2.5-5.1c-0.3,0.2-0.7,0.4-1,0.6c0.2,0.4,0.4,0.9,0.6,1.4c0.3,0.6,0.5,1.3,0.7,1.9c0.2,0.9,1.1,2.6,0.8,3.4
		c-1.2,3-3.3,6.2-2.5,9.5c-0.9,0.1-0.5,1.8-1.8,1.7c-0.7-0.1-1-0.6-1.1-1.2c-0.3-2.2-0.1-4.5,0.2-6.6c0.2-1.4,0.4-2.7,0.7-4.1
		c0.1-0.5,0.7-1.6,0.2-2c-1.2-1.1-1.6,0.2-1.8,1.2c-0.7,2.7-0.8,5.4-0.9,8.1c-0.1,1.3,0.1,2.7,0.7,3.9
		C24.8,91.2,27.6,91.3,27.8,88.9z M30.5,79.5c0.5,1.6,1.1,3.3,1.3,5c0,0,0,0.1,0,0.1s0,0.1,0,0.1c0,0.1,0,0.2,0,0.2
		c0,1.3-0.1,3.4-1.3,4.1c-1.8,1-2.3-0.7-2.3-2C28.1,84.4,29.7,81.9,30.5,79.5z"/>
	<path class="st0" d="M26,69.4c0.7-0.6,1.4-1.1,1-2c-0.2-0.3-0.6-1.2-1.1-0.9c-0.7,0.4-0.7,0.4-0.9,1.1C24.8,68.5,25.1,69.1,26,69.4
		z"/>
	<path class="st0" d="M18,60.3c1.2,0.1,2.2,0.7,3.1,1.4c0.2,0.2,1.9,1.8,2.2,1.4c0.5-0.6-3.7-2.9-4.1-3.1c-3.1-1.3-7.1,0-9.8,1.7
		c-3.5,2.2-4.4,6.5-2.8,10c1.7,3.7,4.6,6.8,7.1,10c2.6,3.3,4.8,6.9,5.9,10.9c1,3.6,0.9,7.2-1.1,10.4c-0.5,0.9-0.6,0.9-1.6,0.8
		c-0.4,0-0.8,0-1.2,0c-0.8,0.1-1.5,0.4-2.2,0.6c-1.5,0.5-3.1,1.6-4.1,2.8c-1.3,1.6-0.6,3.1,1.5,3c2.1-0.1,3.9-0.9,5.6-2.1
		c0.7-0.6,1.3-1.2,1.8-1.9c0.6-0.8,0.7-1.5,1.7-1.6c0.2,0,1.4,0.1,1.3-0.2c-0.3-0.7-0.9-0.4-1.6-0.4c1.8-2.2,2.9-5,3.1-7.7
		c0.1-2.6-0.9-4.9-2.1-7.1c-1.4-2.6-3.2-5-5.1-7.2c-1.6-1.8-3.3-3.5-4.5-5.6c-1.3-2.1-2.7-4.8-2.9-7.2c-0.2-2.6,1-4.6,2.9-6.4
		C13,61,15.3,60.1,18,60.3z M14.6,108.1c-0.5,0.4-2.3,1.9-3.1,1.4c-1.1-0.7-0.4-2.4,0.3-3.1c0.8-0.9,2-1.5,3.2-1.8
		c0.8-0.2,1.7-0.1,2.5,0.1C16.9,106,15.7,107.1,14.6,108.1z"/>
	<path class="st0" d="M114.2,100.8c-0.2,0.2-0.3,0.2-0.4,0.2c-0.2,0-0.3-0.3-0.3-0.8c0-0.2,0-0.4,0.1-0.6c0.1-0.2,0.1-0.5,0.2-0.8
		l0.1-0.1h0.5h0.3l0.1-0.5H114l0.6-1.9h-0.7l-0.6,2c-0.1,0-0.2,0-0.3,0.1c-0.1,0-0.1,0.1-0.1,0.1v0.3h0.3l-0.1,0.3
		c-0.1,0.4-0.2,0.7-0.2,0.9c-0.2,0.2-0.3,0.3-0.5,0.5c-0.6,0.4-0.9,0.6-1,0.6c-0.1,0-0.1-0.1-0.1-0.4s0-0.5,0.1-0.9
		c0.1-0.3,0.2-0.8,0.4-1.3l0.1-0.3h-0.7c-0.1,0.5-0.3,0.9-0.4,1.3c-0.1,0.4-0.1,0.8-0.1,1.1c0,0.3,0,0.6,0.1,0.7
		c0.1,0.3,0.2,0.5,0.4,0.5s0.5-0.1,0.9-0.3c0.3-0.2,0.5-0.4,0.7-0.6c0,0.2,0.1,0.4,0.2,0.6c0.1,0.2,0.3,0.3,0.5,0.3
		c0.1,0,0.3-0.1,0.6-0.2c0.3-0.1,0.6-0.4,1-0.8V100C114.8,100.4,114.5,100.6,114.2,100.8z"/>
	<path class="st0" d="M112.1,97.2c0.1-0.1,0.1-0.2,0.1-0.3c0.1-0.1,0.1-0.3,0.1-0.4c0-0.2-0.1-0.3-0.4-0.3c-0.1,0-0.2,0.1-0.3,0.3
		c-0.1,0.1-0.1,0.3-0.1,0.5s0.1,0.2,0.3,0.2C111.9,97.2,112,97.2,112.1,97.2z"/>
	<path class="st0" d="M71.4,101.1c-0.1,0-0.1-0.1-0.1-0.2c0-0.1,0-0.2,0-0.3c0-0.2,0.1-0.3,0.1-0.5l0.4-1.9h-0.7L71,98.8
		c-0.1-0.2-0.3-0.3-0.4-0.4c-0.1-0.1-0.3-0.1-0.5-0.1c-0.4,0-0.8,0.2-1.1,0.7c-0.4,0.5-0.6,1-0.6,1.7c0,0.3,0.1,0.7,0.3,0.9
		c0.2,0.2,0.4,0.4,0.6,0.4c0.2,0,0.3-0.1,0.5-0.2c0.2-0.1,0.4-0.3,0.7-0.7v0.1c0,0.2,0,0.4,0.1,0.5c0.1,0.1,0.2,0.2,0.3,0.2
		c0.4,0,0.9-0.3,1.5-1v-0.7c-0.2,0.2-0.4,0.4-0.6,0.6C71.6,101,71.5,101.1,71.4,101.1z M70.7,100.2c-0.1,0.2-0.3,0.4-0.5,0.6
		c-0.2,0.3-0.4,0.4-0.6,0.4c-0.1,0-0.2-0.1-0.3-0.2c-0.1-0.1-0.1-0.4-0.1-0.6c0-0.4,0.1-0.8,0.3-1.1s0.4-0.5,0.7-0.5
		c0.1,0,0.2,0.1,0.3,0.1c0.1,0.1,0.2,0.2,0.4,0.5L70.7,100.2z"/>
	<path class="st0" d="M134.2,101.1c-0.1,0-0.1-0.1-0.1-0.3c0-0.1,0-0.3,0.1-0.6c0-0.3,0.1-0.5,0.2-0.8l0.3-1.2H134
		c-0.1,0.5-0.3,1.1-0.4,1.6c-0.3,0.4-0.5,0.7-0.8,1c-0.2,0.2-0.4,0.3-0.5,0.3c-0.1,0-0.1,0-0.1-0.1s0-0.2,0-0.4
		c0-0.5,0.2-1.2,0.5-2.4H132c-0.2,0.6-0.3,1-0.4,1.4c-0.1,0.4-0.1,0.7-0.1,1c0,0.8,0.1,1.2,0.5,1.2c0.2,0,0.5-0.1,0.7-0.3
		c0.3-0.2,0.5-0.5,0.8-0.8c0,0.4,0,0.7,0.1,0.9c0.1,0.2,0.2,0.3,0.3,0.3c0.2,0,0.5-0.1,0.7-0.3c0.3-0.1,0.5-0.4,0.9-0.7V100
		c-0.4,0.4-0.6,0.6-0.8,0.8S134.3,101.1,134.2,101.1z"/>
	<path class="st0" d="M130.7,100.4c-0.2,0-0.4-0.1-0.6-0.4c0.1-0.4,0.1-0.7,0.1-1c0-0.1,0-0.1,0-0.2c0-0.1,0-0.2-0.1-0.3h-0.5
		c-0.1,0.1-0.1,0.3-0.2,0.5c0,0.2,0,0.4,0,0.5s0,0.1,0,0.2c0,0.1,0,0.2,0.1,0.3c-0.1,0.3-0.2,0.6-0.4,0.9c-0.2,0.3-0.4,0.4-0.6,0.4
		c-0.3,0-0.5-0.3-0.5-0.8s0.1-0.9,0.3-1.2c0.2-0.3,0.5-0.5,0.9-0.5v-0.5c-0.6,0-1,0.2-1.4,0.7c-0.4,0.4-0.5,1-0.5,1.6
		c0,0.4,0.1,0.7,0.3,0.9s0.5,0.3,0.8,0.3c0.6,0,1.1-0.4,1.5-1.1c0.1,0.1,0.3,0.3,0.4,0.3c0.1,0.1,0.3,0.1,0.4,0.1
		c0.3,0,0.5-0.1,0.7-0.3V100C131.2,100.3,131,100.4,130.7,100.4z"/>
	<path class="st0" d="M99,101.1c0.2-0.3,0.3-0.5,0.4-0.9c0.1-0.3,0.1-0.6,0.1-0.8c0-0.2,0-0.3-0.1-0.5c-0.1-0.1-0.2-0.3-0.3-0.6
		c0.1-0.1,0.2-0.3,0.3-0.4c0.1-0.2,0.2-0.3,0.2-0.4s-0.1-0.1-0.2-0.2H99c-0.2,0-0.3,0.1-0.4,0.3c-0.1,0.2-0.1,0.3-0.1,0.5
		c0,0.1,0,0.1,0.1,0.1c-0.1,0.3-0.3,0.6-0.5,0.9c-0.1,0.2-0.3,0.5-0.6,0.8l-0.1,0.2V100c-0.1,0.1-0.3,0.3-0.7,0.7
		c-0.1,0.1-0.2,0.2-0.3,0.3l0.6-2.9h-0.7l-0.1,0.6c-0.2-0.2-0.3-0.4-0.4-0.5c-0.1-0.1-0.2-0.1-0.4-0.1c-0.4,0-0.8,0.2-1.2,0.7
		c-0.4,0.5-0.5,1-0.5,1.6c0,0.4,0.1,0.7,0.2,0.9c0.2,0.3,0.4,0.4,0.7,0.4c0.1,0,0.3-0.1,0.5-0.2c0.1-0.1,0.3-0.3,0.6-0.5l0.1-0.1
		l-0.1,0.6l-0.2,0.2c-0.4,0.3-0.7,0.5-0.8,0.6c-0.1,0.2-0.2,0.3-0.2,0.5s0.1,0.3,0.2,0.5c0.2,0.1,0.3,0.2,0.6,0.2
		c0.3,0,0.5-0.1,0.7-0.4c0.1-0.3,0.3-0.7,0.4-1.3c0.4-0.3,0.8-0.7,1.2-1c0.3-0.3,0.6-0.7,0.8-0.9c0.2-0.2,0.4-0.5,0.7-1
		c0.1,0.1,0.1,0.2,0.1,0.3c0,0.1,0,0.2,0,0.3c0,0.2-0.1,0.5-0.2,0.9c-0.1,0.4-0.2,0.6-0.3,0.6c-0.1,0-0.1,0-0.3,0
		c-0.1,0-0.2-0.1-0.3-0.1c-0.1,0-0.1,0.1-0.2,0.1c0,0.1-0.1,0.3-0.1,0.5c0,0.1,0,0.2,0.1,0.2c0,0.1,0.1,0.1,0.3,0.1s0.3,0,0.4,0
		c0.1,0,0.2-0.1,0.3-0.1c0.2,0.1,0.3,0.1,0.5,0.1s0.3-0.1,0.6-0.2c0.2-0.1,0.5-0.3,0.9-0.6l0.1-0.1V100c-0.2,0.2-0.4,0.3-0.6,0.5
		C99.6,100.9,99.2,101.1,99,101.1z M95.2,102.8c-0.1,0.1-0.1,0.2-0.2,0.2s-0.1,0-0.1-0.1c0,0-0.1-0.1-0.1-0.2c0-0.1,0.1-0.2,0.2-0.3
		c0.1-0.1,0.2-0.2,0.4-0.3C95.3,102.5,95.3,102.7,95.2,102.8z M95.8,100c-0.1,0.1-0.1,0.1-0.1,0.2l-0.1,0.2
		c-0.1,0.2-0.3,0.3-0.4,0.5c-0.2,0.2-0.3,0.3-0.5,0.3c-0.1,0-0.2-0.1-0.3-0.3c-0.1-0.1-0.1-0.3-0.1-0.6c0-0.5,0.1-0.9,0.4-1.2
		c0.2-0.2,0.4-0.3,0.7-0.3c0.1,0,0.3,0.1,0.4,0.2s0.1,0.2,0.3,0.3L95.8,100z"/>
	<path class="st0" d="M117.8,100.9c0-0.2,0.1-0.5,0.2-1c0.1-0.4,0.2-0.8,0.2-1c0-0.2-0.1-0.4-0.1-0.6c-0.1-0.1-0.2-0.2-0.3-0.2
		c-0.1,0-0.2,0-0.3,0.1c-0.1,0.1-0.3,0.2-0.5,0.3c0.6-0.8,0.9-1.6,0.9-2.2c0-0.2-0.1-0.5-0.2-0.6c-0.1-0.2-0.3-0.3-0.5-0.3
		c-0.4,0-0.7,0.3-1,1c-0.3,0.5-0.5,1.2-0.7,2.1c-0.2,0.7-0.3,1.3-0.3,1.8c0,0,0,0.2,0.1,0.6c0,0.4,0,0.6,0.1,0.6h0.6v-0.8
		c0-0.2,0-0.3,0-0.4c0-0.1,0-0.2,0.1-0.4c0.3-0.4,0.6-0.7,0.9-1c0.3-0.2,0.5-0.3,0.6-0.3c0.1,0,0.1,0.1,0.1,0.2
		c0,0.2-0.1,0.5-0.2,0.9c-0.1,0.4-0.2,0.8-0.2,1s0.1,0.4,0.2,0.6c0.1,0.2,0.2,0.3,0.4,0.3c0.2,0,0.4-0.1,0.7-0.3
		c0.3-0.2,0.5-0.4,0.8-0.7V100c-0.8,0.8-1.2,1.1-1.5,1.1C117.8,101.1,117.8,101,117.8,100.9z M116,99.3c0.1-0.6,0.2-1.3,0.5-2
		c0.2-0.7,0.5-1.1,0.6-1.1c0.1,0,0.2,0.1,0.2,0.3c0,0.3-0.1,0.7-0.3,1.1C116.8,98,116.4,98.6,116,99.3z"/>
	<path class="st0" d="M125.9,100.9l0.6-2.8h-0.7l-0.4,1.5c-0.2,0.3-0.4,0.5-0.6,0.8c-0.3,0.3-0.5,0.5-0.7,0.5
		c-0.1,0-0.2-0.1-0.2-0.5c0-0.3,0.1-0.6,0.1-0.9c0.1-0.4,0.2-0.8,0.4-1.4h-0.7l-0.1,0.3c-0.3,0.9-0.4,1.6-0.4,2c0,0.3,0,0.5,0.1,0.7
		c0.1,0.3,0.2,0.5,0.4,0.5s0.5-0.1,0.7-0.2c0.3-0.1,0.5-0.4,0.7-0.7l-0.1,0.5l-0.2,0.1c-0.8,0.6-1.2,1.1-1.2,1.5
		c0,0.2,0.1,0.3,0.2,0.4c0.2,0.1,0.3,0.2,0.6,0.2s0.5-0.2,0.7-0.5c0.2-0.3,0.3-0.7,0.5-1.3l0.3-0.1c0.3-0.2,0.6-0.4,0.8-0.5
		c0.1-0.1,0.2-0.2,0.3-0.3V100c-0.1,0.1-0.3,0.2-0.5,0.4C126.3,100.7,126.1,100.9,125.9,100.9z M124.8,102.9
		c-0.1,0.1-0.1,0.2-0.3,0.2s-0.3-0.1-0.3-0.2c0-0.2,0.2-0.4,0.7-0.8l0.1,0.1C124.9,102.5,124.9,102.8,124.8,102.9z"/>
	<path class="st0" d="M31.6,100.6c-0.1,0-0.2-0.1-0.3-0.1c-0.1-0.1-0.2-0.2-0.4-0.4c0.1-0.4,0.2-0.7,0.3-1c0.1-0.3,0.1-0.5,0.1-0.7
		c0-0.1-0.1-0.2-0.1-0.2c-0.1,0-0.2,0-0.3,0c-0.1,0-0.2,0.1-0.2,0.1c-0.1,0.1-0.1,0.3-0.2,0.5c-0.1,0.3-0.1,0.5-0.1,0.8
		c0,0.1,0,0.1,0,0.2c0,0.1,0,0.1,0,0.2c-0.1,0.3-0.3,0.6-0.5,0.8c-0.2,0.2-0.3,0.3-0.5,0.3c-0.1,0-0.1-0.1-0.2-0.2
		c0-0.1-0.1-0.3-0.1-0.5c0-0.3,0-0.6,0.1-1c0.1-0.4,0.2-0.9,0.4-1.4L29,98.3c-0.1,0.5-0.3,0.9-0.3,1c-0.1,0.2-0.1,0.4-0.1,0.7
		c-0.2,0.4-0.4,0.7-0.6,0.9c-0.2,0.1-0.3,0.2-0.4,0.2c-0.1,0-0.2-0.1-0.2-0.5c0-0.6,0.2-1.4,0.5-2.4l-0.7,0.1
		c-0.1,0.4-0.3,0.8-0.3,1.2c-0.1,0.4-0.1,0.8-0.1,1.1c0,0.8,0.2,1.2,0.5,1.2c0.4,0,0.9-0.3,1.3-1c0,0.3,0.1,0.6,0.3,0.8
		c0.2,0.2,0.3,0.3,0.5,0.3c0.3,0,0.5-0.1,0.7-0.3c0.2-0.2,0.5-0.5,0.7-0.9c0.3,0.4,0.6,0.5,0.9,0.5c0.1,0,0.2,0,0.3-0.1
		c0.1-0.1,0.2-0.1,0.3-0.2v-0.8c-0.1,0.2-0.3,0.3-0.3,0.4C31.9,100.5,31.8,100.6,31.6,100.6z"/>
	<path class="st0" d="M109.8,100.5c-0.1,0-0.2,0-0.3-0.1c-0.1-0.1-0.2-0.2-0.3-0.4c0.1-0.4,0.2-0.7,0.2-0.9c0.1-0.3,0.1-0.5,0.1-0.7
		c0-0.1,0-0.2-0.1-0.2c-0.1,0-0.2,0-0.3,0.1c-0.1,0-0.2,0.1-0.2,0.1c-0.1,0.1-0.1,0.3-0.2,0.5c-0.1,0.3-0.1,0.5-0.1,0.8
		c0,0.1,0,0.1,0,0.2c0,0.1,0,0.2,0.1,0.3c-0.1,0.3-0.3,0.6-0.5,0.8s-0.3,0.3-0.5,0.3c-0.1,0-0.2-0.1-0.2-0.2
		c-0.1-0.1-0.1-0.3-0.1-0.5c0-0.3,0.1-0.6,0.1-1c0.1-0.4,0.2-0.9,0.4-1.4l-0.7,0.1c-0.1,0.5-0.2,0.8-0.3,1c-0.1,0.2-0.1,0.4-0.1,0.7
		c-0.2,0.4-0.4,0.7-0.6,0.9c-0.1,0.2-0.3,0.3-0.4,0.3s-0.2-0.2-0.2-0.5c0-0.6,0.2-1.4,0.5-2.4l-0.7,0.1c-0.2,0.4-0.3,0.8-0.4,1.2
		c-0.1,0.4-0.1,0.8-0.1,1.1c0,0.8,0.2,1.2,0.5,1.2c0.4,0,0.9-0.4,1.3-1c0.1,0.3,0.1,0.6,0.3,0.8c0.1,0.2,0.3,0.3,0.5,0.3
		s0.5-0.1,0.7-0.3c0.3-0.2,0.5-0.5,0.7-0.9c0.3,0.3,0.6,0.5,0.9,0.5c0.1,0,0.2,0,0.3-0.1c0.1-0.1,0.2-0.1,0.3-0.2v-1
		c-0.1,0.2-0.2,0.3-0.3,0.4C110,100.5,109.9,100.5,109.8,100.5z"/>
	<path class="st0" d="M59.7,100.1c0.1-0.3,0.1-0.7,0.1-1c0-0.1,0-0.1,0-0.2c0-0.1,0-0.2,0-0.3h-0.6c-0.1,0.1-0.1,0.3-0.1,0.5
		c0,0.2-0.1,0.4-0.1,0.5c0,0.1,0,0.1,0,0.2c0,0.1,0,0.1,0.1,0.3c-0.1,0.3-0.2,0.6-0.4,0.9s-0.4,0.4-0.6,0.4c-0.3,0-0.5-0.3-0.5-0.8
		s0.1-0.9,0.3-1.2c0.2-0.3,0.5-0.5,0.9-0.5l0.1-0.5c-0.6,0-1,0.2-1.4,0.7c-0.3,0.4-0.5,1-0.5,1.6c0,0.4,0.1,0.7,0.3,1
		c0.2,0.2,0.4,0.3,0.8,0.3c0.6,0,1.1-0.4,1.5-1.2c0.1,0.2,0.3,0.3,0.4,0.3c0.1,0.1,0.3,0.1,0.4,0.1c0.3,0,0.5-0.1,0.7-0.2v-0.8
		c-0.3,0.2-0.5,0.3-0.7,0.3C60.2,100.5,60,100.4,59.7,100.1z"/>
	<path class="st0" d="M88.1,101.1c-0.1,0-0.1-0.1-0.1-0.4c0-0.2,0-0.5,0.1-0.9c0.1-0.3,0.2-0.8,0.3-1.3l0.1-0.3h-0.7
		c-0.2,0.5-0.3,0.9-0.4,1.3c-0.1,0.2-0.1,0.4-0.1,0.6c-0.7,0.7-1.1,1-1.3,1c-0.1,0-0.1-0.1-0.1-0.2c0-0.2,0.1-0.5,0.2-1
		c0.1-0.5,0.2-0.8,0.2-1c0-0.3-0.1-0.4-0.1-0.6c-0.1-0.1-0.2-0.2-0.3-0.2c-0.1,0-0.2,0-0.3,0.1c-0.1,0.1-0.3,0.2-0.5,0.3
		c0.6-0.9,0.9-1.6,0.9-2.2c0-0.3-0.1-0.5-0.2-0.6c-0.1-0.1-0.3-0.2-0.5-0.2c-0.4,0-0.7,0.3-1,1c-0.3,0.6-0.5,1.3-0.7,2.1
		c-0.2,0.8-0.3,1.4-0.3,1.8c0,0,0,0.2,0.1,0.6c0,0.4,0,0.6,0,0.6h0.7v-0.8c0-0.2,0-0.3,0-0.4c0-0.1,0-0.2,0.1-0.4
		c0.3-0.4,0.6-0.8,0.9-1s0.5-0.3,0.6-0.3c0.1,0,0.1,0.1,0.1,0.2c0,0.2-0.1,0.5-0.2,0.9c-0.1,0.5-0.2,0.8-0.2,1s0,0.4,0.1,0.6
		c0.1,0.2,0.3,0.2,0.4,0.2c0.2,0,0.4-0.1,0.7-0.3c0.3-0.2,0.5-0.4,0.7-0.6c0,0.3,0,0.5,0,0.6c0.1,0.3,0.2,0.5,0.4,0.5
		c0.3,0,0.5-0.1,0.9-0.3c0.3-0.2,0.5-0.4,0.8-0.7V100c-0.2,0.2-0.3,0.3-0.5,0.5C88.5,100.9,88.3,101.1,88.1,101.1z M84.1,99.3
		c0.1-0.6,0.2-1.3,0.5-2c0.2-0.7,0.5-1.1,0.6-1.1c0.1,0,0.2,0.1,0.2,0.3c0,0.3-0.1,0.7-0.3,1.1C84.8,98.1,84.5,98.7,84.1,99.3z"/>
	<path class="st0" d="M82.3,100.9c-0.2,0.1-0.3,0.2-0.4,0.2c-0.2,0-0.3-0.3-0.3-0.8c0-0.2,0-0.4,0.1-0.6c0.1-0.3,0.1-0.5,0.2-0.8
		l0.1-0.2h0.5h0.3l0.1-0.5h-0.8l0.6-1.9H82l-0.6,2c-0.1,0-0.2,0-0.3,0.1c-0.1,0-0.1,0-0.1,0.1v0.3l0.3-0.1L81.2,99
		c-0.1,0.4-0.2,0.7-0.2,0.9c0,0.2-0.1,0.4-0.1,0.6c0,0.4,0.1,0.7,0.2,0.9c0.1,0.3,0.3,0.4,0.5,0.4c0.1,0,0.3-0.1,0.6-0.2
		c0.3-0.2,0.6-0.4,1-0.8V100C82.8,100.4,82.6,100.7,82.3,100.9z"/>
	<path class="st0" d="M75.5,101.1L75.5,101.1c-0.1-0.2-0.1-0.4,0-0.6c0.1-0.3,0.1-0.6,0.2-1l0.9-3.6h-0.7l-0.7,3
		c-0.1-0.2-0.3-0.3-0.4-0.4c-0.1-0.1-0.3-0.1-0.4-0.1c-0.4,0-0.8,0.2-1.1,0.7c-0.4,0.5-0.5,1-0.5,1.7c0,0.4,0.1,0.7,0.3,0.9
		c0.2,0.3,0.4,0.4,0.6,0.4c0.3,0,0.7-0.3,1.1-0.9c0,0.3,0,0.5,0.1,0.6c0.1,0.2,0.2,0.3,0.4,0.3c0.2,0,0.4-0.1,0.6-0.2
		c0.2-0.1,0.5-0.4,0.9-0.8v-0.7c-0.5,0-0.8,0.3-1,0.5C75.6,101,75.5,101.1,75.5,101.1z M74.8,100.2c-0.5,0.7-0.8,1-1,1
		c-0.1,0-0.2-0.1-0.3-0.2c-0.1-0.2-0.1-0.4-0.1-0.6c0-0.4,0.1-0.8,0.3-1.1s0.5-0.5,0.7-0.5c0.1,0,0.2,0,0.3,0.1
		c0.1,0.1,0.2,0.2,0.4,0.5L74.8,100.2z"/>
	<path class="st0" d="M68.2,100.3c-0.1,0.1-0.1,0.1-0.2,0.1s-0.2-0.1-0.3-0.4c0.1-0.3,0.1-0.5,0.2-0.6c0.1-0.3,0.1-0.5,0.1-0.6
		c0-0.2-0.1-0.3-0.3-0.3s-0.3,0.1-0.4,0.4c-0.1,0.3-0.1,0.6-0.1,1.1c-0.1,0.3-0.3,0.7-0.5,0.9c-0.2,0.3-0.4,0.4-0.6,0.4
		c-0.1,0-0.2-0.2-0.2-0.5v-0.6c0.6-0.8,1.1-1.5,1.4-2.1c0.3-0.6,0.5-1.1,0.5-1.5c0-0.2-0.1-0.4-0.2-0.6c-0.1-0.1-0.2-0.2-0.4-0.2
		c-0.4,0-0.7,0.3-1.1,1c-0.3,0.5-0.5,1.2-0.7,2.2c-0.1,0.7-0.2,1.3-0.2,1.7s0,0.7,0.1,0.9c0.1,0.2,0.2,0.3,0.5,0.3
		c0.3,0,0.6-0.1,0.9-0.4c0.3-0.2,0.5-0.5,0.7-0.9c0.1,0.3,0.3,0.5,0.6,0.5c0.1,0,0.3-0.1,0.4-0.2v-0.2v-0.6
		C68.3,100.2,68.3,100.2,68.2,100.3z M66.6,97.1c0.2-0.5,0.4-0.8,0.5-0.8c0.1,0,0.1,0.1,0.1,0.3c0,0.3-0.1,0.7-0.3,1.2
		c-0.2,0.5-0.5,0.9-0.8,1.4C66.2,98.4,66.4,97.7,66.6,97.1z"/>
	<path class="st0" d="M55.7,101.1c-0.1,0-0.1-0.1-0.1-0.2c0-0.1,0-0.3,0.1-0.5c0.1-0.3,0.1-0.6,0.2-1l0.9-3.6H56l-0.7,3
		c-0.1-0.2-0.3-0.4-0.4-0.5c-0.1-0.1-0.3-0.1-0.4-0.1c-0.4,0-0.7,0.2-1.1,0.6c-0.4,0.5-0.6,1-0.6,1.7c0,0.4,0.1,0.7,0.3,0.9
		c0.2,0.3,0.4,0.4,0.6,0.4c0.3,0,0.7-0.3,1.2-0.8c0,0.3,0,0.4,0.1,0.5c0.1,0.2,0.2,0.3,0.3,0.3c0.2,0,0.4-0.1,0.7-0.2
		c0.2-0.1,0.5-0.4,0.9-0.7v-0.8c-0.4,0.3-0.7,0.6-0.9,0.8C55.9,101,55.7,101.1,55.7,101.1z M55,100.2c-0.5,0.7-0.9,1-1.1,1
		c-0.1,0-0.2-0.1-0.3-0.3c-0.1-0.1-0.1-0.4-0.1-0.6c0-0.4,0.1-0.8,0.3-1.1s0.4-0.5,0.7-0.5c0.1,0,0.2,0.1,0.3,0.1
		c0.1,0.1,0.2,0.2,0.3,0.4L55,100.2z"/>
	<path class="st0" d="M92.1,101.2c-0.1,0-0.1-0.1-0.1-0.3c0-0.2,0-0.5,0.1-0.7c0.2-0.6,0.3-1,0.3-1.2s0-0.4-0.1-0.6
		c-0.1-0.1-0.2-0.2-0.3-0.2c-0.2,0-0.4,0.1-0.6,0.3c-0.3,0.2-0.6,0.5-1,0.9c0.1-0.2,0.1-0.4,0.2-0.6c0.1-0.2,0.1-0.4,0.2-0.6H90
		c-0.3,1-0.5,1.8-0.5,2.3v0.8c0,0.1,0,0.3,0,0.5h0.7v-0.2v-0.7c0-0.1,0-0.1,0-0.2c0,0,0-0.1,0-0.2s0-0.2,0-0.3l0.1-0.1
		c0.8-0.8,1.2-1.2,1.4-1.2c0.1,0,0.1,0.1,0.1,0.3c0,0.1-0.1,0.5-0.3,1.1c-0.1,0.3-0.1,0.5-0.1,0.7c0,0.3,0.1,0.5,0.2,0.6
		c0.1,0.1,0.2,0.2,0.4,0.2s0.4-0.1,0.6-0.2c0.2-0.1,0.5-0.3,0.8-0.6l0.2-0.2V100c-0.4,0.4-0.7,0.6-1,0.9
		C92.4,101.1,92.2,101.2,92.1,101.2z"/>
	<path class="st0" d="M39.6,100.9c-0.2,0.2-0.4,0.3-0.5,0.3c-0.1,0-0.1-0.1-0.1-0.3c0-0.2,0.1-0.5,0.1-0.7c0.2-0.6,0.3-1,0.3-1.2
		s-0.1-0.4-0.1-0.6c-0.1-0.1-0.2-0.2-0.4-0.2s-0.4,0.1-0.6,0.3c-0.2,0.2-0.6,0.5-1,0.9c0.1-0.2,0.1-0.4,0.1-0.6
		c0.1-0.2,0.1-0.4,0.2-0.6H37c-0.3,1-0.5,1.8-0.5,2.3V100c-0.4,0.4-0.6,0.6-0.8,0.8s-0.3,0.3-0.5,0.3c-0.1,0-0.1-0.1-0.1-0.2
		c0-0.1,0-0.2,0.1-0.3c0-0.2,0.1-0.3,0.1-0.5l0.4-1.9H35l-0.1,0.5c-0.1-0.2-0.2-0.3-0.4-0.4c-0.1-0.1-0.3-0.1-0.5-0.1
		c-0.4,0-0.8,0.2-1.1,0.7c-0.4,0.5-0.5,1-0.5,1.7c0,0.3,0.1,0.6,0.3,0.9s0.4,0.4,0.7,0.4c0.1,0,0.3-0.1,0.5-0.2
		c0.2-0.1,0.4-0.3,0.7-0.7v0.1c0,0.2,0,0.3,0.1,0.5c0.1,0.2,0.2,0.2,0.3,0.2c0.3,0,0.9-0.3,1.5-1v0.5c0,0.1,0,0.3,0,0.5h0.7v-0.2
		v-0.7c0-0.1,0-0.1,0-0.2c0,0,0-0.1,0-0.2s0-0.2,0-0.3l0.1-0.1c0.8-0.8,1.2-1.2,1.3-1.2c0.1,0,0.1,0.1,0.1,0.3
		c0,0.1-0.1,0.5-0.3,1.1c-0.1,0.3-0.1,0.5-0.1,0.7c0,0.3,0.1,0.5,0.1,0.6c0.1,0.1,0.2,0.2,0.4,0.2s0.4-0.1,0.6-0.2
		c0.2-0.1,0.5-0.3,0.8-0.6l0.2-0.2V100C40.2,100.4,39.9,100.7,39.6,100.9z M34.6,100.2c-0.2,0.2-0.3,0.4-0.5,0.6
		c-0.2,0.3-0.4,0.4-0.6,0.4c-0.1,0-0.2-0.1-0.3-0.2c-0.1-0.2-0.1-0.4-0.1-0.6c0-0.4,0.1-0.8,0.3-1.1c0.2-0.3,0.5-0.5,0.7-0.5
		c0.1,0,0.2,0,0.3,0.1c0.1,0.1,0.2,0.2,0.4,0.5L34.6,100.2z"/>
	<path class="st0" d="M47.5,101.1c-0.1,0-0.1-0.1-0.1-0.2c0-0.1,0-0.2,0-0.3c0-0.2,0.1-0.3,0.1-0.5l0.4-1.9h-0.7l-0.1,0.6
		c-0.1-0.2-0.3-0.3-0.4-0.4c-0.1-0.1-0.3-0.1-0.5-0.1c-0.4,0-0.8,0.2-1.1,0.7c-0.3,0.3-0.4,0.6-0.5,1c-0.4,0.4-0.6,0.7-0.9,0.9
		c-0.2,0.2-0.4,0.3-0.5,0.3c-0.1,0-0.1-0.1-0.1-0.3c0-0.2,0-0.5,0.1-0.7c0.2-0.6,0.3-1,0.3-1.2c0-0.3-0.1-0.4-0.1-0.6
		c-0.1-0.1-0.2-0.2-0.4-0.2s-0.4,0.1-0.6,0.3c-0.3,0.2-0.6,0.5-1,0.9c0.1-0.2,0.1-0.4,0.2-0.6c0-0.2,0.1-0.4,0.2-0.6h-0.7
		c-0.3,1-0.5,1.8-0.5,2.3v0.8c0,0.1,0,0.3,0,0.5h0.7v-0.2v-0.7c0-0.1,0-0.1,0-0.2c0,0,0-0.1,0-0.2s0-0.2,0-0.3l0.1-0.1
		c0.8-0.8,1.2-1.2,1.4-1.2c0.1,0,0.1,0.1,0.1,0.3c0,0.1-0.1,0.5-0.3,1.1c-0.1,0.3-0.1,0.5-0.1,0.7c0,0.3,0.1,0.5,0.1,0.6
		c0.1,0.1,0.3,0.2,0.4,0.2c0.2,0,0.4-0.1,0.6-0.2c0.2-0.1,0.5-0.3,0.8-0.6l0.1-0.1c0,0.3,0.1,0.6,0.3,0.7c0.2,0.3,0.4,0.4,0.6,0.4
		s0.3-0.1,0.5-0.2c0.2-0.1,0.4-0.3,0.7-0.7v0.2c0,0.2,0,0.3,0.1,0.5s0.2,0.2,0.3,0.2c0.4,0,0.9-0.3,1.5-0.9v-0.8
		c-0.3,0.3-0.5,0.5-0.7,0.7C47.7,101,47.5,101.1,47.5,101.1z M46.8,100.2c-0.1,0.2-0.3,0.4-0.5,0.6c-0.2,0.3-0.4,0.4-0.6,0.4
		c-0.1,0-0.2-0.1-0.3-0.2c-0.1-0.2-0.1-0.4-0.1-0.6c0-0.4,0.1-0.8,0.3-1.1c0.2-0.3,0.5-0.5,0.7-0.5c0.1,0,0.2,0,0.3,0.1
		c0.1,0.1,0.2,0.2,0.4,0.4L46.8,100.2z"/>
	<path class="st0" d="M88.4,96.5c-0.1,0.2-0.1,0.3-0.1,0.6c0,0.1,0.1,0.2,0.3,0.2c0,0,0.1-0.1,0.2-0.1c0.1-0.1,0.1-0.2,0.2-0.3
		c0-0.1,0.1-0.3,0.1-0.3c0-0.2-0.1-0.3-0.4-0.3C88.6,96.3,88.5,96.4,88.4,96.5z"/>
</g>
</svg>
