<?xml version="1.0" encoding="utf-8"?>
<!-- Generator: Adobe Illustrator 19.1.0, SVG Export Plug-In . SVG Version: 6.00 Build 0)  -->
<svg version="1.1" id="Слой_1" xmlns="http://www.w3.org/2000/svg" xmlns:xlink="http://www.w3.org/1999/xlink" x="0px" y="0px"
	 viewBox="-65 52.2 124.9 37.5" style="enable-background:new -65 52.2 124.9 37.5;" xml:space="preserve">
<style type="text/css">
	.st0{fill:#595959;}
</style>
<g>
	<path class="st0" d="M55.2,66.9c0,0-0.8,3.7-1.9,5.6c-0.3,0.5-0.7,0.9-1,1.1c-0.2,0.1-0.4,0.2-0.7,0.2c-0.2,0-0.3,0-0.5-0.1
		c-0.2-0.1-0.3-0.2-0.4-0.4C50,72.2,50.5,68,50.5,68c0.1-0.8-1.3-1-1.5-0.3c0,0-1,4.1-1.9,6c-0.5,1-1.6,1.4-2.7,1.4
		c-0.2,0-0.5,0-0.7,0c-0.3,0-0.5-0.1-0.8-0.1c-0.4-0.1-0.8-0.4-1.1-0.8c0.7,0.1,1.4,0.1,2.1-0.2c1-0.5,1.5-1.2,1.6-2.2
		c0.1-0.8-0.2-1.8-0.7-3.1c-1.4-3.9-2.6-5.4-3.4-2.8c-0.1,1-1.2,4.2-2.6,6.5c-0.3,0.4-0.5,0.9-0.8,1.2c-0.3,0.3-0.5,0.6-0.8,0.8
		c-1.4,1-1.8,0.8-2.7,0.3c-0.3-0.1-0.5-0.3-0.8-0.4c-0.2-0.1-0.4-0.2-0.5-0.3c0.3-0.1,0.7-0.1,1.1-0.3c2.2-0.8,1.9-1.8,1.4-3.9
		c-0.1-0.3-0.2-0.7-0.3-1.2c-0.6-2.8-1.3-3.3-1.3-3.3c-0.4-0.3-1-0.1-1.2,0.3c0,0-1.6,4.5-2.6,6.2c-0.4,0.8-0.9,1.3-1.4,1.7
		s-1.2,0.6-2,0.7c-0.9,0.2-1.1,0.1-1.2-0.1c-0.1-0.2-0.1-0.5-0.1-0.7c0-0.1,0-0.1,0-0.1c0-0.3,0.1-0.5,0.1-0.8
		c0.3-0.9,0.6-2.1,0.7-3c0.1-0.7,0.2-1.6-0.3-2.4c-0.5-0.9-1.6-1.4-3.5-1c-3.1,0.6-3.3,4-3.3,5.2c-1,0.9-4.5,3.7-6.3,3.2
		c-1.2-0.3-1.7-0.9-2-2.3c1.4-1.4,2.7-3,3.8-4.8c1.6-2.6,2.6-5.7,2.5-9.2c0-1-0.3-2-0.7-2.7c-0.3-0.4-0.6-0.8-1-0.9
		c-0.4-0.2-0.9-0.2-1.5,0.1c-0.5,0.3-1.1,0.8-1.8,1.7c-0.3,0.5-0.6,1-0.9,1.4c-0.3,0.4-0.5,1-0.8,1.6c-1.3,2.8-2.1,6-1.7,9.5
		C9,69.3,9,69.4,9,69.6c0.1,0.8,0.2,1.5,0.3,2.2c-0.4,0.4-0.8,0.7-1.2,1C3.9,76.3-3,78-8.2,76.7c-1-0.2-1.9-0.6-2.7-1
		c-0.8-0.5-1.5-1-2.1-1.7c-0.4-0.5-0.7-1-0.9-1.5c-0.7-1.9-0.5-4.5,0.5-7.1c1-2.6,2.7-5.3,5-7.3c1.3-1.1,2.8-2,4.5-2.7
		c2.5-0.9,4.7-1.4,6.5-1.6c1.9-0.2,3.4,0,4.5,0.5c1,0.4,1.6,1,1.9,1.8c0.1,0.2,0.1,0.5,0.1,0.7c0.3,2.9-7,5.7-7,5.7
		c-0.4,0.2-0.6,0.6-0.5,1c0.2,0.4,0.6,0.6,1,0.5c0,0,8.4-3.2,8-7.3c-0.1-1.8-1.4-3.1-3-3.8C3.9,51.4-1,52.8-4.5,54
		c-1.8,0.7-3.5,1.7-5,2.9c-2.6,2.2-4.4,5-5.5,7.9c-1.1,2.9-1.3,5.9-0.5,8.1c1,1.8,2.3,4.1,6.8,5.2c6.2,1.5,13.5-0.5,18.2-4.7
		c0.4,1.4,1.1,2.1,2.9,2.6c1.9,0.5,4.7-1.3,6.5-2.6c0,0.6,0.1,1.3,0.5,1.8c0.3,0.4,0.6,0.7,1,0.9c0.7,0.3,1.3,0.2,2-0.1
		c0.6-0.3,1.1-0.7,1.6-1.2c0.3,1.2,0.9,1.4,2.9,1.1c1.5-0.3,2.7-0.8,3.7-2c0.7,1.1,1.8,1.6,2.9,2.1c1.5,0.7,2.2,1.1,4.3-0.5
		c0,0,0.9-0.7,1.1-1c0.2-0.2,0.4-0.5,0.5-0.7c0.5,0.9,1.5,2.4,2.9,2.7c1.9,0.4,4.8-0.2,5.8-2.1c0.2-0.4,0.4-0.9,0.6-1.4
		c0.1,0.5,0.2,0.9,0.4,1.1c0.3,0.4,0.6,0.7,0.9,0.9c0.4,0.3,0.9,0.4,1.3,0.3c0.5,0,0.9-0.2,1.4-0.5c0.5-0.3,0.9-0.7,1.3-1.3
		c-0.1,0.9-0.2,1.9-0.3,2.9c-1.7,1-4.7,3.1-6.3,5.5c-0.4,0.6-0.6,1.1-0.8,1.7c-0.4,1.2-0.3,2.2,0.1,3.1s1,1.5,1.8,2
		c0.5,0.3,1,0.5,1.4,0.7c1.5,0.5,2.5,0,3.2-1.2c0.6-1,0.9-2.4,1.1-4.3c0.2-1.2,0.5-3.8,0.8-6.5c0.4-0.2,0.6-0.3,0.6-0.3
		c0.4-0.2,0.5-0.7,0.3-1c-0.1-0.3-0.4-0.4-0.7-0.4c0.5-4.3,1-8.4,1-8.4C56.8,66.4,55.3,66.2,55.2,66.9z M10.8,69.3
		c-0.1-0.3-0.1-0.6-0.1-0.7c-0.3-3.2,0.4-6.2,1.6-8.7c0.2-0.5,0.5-1,0.7-1.4c0.3-0.5,0.6-0.9,0.9-1.3c0.5-0.7,0.8-1,1.1-1.2
		c0.1-0.1,0.2-0.1,0.2,0c0.1,0,0.2,0.1,0.3,0.3c0.3,0.5,0.4,1.2,0.4,1.9c0.1,3.2-0.9,6-2.3,8.4c-0.8,1.3-1.7,2.6-2.7,3.6
		C10.8,69.9,10.8,69.6,10.8,69.3z M24.9,69.3c-0.2,1.4-0.8,3.2-1.7,4.3c-0.4,0.4-0.7,0.7-1.1,0.9c-0.3,0.1-0.6,0.2-0.8,0.1
		c-0.1-0.1-0.3-0.2-0.4-0.3c-1-1.5,0.7-6.5,1.8-6.8c1.1-0.2,1.9,0,2.1,0.3C25.1,68.2,25,68.8,24.9,69.3z M31.8,72.4
		c0.6-1.1,1.4-3,1.9-4.5c0.1,0.3,0.1,0.6,0.2,0.9c0.1,0.5,0.2,0.9,0.3,1.2c0.3,1.2,0.4,1.7-0.5,2C32.6,72.6,32,72.4,31.8,72.4z
		 M42.7,67.4c0.4,1.2,0.5,1,0.7,1.8c0.4,1,0.6,1.9,0.6,2.5c0,0.4-0.2,0.7-0.7,0.9c-0.9,0.3-2.2-0.2-2.7-0.4
		C41.9,69.8,42.6,68.4,42.7,67.4z M53.2,83.7c-0.2,1.6-0.5,2.9-0.9,3.7c-0.3,0.5-0.7,0.7-1.4,0.5c-0.4-0.1-0.7-0.3-1-0.5
		c-0.5-0.3-1-0.8-1.2-1.4c-0.3-0.5-0.3-1.2-0.1-2c0.1-0.4,0.3-0.8,0.6-1.3c1.1-1.8,3.1-3.3,4.7-4.4C53.6,80.7,53.3,82.6,53.2,83.7z"
		/>
	<path class="st0" d="M-44.2,72.4c-0.4-0.4-2.1-0.9-4.4-1.7c-2.8-0.9-6.7-2.2-10.2-3.7c-2.6-1.1-4-2.2-4.5-3.2
		c-0.3-0.6-0.2-1.1,0.1-1.7c0.4-0.7,1.2-1.3,2.1-1.8c3.2-1.8,8.2-2.9,10.8-2.6c2.1,0.2,4,0.5,5.4,1c1.2,0.5,1.9,1.1,1.8,2.1
		c-0.2,2.1-3.7,2-3.7,2c-0.4,0-0.8,0.3-0.8,0.7s0.3,0.8,0.8,0.8c0,0,5,0.2,5.3-3.3c0.1-1.8-1-2.9-2.8-3.7c-1.5-0.6-3.6-0.9-5.8-1.2
		C-53,55.8-58.4,57-61.8,59c-1.2,0.7-2.1,1.5-2.6,2.4c-0.6,1-0.8,2.1-0.2,3.2c0.7,1.3,2.2,2.6,5.2,3.9c3.5,1.5,7.5,2.8,10.3,3.7
		c2.1,0.7,3.7,1.2,3.9,1.4c0.3,0.3,0.5,0.6,0.4,0.8c-0.1,0.3-0.5,0.5-1,0.8c-0.6,0.3-1.5,0.6-2.5,0.8c-4.1,0.8-10.5,0.2-13.9-3.2
		c-0.3-0.3-0.8-0.3-1.1,0s-0.3,0.8,0,1.1c3.8,3.8,10.8,4.5,15.2,3.7c1.2-0.2,2.2-0.5,2.9-1c0.9-0.5,1.5-1,1.7-1.7
		C-43.1,73.9-43.3,73.2-44.2,72.4z"/>
	<path class="st0" d="M-19.9,68.9c-0.1-0.6-0.5-0.9-1-0.7c-0.4,0.1-0.7,1.4-0.9,3.2c-0.3,0.7-0.8,1.5-1.2,2.2
		c-0.2,0.3-0.4,0.6-0.6,0.9c-0.2,0.2-0.4,0.5-0.6,0.7c-0.4,0.4-0.5,0.5-0.5,0.5c-0.2-0.2-0.3-0.7-0.5-1.3c-0.1-0.7,0.1-2.2,0.2-3.2
		c0.1-0.3,0.1-0.5,0.2-0.7c0-0.1,0-0.2,0-0.3c0.7-3.4-1.5-3.7-1.6-0.1v0.1c0,0.1-0.1,0.3-0.1,0.5c0,0.1,0,0.1,0,0.2
		c-0.3,0.8-0.8,2-1.5,3c-0.2,0.3-0.4,0.5-0.5,0.7c-0.2,0.2-0.3,0.3-0.5,0.5c-1,0.7-1.5,0.4-1.8-0.2c-0.8-1.5,2.1-3.5-0.1-6.2
		c-0.3-0.4-0.7-0.6-1.1-0.7c-0.6-0.1-1.3,0-2,0.4c-0.6,0.3-1.2,0.8-1.6,1.4c-0.7,0.9-1.2,2.1-1.4,3.3c-0.5,0.8-1.6,2.3-2.5,2.3
		c-1,0-1-0.8-1-1.5c0-0.7,0.2-4.7,0.3-7.9h6.4v-1.3h-6.4c0.1-1.4,0.1-2.4,0.1-2.4c0-0.4-0.3-0.8-0.7-0.8c-0.4,0-0.8,0.3-0.8,0.7
		c0,0-0.1,1-0.1,2.4h-5.4v1.3h5.4c-0.1,3.2-0.3,7.2-0.3,7.9c0,1.4,0,3,2.5,3c0.9,0,1.8-0.7,2.6-1.4c0.1,0.3,0.2,0.6,0.3,0.9
		c0.3,0.4,0.7,0.7,1,0.9c0.6,0.3,1.3,0.2,2-0.1c0.6-0.3,1.1-0.7,1.6-1.2c0.7,1.3,1.8,1.9,3.9,0.6c0.3-0.2,0.5-0.4,0.8-0.7
		c0.2-0.3,0.5-0.5,0.7-0.8c0,0,0,0,0-0.1c0.2,0.9,0.4,1.6,0.9,2.1c0.7,0.6,1.6,0.6,2.7-0.6c0.2-0.2,0.4-0.5,0.7-0.8
		c0.1-0.1,0.2-0.3,0.3-0.4c0,0.3,0,0.7-0.1,1c0,0.1,0,0.3,0,0.4c-1,0.5-2.7,1.5-3.9,3c-1,1.2-1.7,2.5-1.9,3.9
		c-0.3,1.4-0.1,2.8,0.5,4.3c0.3,0.7,0.7,1.2,1.1,1.5c0.5,0.3,1.1,0.4,1.7,0.3c0.5-0.1,1-0.4,1.4-0.7c0.8-0.7,1.4-1.7,1.8-2.7
		c0.3-1.1,0.6-4.8,0.9-8.5c0.4-0.2,0.6-0.6,0.4-1c-0.1-0.2-0.2-0.3-0.3-0.4c0.1-1.3,0.1-2.6,0.1-3.6C-20,71.3-19.7,69.9-19.9,68.9z
		 M-33.2,74.8c-0.3,0.4-0.7,0.7-1.1,0.9c-0.3,0.1-0.6,0.2-0.8,0.1c-0.1-0.1-0.2-0.1-0.3-0.3c-0.3-0.5-0.2-1.4-0.2-1.9
		c0.2-0.8,0.7-2.9,2.4-3.9c0.3-0.2,0.7-0.3,0.9-0.2c0.1,0,0.2,0.1,0.3,0.2C-31.1,70.9-32.2,73.6-33.2,74.8z M-23.1,85.6
		c-0.2,0.8-0.7,1.5-1.2,2c-0.3,0.2-0.5,0.4-0.8,0.4c-0.2,0-0.4,0-0.5-0.1c-0.2-0.1-0.4-0.4-0.5-0.8c-0.5-1.3-0.6-2.4-0.4-3.5
		c0.2-1.1,0.7-2.1,1.6-3.2c0.8-1,1.8-1.7,2.6-2.2C-22.6,81.6-22.9,84.7-23.1,85.6z"/>
	<path class="st0" d="M58.8,73.8c-0.6,0-1.2,0.5-1.2,1.2s0.5,1.2,1.2,1.2S60,75.7,60,75C59.9,74.3,59.4,73.8,58.8,73.8z"/>
</g>
</svg>
