<?xml version="1.0" encoding="UTF-8"?>
<!DOCTYPE svg PUBLIC "-//W3C//DTD SVG 1.1//EN" "http://www.w3.org/Graphics/SVG/1.1/DTD/svg11.dtd">
<!-- Creator: CorelDRAW X7 -->
<svg xmlns="http://www.w3.org/2000/svg" xml:space="preserve" width="92.115mm" height="92.115mm" version="1.1" style="shape-rendering:geometricPrecision; text-rendering:geometricPrecision; image-rendering:optimizeQuality; fill-rule:evenodd; clip-rule:evenodd"
viewBox="0 0 9212 9212"
 xmlns:xlink="http://www.w3.org/1999/xlink">
 <defs>
  <style type="text/css">
   <![CDATA[
    .fil0 {fill:none}
    .fil1 {fill:white}
   ]]>
  </style>
 </defs>
 <g id="Слой_x0020_1">
  <metadata id="CorelCorpID_0Corel-Layer"/>
  <rect class="fil0" width="9212" height="9211"/>
  <g id="Swear_x0020_02.cdr">
   <path class="fil1" d="M4701 5934c31,0 73,19 85,39 10,17 4,52 28,55 16,-10 28,-27 47,-33 34,-10 73,5 95,14 26,11 45,15 62,36 60,74 79,225 95,323 1,5 1,10 1,15 2,11 10,23 3,33 -7,10 -20,8 -34,5 -23,-4 -48,-14 -61,-29 -33,-43 -40,-191 -58,-251 -5,-20 -11,-66 -29,-70 -15,-4 -20,19 -23,28 -34,86 -33,194 -28,286 1,7 2,13 3,19 -2,5 -8,13 -12,15 -16,11 -58,-10 -73,-14 -14,-3 -36,2 -48,-4 -1,-19 16,-19 20,-35 2,-9 -2,-18 -3,-24 -1,-13 -2,-26 -3,-39 -18,-94 -51,-190 -65,-285 -4,-14 -9,-26 -12,-42 -2,-8 -4,-16 -6,-24 1,-9 9,-15 16,-18z"/>
   <path class="fil1" d="M4418 5919c43,0 46,30 62,56 56,88 45,211 104,307 24,38 56,73 100,92 12,6 28,8 42,12 7,2 14,1 19,5 0,5 -1,10 -1,16 -4,5 -13,3 -21,4 -20,3 -45,1 -67,1 -69,-1 -114,-28 -149,-64 -11,-11 -22,-25 -31,-39 -4,-7 -7,-16 -17,-17 -5,2 -9,3 -12,7 -2,6 -4,12 -6,18 -5,15 -11,31 -19,44 -6,10 -18,22 -29,27 -18,7 -87,9 -108,2 -39,-12 -63,-50 -71,-93 -1,-19 -1,-38 -2,-58 0,-20 -1,-43 3,-61 19,-88 53,-192 116,-234 16,-10 47,-18 67,-23 7,-1 14,-1 20,-2zm-62 155c-33,29 -29,102 -35,142 -4,21 -5,60 15,60 19,-10 14,-36 18,-61 2,-36 7,-70 15,-106 3,-16 5,-35 -13,-35z"/>
   <path class="fil1" d="M3734 5538c29,-1 45,-3 56,16 4,6 2,23 0,31 -23,147 -19,293 -15,443 3,20 -4,37 18,37 13,-7 21,-24 30,-36 15,-19 39,-35 64,-42 9,-3 20,-4 32,-4 46,0 55,30 70,60 49,100 43,220 100,318 17,29 40,56 72,70 18,9 57,7 58,34 -20,40 -116,18 -148,4 -86,-38 -111,-135 -141,-228 -4,-12 -3,-26 -6,-39 -5,-15 -10,-29 -15,-44 -3,-17 0,-37 -19,-38 -42,22 -48,270 -50,313 -7,21 -41,41 -75,35 -26,-4 -39,-30 -46,-54 -1,-9 -2,-18 -3,-28 -23,-73 -24,-148 -42,-222 -2,-11 -3,-21 -4,-32 -6,-162 -5,-314 4,-476 4,-24 11,-87 24,-103 5,-7 15,-12 25,-14 3,-1 7,-1 11,-1z"/>
   <path class="fil1" d="M3358 5439c24,0 52,-2 73,3 70,18 121,67 156,120 15,22 22,47 27,79 3,22 -2,38 -21,39 -17,-10 -49,-43 -54,-65 -5,-24 10,-50 -3,-69 -11,-18 -40,-24 -63,-29 -60,-12 -152,34 -196,66 -185,132 -266,512 -151,705 36,61 69,105 137,135 28,12 45,21 88,21 9,0 18,0 26,0 6,0 12,-1 18,-1 18,-4 49,-18 64,-27 9,-6 23,-21 40,-14 12,4 54,47 58,60 2,8 -3,17 -6,21 -6,8 -16,11 -25,16 -26,15 -54,25 -90,30 -24,5 -45,-4 -62,-9 -56,-16 -97,-42 -137,-73 -277,-185 -339,-660 -48,-936 12,-9 23,-20 35,-28 28,-17 63,-30 97,-40 12,-2 25,-3 37,-4z"/>
   <path class="fil1" d="M5668 5393c14,0 31,-2 42,2 60,16 102,79 116,142 32,146 -54,342 -112,484 -5,12 -14,25 -10,43 4,9 7,18 11,27 1,9 3,17 5,26 4,10 9,21 13,31 7,19 14,38 20,57 27,63 56,124 86,183 11,20 57,80 26,105 -26,21 -67,4 -81,-14 -10,-13 -15,-27 -24,-41 -33,-53 -61,-111 -88,-171 -8,-18 -22,-72 -43,-73 -15,7 -21,26 -30,39 -6,8 -12,14 -18,22 -28,38 -76,88 -121,108 -21,8 -42,16 -63,24 -35,9 -68,-3 -92,-12 -11,-3 -22,-7 -33,-10 -36,-16 -76,-55 -95,-88 -7,-15 -14,-30 -20,-45 -13,-27 -45,-47 -35,-92 5,-26 19,-42 31,-62 2,-6 4,-12 7,-18 6,-12 12,-25 17,-37 17,-31 45,-54 76,-71 46,-28 92,-25 120,17 14,22 19,65 12,99 -9,39 -39,88 -66,109 -16,13 -32,26 -48,38 -2,3 -7,11 -5,17 1,8 7,13 11,19 20,26 51,48 97,34 33,-10 74,-47 94,-71 28,-35 53,-71 77,-111 13,-20 33,-47 37,-72 -3,-120 -130,-501 60,-628 8,-5 17,-6 26,-10zm37 118c-22,14 -13,16 -22,40 -19,48 -49,220 -22,258 2,1 8,2 11,1 31,-16 66,-253 50,-285 -3,-6 -10,-13 -17,-14z"/>
   <path class="fil1" d="M5351 4598c33,-1 65,13 75,35 6,14 2,31 5,50 0,11 0,23 1,35 9,62 15,124 16,187 0,13 1,26 1,40 12,294 25,567 11,864 -4,26 -3,67 -29,72 -13,3 -26,-7 -34,-11 -14,-7 -30,-15 -36,-30 -6,-14 -2,-49 0,-66 1,-11 1,-23 1,-34 39,-247 7,-509 -1,-757 0,-22 4,-49 -18,-49 -10,4 -15,12 -21,20 -11,14 -30,26 -50,30 -10,1 -20,1 -29,1 -56,0 -85,-22 -115,-47 -13,-11 -18,-40 -40,-40 -13,6 -22,19 -31,31 -12,14 -37,38 -57,45 -58,20 -107,-38 -126,-69 -8,-13 -11,-42 -30,-44 -17,8 -20,28 -30,44 -26,44 -76,106 -151,74 -14,-6 -26,-15 -34,-26 -12,-16 -27,-51 -33,-71 -4,-11 -5,-22 -8,-32 -4,-10 -7,-34 -17,-38 -3,0 -6,0 -8,0 -18,17 -26,73 -37,99 -15,35 -27,72 -59,91 -10,6 -36,5 -48,1 -9,-4 -18,-9 -26,-15 -63,-50 -69,-258 -69,-330 0,-11 1,-21 2,-32 2,-6 10,-13 16,-16 16,-6 35,5 44,10 17,9 34,21 38,43 0,10 -1,20 -1,31 -4,21 1,60 4,79 2,17 -1,31 9,40 5,0 8,0 11,-2 9,-20 12,-44 20,-65 14,-33 45,-90 83,-97 15,-3 30,7 39,11 12,5 23,11 31,21 24,30 62,196 79,197 18,-10 24,-33 33,-52 18,-43 47,-118 81,-142 19,-14 53,-6 70,4 57,35 33,175 73,192 19,-2 26,-23 35,-36 19,-28 35,-61 53,-90 10,-15 16,-32 31,-41 10,-6 25,-7 40,-4 30,5 53,28 59,57 8,33 -2,77 6,110 3,16 14,57 37,43 24,-15 37,-46 48,-75 23,-50 44,-120 49,-176 2,-12 6,-22 10,-31 9,-22 6,-29 27,-39z"/>
   <path class="fil1" d="M3623 4471c28,0 21,30 25,55 4,22 17,189 32,191 20,-10 24,-41 35,-60 28,-45 69,-82 121,-103 26,-10 66,-5 83,9 16,12 29,32 33,55 12,133 7,262 15,395 7,28 26,70 53,77 10,3 35,-2 42,2 12,8 6,23 -2,29 -78,60 -164,39 -181,-44 -10,-133 -6,-267 -17,-399 -4,-19 -21,-53 -38,-57 -58,-17 -121,318 -124,322 -11,12 -47,45 -69,31 -13,-7 -19,-25 -22,-42 -13,-119 -47,-237 -51,-357 -3,-7 -9,-10 -15,-13 -12,2 -20,13 -28,19 -20,14 -39,29 -59,43 -11,8 -23,13 -27,27 -3,10 8,30 10,39 24,93 12,261 -50,348 -21,30 -42,53 -76,72 -9,5 -22,16 -39,10 -28,-9 -54,-59 -63,-88 -32,-129 -28,-225 -1,-360 34,-86 54,-137 141,-188 12,-7 39,-17 40,7 -7,15 -24,25 -36,35 -11,8 -17,19 -25,30 -3,5 -15,23 -12,31 2,6 8,10 14,10 13,-8 36,-30 59,-25 16,3 27,29 47,20 34,-14 58,-44 87,-65 23,-17 49,-35 76,-48 7,-3 15,-6 22,-8zm-319 178c-49,42 -17,262 -8,319 5,11 10,21 15,31 2,7 7,20 17,16 17,-7 21,-52 25,-75 10,-69 3,-159 -15,-226 -5,-20 -12,-65 -34,-65z"/>
   <path class="fil1" d="M4627 3494c108,0 60,175 109,178 17,-10 20,-37 27,-55 20,-43 49,-82 88,-106 29,-18 65,3 78,24 9,15 9,33 13,54 19,88 -4,220 -88,271 -14,8 -29,12 -35,28 -4,11 5,24 7,33 8,35 22,62 59,68 8,1 15,-3 20,-5 15,-5 29,-9 41,-17 6,-5 11,-10 17,-15 22,-15 47,-36 57,-61 37,-89 13,-171 69,-267 17,-29 27,-67 66,-74 7,-1 14,3 18,5 29,11 27,24 44,45 9,11 24,12 37,20 7,5 17,15 22,22 17,25 4,55 0,84 -3,41 -4,82 -4,123 4,25 -1,49 7,68 2,5 9,13 14,14 15,6 30,-44 34,-57 12,-34 19,-69 32,-103 8,-35 14,-75 40,-93 7,-5 15,-7 26,-6 6,0 12,1 18,1 26,8 43,40 53,64 6,12 8,32 24,34 18,-7 32,-47 42,-64 29,-46 63,-90 104,-124 9,-7 19,-16 31,-20 25,-8 53,2 62,15 22,27 9,56 -13,73 -74,60 -116,147 -154,244 -1,7 -2,13 -4,19 -7,25 -15,57 -23,81 -15,41 2,90 -37,110 -8,4 -21,6 -32,3 -56,-17 -43,-76 -54,-136 -3,-15 -1,-29 -7,-39 -3,-1 -8,-2 -11,0 -7,3 -15,32 -21,41 -17,30 -42,75 -74,90 -32,14 -66,-14 -83,-27 -6,-4 -14,-18 -26,-15 -14,3 -21,17 -28,26 -13,16 -44,40 -66,45 -10,2 -16,-3 -22,-5 -14,-6 -28,-17 -37,-29 -7,-10 -15,-26 -29,-27 -12,-1 -48,28 -64,33 -14,3 -28,7 -42,11 -56,10 -107,-16 -137,-36 -36,-24 -56,-67 -70,-114 -1,-9 -1,-17 -2,-26 -6,-36 -4,-58 -34,-70 -6,4 -13,7 -16,14 -7,81 -21,153 -63,224 -11,19 -24,43 -48,48 -20,4 -37,-6 -48,-13 -32,-20 -52,-55 -73,-86 -4,-7 -10,-14 -14,-21 -8,-16 -21,-51 -37,-56 -18,7 -25,30 -34,46 -5,8 -13,14 -19,21 -28,34 -77,60 -113,14 -27,-34 -50,-94 -59,-144 -5,-77 -14,-152 -17,-229 -6,-42 -1,-69 31,-79 24,-8 43,9 54,19 7,7 13,15 17,26 18,60 -18,227 26,269 3,0 6,0 9,-1 8,-4 7,-15 9,-25 13,-51 16,-104 27,-156 6,-34 0,-60 17,-82 7,-10 20,-25 39,-22 55,9 57,56 66,109 3,42 15,80 20,122 6,24 15,50 24,73 7,19 24,76 44,77 5,-2 10,-4 13,-8 17,-51 21,-97 30,-149 1,-18 1,-36 2,-54 1,-62 -6,-143 11,-204 8,-27 4,-52 26,-65 5,-1 10,-3 14,-4z"/>
   <path class="fil1" d="M3925 3462c69,-1 123,38 157,72 12,11 25,25 34,39 5,8 3,19 -9,19 -9,-6 -15,-16 -24,-23 -15,-12 -36,-24 -58,-28 -59,-13 -100,47 -90,108 3,14 1,27 5,39 5,15 13,34 22,47 23,25 47,49 70,74 31,38 62,73 89,115 20,32 49,81 23,125 -13,22 -38,40 -67,46 -20,4 -46,-8 -59,-13 -39,-15 -70,-37 -100,-61 -10,-9 -20,-19 -30,-28 -14,-11 -27,-24 -39,-38 -10,-13 -52,-48 -52,-65 1,-2 1,-2 2,-3 6,-4 14,4 17,7 13,13 26,26 39,39 32,26 65,56 109,70 22,7 56,6 73,-4 15,-9 27,-24 35,-39 23,-38 -7,-78 -25,-104 -11,-17 -26,-29 -38,-44 -31,-38 -69,-69 -98,-109 -13,-18 -27,-36 -34,-58 -13,-35 -28,-110 -5,-147 8,-14 21,-27 36,-33 6,-1 11,-2 17,-3z"/>
   <path class="fil1" d="M3192 3087c30,13 51,34 68,61 115,193 77,498 -33,679 -6,10 -26,26 -19,44 5,13 17,21 25,31 96,118 284,231 442,202 8,-1 17,-2 26,-3 14,-4 26,-10 42,-13 34,-6 55,18 27,34 -9,3 -17,6 -26,9 -170,68 -371,5 -511,-100 -16,-14 -33,-28 -50,-43 -18,-14 -30,-34 -51,-46 -28,-17 -68,26 -89,-2 -7,-10 0,-19 5,-25 12,-12 36,-22 26,-46 -4,-8 -11,-15 -15,-22 -12,-20 -24,-41 -36,-61 -60,-126 -153,-348 -118,-487 11,-44 20,-84 41,-118 28,-45 76,-72 128,-93 46,-18 73,-14 118,-1zm-95 43c-181,81 -49,465 27,614 5,8 13,33 26,31 12,-2 16,-18 21,-29 65,-158 73,-362 11,-520 -14,-36 -29,-62 -58,-84 -8,-6 -13,-12 -27,-12z"/>
   <path class="fil1" d="M4291 3118c-48,-3 -102,-17 -145,-40 -33,-17 -59,-37 -87,-64 -22,-22 -37,-42 -51,-64l-6 -10 9 -4c16,-9 90,-47 91,-47 0,0 3,4 7,9 38,58 99,96 170,106 12,2 49,1 63,-1 15,-2 33,-6 44,-10 1,0 0,-2 -4,-6 -25,-30 -48,-71 -61,-109 -24,-69 -25,-143 -5,-213 13,-43 34,-85 62,-119 4,-5 7,-10 7,-10 0,-2 -21,-7 -35,-10 -22,-3 -56,-4 -76,-1 -33,6 -66,18 -93,35 -29,18 -53,42 -73,71l-9 13 -11 -6c-6,-3 -28,-15 -49,-26 -22,-11 -39,-20 -39,-20 -1,0 13,-21 18,-29 17,-24 47,-56 69,-73 57,-46 120,-71 192,-78 13,-1 46,-1 59,0 46,4 85,15 125,35l19 10 7 -4c10,-6 29,-14 43,-20 39,-15 79,-22 123,-22 30,0 56,3 84,10 62,16 116,45 162,90 25,25 44,50 60,77l2 4 -38 20c-22,11 -44,23 -50,26l-11 6 -8 -13c-41,-61 -107,-100 -180,-107 -21,-2 -53,0 -72,4 -10,2 -26,7 -26,8 0,0 2,3 5,7 42,51 68,113 76,182 2,16 3,58 1,74 -8,69 -34,132 -75,183 -9,11 -9,11 -6,12 1,0 8,2 15,4 34,9 70,10 105,3 62,-11 119,-48 155,-101 3,-5 6,-10 7,-10 0,-1 8,3 18,8 20,10 81,41 82,42 1,1 -19,30 -31,45 -11,14 -41,44 -55,55 -51,41 -109,66 -172,75 -73,10 -150,-4 -212,-38l-9 -5 -11 6c-55,29 -117,43 -180,40zm203 -200c30,-38 49,-84 54,-130 1,-16 1,-48 -2,-62 -7,-39 -21,-73 -44,-104 -4,-5 -11,-13 -14,-17l-6 -6 -6 6c-8,8 -20,25 -27,35 -32,52 -42,116 -29,177 9,38 29,77 55,108l6 7 3 -3c1,-1 6,-6 10,-11z"/>
  </g>
 </g>
</svg>
