<?xml version="1.0" encoding="utf-8"?>
<!-- Generator: Adobe Illustrator 19.1.0, SVG Export Plug-In . SVG Version: 6.00 Build 0)  -->
<svg version="1.1" id="Слой_1" xmlns="http://www.w3.org/2000/svg" xmlns:xlink="http://www.w3.org/1999/xlink" x="0px" y="0px"
	 viewBox="3.3 50.2 119.9 77.3" style="enable-background:new 3.3 50.2 119.9 77.3;" xml:space="preserve">
<style type="text/css">
	.st0{fill:#595959;}
</style>
<g>
	<path class="st0" d="M27.9,123.1l-1.2-0.3c-0.1,0-0.3-0.1-0.4-0.1c-0.1-0.1-0.2-0.2-0.2-0.4s0.1-0.4,0.3-0.5
		c0.2-0.1,0.4-0.1,0.6-0.1c0.3,0,0.5,0.1,0.7,0.1c0.2,0.1,0.3,0.2,0.3,0.3c0,0,0,0.2,0,0.3h1c0-0.2,0-0.3-0.1-0.5
		c-0.1-0.2-0.2-0.4-0.3-0.5c-0.1-0.2-0.3-0.3-0.6-0.4s-0.6-0.2-0.9-0.2c-0.5,0-0.9,0.1-1.2,0.3c-0.3,0.2-0.5,0.4-0.6,0.6
		c-0.1,0.2-0.2,0.5-0.2,0.7c0,0.4,0.1,0.6,0.2,0.8c0.1,0.2,0.3,0.3,0.5,0.4c0.2,0.1,0.5,0.2,0.9,0.3l0.6,0.1
		c0.3,0.1,0.5,0.1,0.7,0.2c0.1,0.1,0.2,0.2,0.2,0.4c0,0.4-0.3,0.7-1,0.7c-0.4,0-0.7-0.1-0.9-0.3s-0.2-0.4-0.2-0.6h-1
		c0,0.2,0,0.4,0.1,0.6c0.1,0.2,0.2,0.4,0.3,0.5c0.2,0.2,0.4,0.3,0.7,0.4c0.3,0.1,0.7,0.2,1.1,0.2c0.2,0,0.4,0,0.6-0.1
		c0.2,0,0.4-0.1,0.7-0.2c0.3-0.1,0.4-0.3,0.6-0.5c0.1-0.2,0.2-0.5,0.2-0.9c0-0.4-0.1-0.7-0.3-0.9C28.6,123.3,28.3,123.2,27.9,123.1z
		"/>
	<path class="st0" d="M25.4,116.6c0.1-0.2,0.2-0.5,0.2-0.9c0-0.4-0.1-0.7-0.3-0.9s-0.6-0.3-1-0.5l-1.2-0.3c-0.1,0-0.3-0.1-0.4-0.1
		c-0.1-0.1-0.2-0.2-0.2-0.4s0.1-0.4,0.3-0.5s0.4-0.1,0.6-0.1c0.3,0,0.5,0.1,0.7,0.1c0.1,0.1,0.2,0.2,0.3,0.3
		c0.1,0.1,0.1,0.2,0.1,0.3h1c0-0.2,0-0.3-0.1-0.5c-0.1-0.2-0.2-0.4-0.3-0.5c-0.1-0.2-0.3-0.3-0.6-0.4c-0.3-0.1-0.6-0.2-1-0.2
		c-0.5,0-0.9,0.1-1.2,0.3s-0.5,0.4-0.6,0.6c-0.1,0.2-0.2,0.5-0.2,0.7c0,0.4,0.1,0.6,0.2,0.8s0.3,0.3,0.5,0.4
		c0.2,0.1,0.5,0.2,0.9,0.3l0.6,0.1c0.3,0.1,0.5,0.1,0.7,0.2c0.2,0.1,0.2,0.2,0.2,0.4c0,0.4-0.3,0.7-1,0.7c-0.4,0-0.7-0.1-0.9-0.3
		c-0.1-0.2-0.2-0.4-0.2-0.6h-1c0,0.2,0,0.4,0.1,0.6c0.1,0.2,0.2,0.4,0.3,0.5c0.2,0.2,0.4,0.3,0.7,0.4c0.3,0.1,0.7,0.2,1.1,0.2
		c0.2,0,0.4,0,0.6-0.1c0.2,0,0.5-0.1,0.7-0.2C25.1,117,25.3,116.8,25.4,116.6z"/>
	<polygon class="st0" points="48.4,113.1 48.4,112.2 44.7,112.2 44.7,117.2 48.6,117.2 48.6,116.4 45.7,116.4 45.7,115 48.2,115 
		48.2,114.1 45.7,114.1 45.7,113.1 	"/>
	<rect x="22.7" y="120.9" class="st0" width="1.1" height="5.1"/>
	<path class="st0" d="M33,117.2c0.3,0.1,0.7,0.2,1.1,0.2c0.1,0,0.3,0,0.6-0.1c0.2,0,0.4-0.1,0.6-0.2c0.2-0.1,0.4-0.3,0.6-0.5
		c0.2-0.2,0.2-0.5,0.2-0.9c0-0.4-0.1-0.7-0.3-0.9s-0.6-0.3-1-0.5l-1.2-0.3c-0.2,0-0.3-0.1-0.4-0.1c-0.1-0.1-0.1-0.2-0.1-0.4
		s0.1-0.4,0.3-0.5c0.2-0.1,0.4-0.1,0.6-0.1c0.3,0,0.5,0.1,0.7,0.1c0.1,0.1,0.3,0.2,0.3,0.3c0.1,0.1,0.1,0.2,0.1,0.3h1
		c0-0.2-0.1-0.3-0.1-0.5c-0.1-0.2-0.2-0.4-0.3-0.5c-0.2-0.2-0.4-0.3-0.6-0.4c-0.3-0.1-0.6-0.2-0.9-0.2c-0.5,0-0.9,0.1-1.2,0.3
		s-0.5,0.4-0.6,0.6c-0.4,0.2-0.4,0.5-0.4,0.7c0,0.4,0.1,0.6,0.2,0.8c0.1,0.2,0.3,0.3,0.5,0.4c0.2,0.1,0.5,0.2,0.9,0.3l0.5,0.1
		c0.3,0.1,0.6,0.1,0.7,0.2c0.1,0.1,0.2,0.2,0.2,0.4c0,0.4-0.3,0.7-1,0.7c-0.4,0-0.7-0.1-0.9-0.3c-0.1-0.2-0.2-0.4-0.2-0.6h-1
		c0,0.2,0,0.4,0.1,0.6s0.2,0.4,0.3,0.5C32.5,117,32.7,117.1,33,117.2z"/>
	<path class="st0" d="M5.7,120.9L3.9,126H5l0.4-1h1.9l0.3,1h1.1l-1.8-5.1H5.7z M5.7,124l0.7-2l0.7,2H5.7z"/>
	<path class="st0" d="M5.3,113.5c0.1-0.3,0.2-0.5,0.3-0.7c0.1-0.2,0.2-0.5,0.4-0.7H5.3c-0.2,0.2-0.3,0.5-0.5,0.7
		c-0.1,0.2-0.3,0.5-0.4,0.8c-0.1,0.3-0.2,0.6-0.3,0.9c-0.1,0.3-0.1,0.6-0.1,1c0,0.6,0.1,1.2,0.3,1.8c0.2,0.5,0.5,1,0.9,1.6H6
		c-0.2-0.3-0.4-0.7-0.5-1c-0.1-0.3-0.3-0.7-0.3-1c-0.1-0.6-0.2-1-0.2-1.5c0-0.3,0-0.7,0.1-1C5.2,114.1,5.2,113.8,5.3,113.5z"/>
	<rect x="7.1" y="112.2" class="st0" width="1.1" height="5.1"/>
	<polygon class="st0" points="10.7,117.2 11.8,117.2 11.8,113.1 13.3,113.1 13.3,112.2 9.2,112.2 9.2,113.1 10.7,113.1 	"/>
	<path class="st0" d="M19.4,121.7c-0.1-0.3-0.3-0.5-0.6-0.6c-0.3-0.1-0.6-0.2-1-0.2h-2.2v5.1h2.2c0.4,0,0.7-0.1,1-0.2
		c0.3-0.2,0.5-0.4,0.7-0.7c0.2-0.3,0.3-0.6,0.3-0.9c0.1-0.3,0.1-0.6,0.1-0.9c0-0.3,0-0.5-0.1-0.8C19.6,122.2,19.6,121.9,19.4,121.7z
		 M18.6,124.2c-0.1,0.3-0.2,0.5-0.4,0.6c-0.2,0.2-0.4,0.2-0.7,0.2h-1v-3.3h1c0.2,0,0.4,0,0.6,0.1c0.2,0.1,0.3,0.2,0.4,0.5
		s0.2,0.6,0.2,1S18.7,123.9,18.6,124.2z"/>
	<path class="st0" d="M18.9,115.5h0.2c0,0.7-0.3,1-1,1c-0.3,0-0.5-0.1-0.7-0.3c-0.2-0.2-0.3-0.4-0.3-0.8v-3.3H16v3.4
		c0,0.5,0.1,0.9,0.4,1.2c0.2,0.2,0.5,0.4,0.7,0.5c0.3,0.1,0.6,0.1,0.9,0.1c0.7,0,1.2-0.1,1.5-0.5c0.4-0.3,0.5-0.8,0.5-1.4v-3.3h-1.1
		V115.5z"/>
	<polygon class="st0" points="13,124.4 11,120.9 9.9,120.9 9.9,125.9 10.9,125.9 10.9,122.3 12.9,125.9 14,125.9 14,120.9 13,120.9 
			"/>
	<path class="st0" d="M35.6,123.2c0.2-0.1,0.3-0.2,0.5-0.4c0.1-0.1,0.2-0.4,0.2-0.7c0-0.2-0.1-0.4-0.1-0.6s-0.3-0.4-0.5-0.5
		c-0.3-0.1-0.5-0.2-0.9-0.2h-2.5v5.1h2.2c0.3,0,0.6,0,0.8-0.1c0.2,0,0.3-0.1,0.5-0.1s0.2-0.1,0.3-0.3c0.1-0.1,0.3-0.3,0.3-0.5
		c0.1-0.2,0.1-0.4,0.1-0.6C36.4,123.8,36.2,123.4,35.6,123.2z M34.5,121.7c0.3,0,0.5,0,0.6,0.1c0.1,0.1,0.2,0.2,0.2,0.4
		s-0.1,0.3-0.2,0.4c-0.1,0.1-0.3,0.1-0.5,0.1h-1.2v-1H34.5z M34.6,125.1h-1.3v-1.4h1.3c0.2,0,0.4,0.1,0.6,0.2
		c0.1,0.1,0.2,0.3,0.2,0.5C35.3,124.8,35.1,125.1,34.6,125.1z"/>
	<polygon class="st0" points="28,115 30.5,115 30.5,114.1 28,114.1 28,113.1 30.7,113.1 30.7,112.2 27,112.2 27,117.2 30.8,117.2 
		30.8,116.4 28,116.4 	"/>
	<path class="st0" d="M62.2,120.8h-0.7c0.2,0.4,0.4,0.7,0.5,1c0.1,0.3,0.2,0.7,0.3,1c0.1,0.4,0.1,0.8,0.1,1.3c0,0.7-0.1,1.3-0.3,1.8
		c-0.2,0.5-0.4,1-0.7,1.6h0.7c0.2-0.2,0.3-0.5,0.5-0.7c0.2-0.2,0.3-0.5,0.4-0.8c0.1-0.3,0.2-0.6,0.3-0.9c0.1-0.3,0.1-0.6,0.1-1
		c0-0.6-0.1-1.2-0.3-1.8C62.9,121.8,62.6,121.3,62.2,120.8z"/>
	<rect x="59.3" y="124.9" class="st0" width="1" height="1"/>
	<polygon class="st0" points="56.6,116 56.5,116 55.4,112.2 54.3,112.2 56,117.2 57,117.2 58.8,112.2 57.7,112.2 	"/>
	<polygon class="st0" points="60.9,115 63.4,115 63.4,114.1 60.9,114.1 60.9,113.1 63.6,113.1 63.6,112.2 59.9,112.2 59.9,117.2 
		63.8,117.2 63.8,116.4 60.9,116.4 	"/>
	<path class="st0" d="M79.4,112.2l-1.8,5.1h1.1l0.4-1H81l0.3,1h1.2l-1.8-5.1H79.4z M79.3,115.3l0.7-2l0.6,2H79.3z"/>
	<polygon class="st0" points="64.7,113.1 66.2,113.1 66.2,117.2 67.3,117.2 67.3,113.1 68.8,113.1 68.8,112.2 64.7,112.2 	"/>
	<rect x="69.8" y="112.2" class="st0" width="1" height="5.1"/>
	<path class="st0" d="M74.5,113c0.4,0,0.7,0.1,0.8,0.3c0.1,0.2,0.3,0.4,0.3,0.6h1c0-0.2-0.1-0.4-0.2-0.6c-0.1-0.2-0.2-0.4-0.4-0.6
		c-0.2-0.2-0.4-0.3-0.7-0.4c-0.3-0.1-0.6-0.2-0.9-0.2c-0.5,0-0.9,0.1-1.2,0.3c-0.4,0.2-0.7,0.5-0.9,0.9c-0.2,0.4-0.3,0.9-0.3,1.5
		c0,0.6,0.1,1,0.3,1.4s0.5,0.7,0.8,0.9c0.3,0.2,0.7,0.3,1.2,0.3c0.4,0,0.8-0.1,1.1-0.2c0.3-0.2,0.6-0.4,0.7-0.7
		c0.2-0.3,0.3-0.6,0.4-1h-1c-0.1,0.2-0.1,0.4-0.2,0.5c-0.1,0.1-0.2,0.3-0.4,0.3c-0.1,0.1-0.3,0.1-0.5,0.1c-0.3,0-0.5-0.1-0.7-0.3
		c-0.2-0.1-0.3-0.4-0.4-0.6c-0.1-0.3-0.1-0.5-0.1-0.9c0-0.6,0.1-1.1,0.4-1.4S74.2,113,74.5,113z"/>
	<path class="st0" d="M44.1,120.9l-1.8,5.1h1.1l0.4-1h1.9l0.3,1h1.2l-1.8-5.1H44.1z M44,124l0.7-2l0.6,2H44z"/>
	<polygon class="st0" points="43.2,117.2 43.2,112.2 42.1,112.2 42.1,114.1 40.1,114.1 40.1,112.2 39.1,112.2 39.1,117.2 
		40.1,117.2 40.1,115 42.1,115 42.1,117.2 	"/>
	<polygon class="st0" points="38.9,120.9 37.8,120.9 37.8,125.9 41.4,125.9 41.4,125 38.9,125 	"/>
	<polygon class="st0" points="58.3,120.9 56.9,120.9 55,122.9 55,120.9 53.9,120.9 53.9,125.9 55,125.9 55,124.2 55.4,123.7 
		57,125.9 58.4,125.9 56.2,122.9 	"/>
	<polygon class="st0" points="51,112.2 49.9,112.2 49.9,117.2 53.5,117.2 53.5,116.3 51,116.3 	"/>
	<path class="st0" d="M50.3,121.7c0.4,0,0.7,0.1,0.8,0.3c0.1,0.2,0.3,0.4,0.3,0.6h1c0-0.2-0.1-0.4-0.2-0.6s-0.2-0.4-0.4-0.6
		c-0.2-0.2-0.4-0.3-0.7-0.4c-0.3-0.1-0.6-0.2-0.9-0.2c-0.5,0-0.9,0.1-1.2,0.3c-0.3,0.2-0.6,0.5-0.8,0.9c-0.2,0.4-0.3,0.9-0.3,1.5
		c0,0.6,0.1,1,0.3,1.4c0.2,0.4,0.5,0.7,0.8,0.9c0.4,0.2,0.8,0.3,1.2,0.3c0.4,0,0.8-0.1,1.1-0.2c0.3-0.2,0.6-0.4,0.7-0.7
		c0.2-0.3,0.3-0.6,0.4-1h-1c-0.1,0.2-0.1,0.4-0.2,0.5c-0.1,0.1-0.2,0.3-0.4,0.3c-0.1,0.1-0.3,0.1-0.5,0.1c-0.3,0-0.5-0.1-0.7-0.3
		c-0.2-0.1-0.3-0.4-0.4-0.6c-0.1-0.3-0.1-0.5-0.1-0.9c0-0.6,0.1-1.1,0.4-1.4C49.7,121.8,50,121.7,50.3,121.7z"/>
	<path class="st0" d="M15.9,71.6c-1-0.5-2.2-0.8-3.5-0.8H5.5H4.7V88h7.6c1.4,0,2.5-0.3,3.5-0.9c1-0.6,1.7-1.3,2.3-2.3
		c0.5-0.9,0.9-1.8,1.1-2.9c0.2-1,0.3-2,0.3-3c0-0.9-0.1-1.8-0.3-2.7s-0.6-1.8-1.1-2.6C17.6,72.8,16.9,72.1,15.9,71.6z M14.3,81.6
		c-0.2,0.7-0.5,1.2-1,1.6c-0.4,0.4-0.9,0.5-1.5,0.5c0,0-1.6,0-2.4,0c0-1.2,0-7.6,0-8.8c0.9,0,2.4,0,2.4,0c0.5,0,1,0.1,1.4,0.3
		s0.7,0.5,1,1.1c0.3,0.7,0.5,1.6,0.5,2.9C14.7,80.1,14.6,80.9,14.3,81.6z"/>
	<path class="st0" d="M122.8,86.1c-0.1-0.1-0.2-0.2-0.2-0.6c0-0.3,0-1,0-1.8c0-1-0.1-1.8-0.3-2.4c-0.2-0.6-0.5-1.1-0.9-1.5l-0.1-0.1
		c0.3-0.3,0.7-0.6,0.9-1c0.5-0.8,0.8-1.7,0.8-2.7c0-0.7-0.2-1.4-0.5-2.2c-0.3-0.8-0.9-1.5-1.8-2.1s-2-0.9-3.5-0.9h-7.9h-0.7V88h4.7
		c0,0,0-5,0-6.2c0.9,0,2.6,0,2.6,0c0.9,0,1.3,0.1,1.4,0.2c0.2,0.1,0.3,0.2,0.3,0.4c0.1,0.2,0.1,0.7,0.1,1.6c0,1.4,0.1,2.6,0.4,3.4
		l0.1,0.5h5v-1.6L122.8,86.1z M117.9,77.4c-0.2,0.1-0.6,0.3-1.4,0.3c0,0-2.2,0-3.1,0c0-0.8,0-1.9,0-2.7c1,0,3.3,0,3.3,0
		c0.6,0,1,0.1,1.2,0.3c0.2,0.3,0.3,0.6,0.3,1C118.3,76.8,118.1,77.2,117.9,77.4z"/>
	<path class="st0" d="M98,81.2c1.2,0,7.7,0,7.7,0v-4.3c0,0-6.4,0-7.7,0c0-0.6,0-1.2,0-1.8c1.2,0,8.4,0,8.4,0v-4.3H94.1h-0.8V88h13.4
		v-4.3c0,0-7.5,0-8.7,0C98,83,98,81.9,98,81.2z"/>
	<polygon class="st0" points="57,70.8 53,70.8 52.2,70.8 52.2,88 57,88 	"/>
	<path class="st0" d="M34.7,75.1v-4.3H22.4h-0.8V88h13.5v-4.3c0,0-7.5,0-8.7,0c0-0.8,0-1.8,0-2.6c1.2,0,7.7,0,7.7,0v-4.3
		c0,0-6.4,0-7.7,0c0-0.6,0-1.2,0-1.8C27.6,75.1,34.7,75.1,34.7,75.1z"/>
	<path class="st0" d="M37,84.5c0.2,0.7,0.6,1.4,1.2,2c0.6,0.6,1.4,1.1,2.4,1.5c1,0.4,2.2,0.6,3.6,0.6c0.5,0,1.2-0.1,1.9-0.2
		c0.7-0.1,1.5-0.4,2.2-0.8c0.8-0.4,1.5-1,2-1.8c0.6-0.8,0.9-1.9,0.9-3.1c0-1.5-0.5-2.6-1.4-3.4c-0.8-0.7-1.9-1.2-3.3-1.5l-3.9-0.9
		c-0.4-0.1-0.7-0.3-0.9-0.4c-0.1-0.1-0.1-0.4-0.1-0.5c0-0.4,0.1-0.6,0.4-0.8c0.4-0.2,1-0.4,1.6-0.4c0.9,0,1.4,0.2,1.6,0.3
		c0.4,0.2,0.6,0.4,0.6,0.6c0.1,0.3,0.2,0.5,0.2,0.9l0.1,0.7h4.6v-0.8c0-0.6-0.1-1.2-0.3-1.9c-0.3-0.7-0.6-1.3-1.2-1.9
		c-0.5-0.6-1.3-1.1-2.2-1.4c-0.9-0.4-2-0.5-3.2-0.5c-1.7,0-3,0.3-4.1,0.9c-1,0.6-1.8,1.3-2.2,2.2c-0.4,0.8-0.6,1.7-0.6,2.5
		c0,1.2,0.3,2.2,0.8,3c0.5,0.7,1.2,1.2,2,1.6c0.7,0.3,1.6,0.5,2.8,0.8l1.7,0.4c1.1,0.3,1.7,0.5,2,0.7c0.2,0.1,0.3,0.2,0.3,0.6
		c0,0.3,0,1.3-2.6,1.3c-1,0-1.7-0.2-2-0.5c-0.4-0.4-0.5-0.8-0.6-1.3v-0.7h-4.6v0.2C36.7,83.2,36.8,83.8,37,84.5z"/>
	<path class="st0" d="M69.5,88c0.7-0.3,1.3-0.6,1.7-1c0.1,0,0.1-0.1,0.1-0.1c0.1,0.2,0.2,1.1,0.2,1.1h3.6V78h-8v4.1c0,0,2.3,0,3.4,0
		c-0.1,0.4-0.3,0.7-0.6,1c-0.4,0.4-0.8,0.7-1.1,0.8c-0.4,0.1-0.8,0.2-1.1,0.2c-0.7,0-1.4-0.1-2-0.4c-0.5-0.3-1-0.7-1.3-1.4
		c-0.4-0.7-0.5-1.7-0.5-2.9c0-1.1,0.2-2.1,0.5-2.9c0.3-0.7,0.8-1.2,1.3-1.5c0.6-0.3,1.2-0.5,1.9-0.5c0.6,0,1,0.1,1.4,0.4
		c0.4,0.3,0.7,0.6,1,0.9c0.3,0.4,0.3,0.6,0.3,0.6v0.7h4.8L75,76.3c-0.1-0.7-0.3-1.4-0.6-2.1s-0.8-1.3-1.4-1.9
		c-0.6-0.6-1.4-1.1-2.4-1.4c-0.9-0.4-2-0.5-3.3-0.5c-1.8,0-3.4,0.4-4.7,1.2c-1.3,0.9-2.2,2-2.8,3.4c-0.6,1.4-0.9,2.9-0.9,4.5
		c0,1.4,0.2,2.7,0.6,3.8c0.4,1.1,1,2.1,1.8,2.8c0.8,0.8,1.6,1.4,2.6,1.7c1,0.4,2,0.6,3,0.6C67.9,88.4,68.8,88.3,69.5,88z"/>
	<path class="st0" d="M86.3,79.7c-1.7-2.9-5.1-9-5.1-9h-3.9h-0.7v17.2h4.6c0,0,0-6.1,0-9.2c1.7,2.9,5.3,9.2,5.3,9.2H91V70.8h-4.6
		C86.3,70.8,86.3,76.7,86.3,79.7z"/>
	<path class="st0" d="M50.2,91.1c0,0,0,4.8,0,6c-1,0-3.7,0-4.6,0c0-1.1,0-6,0-6h-4h-0.8v17.2h4.8c0,0,0-5.9,0-7.1c1,0,3.6,0,4.6,0
		c0,1.2,0,7.1,0,7.1H55V91.1H50.2z"/>
	<polygon class="st0" points="22.7,99.5 15.9,99.5 15.1,99.5 15.1,103.8 22.7,103.8 	"/>
	<polygon class="st0" points="92.2,103.5 92.2,108.2 97,108.2 97,103.5 93,103.5 	"/>
	<polygon class="st0" points="62.1,91.1 58.1,91.1 57.4,91.1 57.4,108.4 62.1,108.4 	"/>
	<path class="st0" d="M94.6,91.1h-0.1H81h-0.7v4.3c0,0,3.7,0,4.7,0c0,1.3,0,13,0,13h4.8c0,0,0-11.6,0-13c1.1,0,4.8,0,4.8,0V91.1z"/>
	<path class="st0" d="M8.1,108.4h4.8c0,0,0-11.6,0-13c1,0,4.7,0,4.7,0v-4.3H4.1H3.3v4.3c0,0,3.7,0,4.8,0
		C8.1,96.7,8.1,108.4,8.1,108.4z"/>
	<path class="st0" d="M73.7,102.8c0.1,0.2,0.1,0.7,0.1,1.6c0,1.4,0.1,2.6,0.4,3.4l0.1,0.5h5v-1.7l-0.5-0.2l-0.1-0.1
		c0,0-0.1-0.2-0.1-0.5c0-0.3,0-1,0-1.8c0-1-0.1-1.8-0.3-2.4c-0.2-0.7-0.5-1.1-0.9-1.5l-0.1-0.1c0.3-0.3,0.7-0.6,0.9-1
		c0.5-0.8,0.7-1.7,0.7-2.7c0-0.7-0.1-1.4-0.5-2.2c-0.3-0.8-0.9-1.5-1.8-2.1c-0.9-0.6-2-0.9-3.5-0.9h-7.9h-0.8v17.2h4.7
		c0,0,0-5,0-6.2c0.9,0,2.6,0,2.6,0c0.9,0,1.3,0.1,1.4,0.2C73.6,102.5,73.6,102.6,73.7,102.8z M69.4,98.1c0-0.8,0-1.9,0-2.7
		c1,0,3.3,0,3.3,0c0.6,0,1,0.1,1.2,0.3c0.2,0.3,0.3,0.6,0.3,1c0,0.5-0.1,0.9-0.3,1c-0.2,0.2-0.6,0.3-1.5,0.3
		C72.5,98.1,70.3,98.1,69.4,98.1z"/>
	<path class="st0" d="M38.9,102.9c0-1.5-0.5-2.6-1.3-3.4c-0.8-0.7-2-1.2-3.3-1.5l-3.8-1c-0.4-0.1-0.7-0.2-1-0.4
		c-0.1-0.1-0.1-0.4-0.1-0.5c0-0.4,0.1-0.6,0.4-0.8c0.4-0.3,1-0.4,1.6-0.4c0.9,0,1.4,0.2,1.6,0.3c0.4,0.2,0.5,0.4,0.6,0.6
		c0.1,0.3,0.2,0.5,0.3,0.8l0.1,0.7h4.6v-0.8c0-0.6-0.1-1.3-0.4-1.9c-0.2-0.7-0.6-1.3-1.2-1.9c-0.5-0.6-1.3-1.1-2.2-1.5
		c-0.9-0.3-2-0.5-3.2-0.5c-1.7,0-3.1,0.3-4.1,0.9c-1,0.6-1.8,1.3-2.2,2.2c-0.4,0.8-0.6,1.6-0.6,2.5c0,1.2,0.3,2.2,0.8,2.9
		s1.2,1.2,2,1.6c0.7,0.3,1.6,0.6,2.8,0.8L32,102c1.1,0.3,1.7,0.5,2,0.7c0.2,0.1,0.3,0.2,0.3,0.5c0,0.4,0,1.3-2.5,1.3
		c-1,0-1.7-0.2-2-0.5c-0.4-0.4-0.5-0.8-0.5-1.3V102h-4.6v0.8c0,0.6,0.1,1.3,0.3,2c0.2,0.7,0.6,1.4,1.1,2c0.6,0.6,1.4,1.1,2.4,1.5
		c1,0.4,2.2,0.5,3.6,0.5c0.6,0,1.2-0.1,1.9-0.2c0.7-0.1,1.5-0.4,2.2-0.8c0.8-0.4,1.5-1,2-1.8S38.9,104.1,38.9,102.9z"/>
	<path class="st0" d="M99.2,64.4c0.8,0,3.9,0,4.7,0c0.2,0.7,1,3.2,1,3.2h5.2L104,50.4h-4.3h-0.5L93,67.6h5.1
		C98.1,67.7,99,65.1,99.2,64.4z M101.6,57.1c0.4,1.4,0.7,2.3,1,3.1c-0.7,0-1.2,0-2,0C100.9,59.4,101.1,58.5,101.6,57.1z"/>
	<path class="st0" d="M73.6,66c0.5,0.6,1.3,1.1,2.4,1.5c1,0.4,2.2,0.6,3.6,0.6c0.6,0,1.2-0.1,1.9-0.2c0.7-0.1,1.5-0.4,2.2-0.8
		c0.8-0.4,1.5-1,2-1.8c0.6-0.8,0.9-1.9,0.9-3.1c0-1.5-0.5-2.7-1.4-3.4c-0.8-0.7-1.9-1.2-3.3-1.5l-3.9-1c-0.4-0.1-0.7-0.2-1-0.4
		c-0.1-0.1-0.1-0.4-0.1-0.5c0-0.4,0.1-0.6,0.4-0.8c0.5-0.2,1-0.3,1.6-0.3c0.9,0,1.4,0.1,1.6,0.3c0.4,0.3,0.6,0.5,0.6,0.6
		c0.1,0.3,0.2,0.6,0.2,0.9l0.1,0.7H86V56c0-0.6-0.1-1.2-0.4-1.9c-0.2-0.7-0.6-1.3-1.1-1.9c-0.6-0.6-1.3-1.1-2.2-1.5
		c-0.9-0.4-2-0.5-3.2-0.5c-1.7,0-3.1,0.3-4.1,0.9c-1,0.6-1.8,1.4-2.2,2.2c-0.4,0.8-0.6,1.7-0.6,2.5c0,1.2,0.3,2.2,0.8,3
		c0.5,0.7,1.2,1.2,2,1.6c0.7,0.3,1.6,0.6,2.8,0.8l1.7,0.4c1.1,0.3,1.7,0.5,2,0.7c0.2,0.1,0.3,0.2,0.3,0.6c0,0.4,0,1.3-2.5,1.3
		c-1,0-1.7-0.2-2-0.5c-0.3-0.4-0.5-0.8-0.5-1.2v-0.7h-4.6v0.7c0,0.7,0.1,1.3,0.3,2C72.7,64.7,73,65.4,73.6,66z"/>
	<polygon class="st0" points="40.3,50.5 36.2,50.5 35.5,50.5 35.5,67.7 40.3,67.7 	"/>
	<polygon class="st0" points="69.9,50.5 65.8,50.5 65.1,50.5 65.1,67.7 69.9,67.7 	"/>
	<path class="st0" d="M24.2,60.6c1,0,3.6,0,4.6,0c0,1.2,0,7.1,0,7.1h4.8V50.5h-4.8c0,0,0,4.8,0,6c-1,0-3.6,0-4.6,0c0-1.2,0-6,0-6h-4
		h-0.8v17.2h4.8C24.2,67.7,24.2,61.8,24.2,60.6z"/>
	<path class="st0" d="M8.1,67.7h4.8c0,0,0-11.6,0-12.9c1,0,4.7,0,4.7,0v-4.3H4.1H3.3v4.3c0,0,3.7,0,4.8,0
		C8.1,56.1,8.1,67.7,8.1,67.7z"/>
	<path class="st0" d="M45.4,60.5c0.7,0.3,1.6,0.6,2.8,0.8l1.7,0.4c1.1,0.3,1.7,0.5,2,0.7c0.2,0.1,0.3,0.2,0.3,0.6
		c0,0.4,0,1.3-2.5,1.3c-1,0-1.7-0.2-2-0.5c-0.4-0.4-0.5-0.8-0.5-1.2v-0.7h-4.6v0.7c0,0.7,0.1,1.3,0.3,2c0.1,0.1,0.5,0.8,1.1,1.4
		c0.5,0.6,1.3,1.1,2.4,1.5c1,0.4,2.2,0.6,3.6,0.6c0.6,0,1.2-0.1,1.9-0.2c0.7-0.1,1.5-0.4,2.2-0.8c0.8-0.4,1.5-1,2-1.8
		c0.6-0.8,0.9-1.9,0.9-3.1c0-1.5-0.5-2.7-1.4-3.4c-0.8-0.7-1.9-1.2-3.3-1.5l-3.8-0.9c-0.4-0.1-0.7-0.2-1-0.4
		c-0.1-0.1-0.1-0.4-0.1-0.5c0-0.4,0.1-0.6,0.4-0.8c0.5-0.2,1-0.3,1.6-0.3c0.9,0,1.4,0.1,1.6,0.3c0.4,0.3,0.6,0.5,0.6,0.6
		c0.1,0.3,0.2,0.6,0.2,0.9l0.1,0.7h4.6v-0.8c0-0.6-0.1-1.2-0.4-1.9c-0.2-0.7-0.6-1.3-1.2-1.9c-0.5-0.6-1.3-1.1-2.2-1.5
		c-0.9-0.4-2-0.5-3.2-0.5c-1.7,0-3.1,0.3-4.1,0.9s-1.8,1.4-2.2,2.2c-0.4,0.8-0.6,1.7-0.6,2.5c0,1.2,0.3,2.2,0.8,3
		C43.9,59.6,44.6,60.1,45.4,60.5z"/>
</g>
</svg>
