<?xml version="1.0" encoding="utf-8"?>
<!-- Generator: Adobe Illustrator 19.1.0, SVG Export Plug-In . SVG Version: 6.00 Build 0)  -->
<svg version="1.1" id="Слой_1" xmlns="http://www.w3.org/2000/svg" xmlns:xlink="http://www.w3.org/1999/xlink" x="0px" y="0px"
	 viewBox="-83 29.5 87.7 84.5" style="enable-background:new -83 29.5 87.7 84.5;" xml:space="preserve">
<style type="text/css">
	.st0{fill:#595959;}
</style>
<g>
	<polygon class="st0" points="-65,70.8 -75.1,63.6 -72.9,95.9 -58.3,108.4 -58.3,78.6 -65,74.6 	"/>
	<path class="st0" d="M-46.8,72.6l-2.3-18.1l-15.8-10.3l-1.6-9.3l-16.5-2l5.8,28l13.2,9.3L-46.8,72.6z M-72.3,45.7l16.5,10.9v0.8
		h-0.6l-15.9-10.3V45.7z M-70.9,53.1L-54.4,64v0.8H-55l-15.9-10.4V53.1z"/>
	<polygon class="st0" points="-13.5,74.6 -20.2,78.6 -20.2,108.4 -5.5,95.9 -3.3,63.6 -13.5,70.8 	"/>
	<path class="st0" d="M-39.2,59.6l25-15.9l1.6-8.8c0,0-11.3-5.4-26.6-5.4c-15.3,0.1-26.6,5.4-26.6,5.4l1.6,8.8L-39.2,59.6z"/>
	<polygon class="st0" points="-39.2,93.6 -32.8,93.6 -32.8,72.6 -30.2,54.8 -39.2,60.9 -48.3,54.8 -45.7,72.6 -45.7,93.6 	"/>
	<polygon class="st0" points="-31.6,94.5 -39.2,94.5 -46.8,94.5 -46.8,74.2 -57.1,78.8 -57.1,109.5 -51.4,114 -46.6,101.8 
		-39.2,101.6 -31.8,101.8 -27,114 -21.3,109.5 -21.3,78.8 -31.6,74.2 	"/>
	<polygon class="st0" points="-39.2,102.6 -46.1,102.6 -50.8,114 -39.2,114 -27.7,114 -32.4,102.6 	"/>
	<path class="st0" d="M-11.8,34.8l-1.7,9.3l-15.8,10.3l-2.3,18.1l17.3-2.5l13.2-9.3l5.8-28L-11.8,34.8z M-7.5,54.4l-15.9,10.4H-24
		V64l16.5-10.9V54.4z M-6.2,47.1l-15.9,10.4h-0.6v-0.8l16.5-10.9V47.1z"/>
</g>
</svg>
