<?xml version="1.0" encoding="utf-8"?>
<!-- Generator: Adobe Illustrator 19.1.0, SVG Export Plug-In . SVG Version: 6.00 Build 0)  -->
<svg version="1.1" id="Слой_1" xmlns="http://www.w3.org/2000/svg" xmlns:xlink="http://www.w3.org/1999/xlink" x="0px" y="0px"
	 viewBox="2.7 55.8 157.1 29.6" style="enable-background:new 2.7 55.8 157.1 29.6;" xml:space="preserve">
<style type="text/css">
	.st0{fill:#595959;}
</style>
<g>
	<path class="st0" d="M24,62.6c2-0.3,3.6-0.9,4.2-1c-0.2,0-0.3-0.1-0.4-0.1c-1-0.3-2.7-0.7-3.4-1.3c-0.7,0.2-4.3,0.4-7.3,0.5
		c-0.1,0-6.6,0.3-6.7,0.2c0,0,0,0,0-0.1c0,0,0-0.1,0.1-0.1c1.3-0.1,2.7-0.3,4.1-0.4c2.9-0.3,6-0.5,8.4-1c-1.1-0.7-1.8-1.5-2.3-2.2
		C19.8,57.2,8,58.7,2.8,61.9C2.7,62,2.7,62,2.7,62l0.1,0.1C5.8,62.8,19.1,63.3,24,62.6z"/>
	<path class="st0" d="M32.1,65.8L27.8,65c-4.9,0.7-8.9,0.7-13.5-0.1c-0.1,0-0.1-0.1-0.1-0.1l0.1-0.1c4.8,0.3,8.8,0.1,11.7-0.5
		c-0.4-0.2-1.1-0.5-1.4-0.9c-0.3,0-0.9,0-1.6,0.1c-1.7,0.1-4.2,0.1-7,0.2c-5-0.1-9.5-0.2-11.9-0.4c-0.1,0-0.1,0-0.1,0s0,0.1,0.1,0.1
		c3,2.2,7.8,3.5,13.6,3.9C22.5,67.5,27.9,67,32.1,65.8z"/>
	<path class="st0" d="M25.8,71c2.4-0.4,5-1.1,6.6-1.6c-1.5-0.2-2.9-0.7-3.6-0.9c-0.6,0.1-1.3,0.2-2,0.4c-1.3,0.3-2.8,0.5-4.3,0.7
		c-1.7,0.1-3.6-0.2-5.7-0.5c-0.1,0-0.1-0.1-0.1-0.1c0-0.1,0.1-0.1,0.1-0.1c2.8,0.2,5.5,0.1,7.6-0.2c2.1-0.3,3.5-0.8,3.7-0.9l0.7-0.6
		c-5,0.9-11.9,0.9-17.7,0c-0.9-0.1-1.8-0.3-2.6-0.4c-0.6-0.1-1.1-0.1-1.7-0.2c-0.1,0-0.1,0-0.1,0s0,0.1,0,0.2c0,0.1,0,0.1,0,0.1
		c0.9,1.6,3.7,3,7.7,3.8C18,71.4,22.3,71.5,25.8,71z"/>
	<path class="st0" d="M32.9,72.4c-0.4-0.1-1.2-0.4-1.4-0.6c-0.8,0.2-7.6,2.1-12,1.4c-0.1,0-0.1-0.1-0.1-0.1s0-0.1,0.1-0.1
		c1.8,0,3.3-0.1,4.7-0.3c3.4-0.4,5.9-0.9,6.7-1.3c-0.7-0.4-1-0.6-1.1-0.7c-1.1,0.4-5.1,1.2-9.3,1.2c-3.5,0-6.7-0.3-8.5-0.5
		c-0.3,0-0.5-0.1-0.7-0.1c-0.3,0-0.3,0.1-0.3,0.2c0,0.1,0.1,0.2,0.1,0.2c1.8,1.8,6.6,3.4,10.1,3.4C25.1,75.1,31.7,73.4,32.9,72.4z"
		/>
	<path class="st0" d="M37.1,75.3c-0.7-0.2-1.6-0.6-2.5-1.2c-0.2,0.1-0.5,0.3-0.7,0.4c-2.2,1.2-4.3,2.4-7,2.2c0,0-0.1,0-0.1-0.1
		c0-0.1,0-0.1,0.1-0.1c3.8-0.9,6.5-2.3,8.7-3.6c-0.6,0-1.4-0.1-2-0.5c-2.5,1.4-6.9,2.7-10.6,2.9c-1,0.1-2,0.4-2.9,0.7
		c-0.4,0.1-0.7,0.3-1,0.3c-0.1,0-0.1,0.1-0.1,0.1l0.1,0.1c3.5,1.9,7.2,2.5,11,1.7C32.7,77.9,35.1,76.8,37.1,75.3z"/>
	<path class="st0" d="M48.8,80.4c0-0.1,0-0.1,0-0.1c0.2-0.3,0.3-0.7,0.6-1c-0.4,0.1-0.8,0.2-1.2,0.2c-1.6,1.1-4,2.6-6.3,2.7
		c0,0-0.1,0-0.1-0.1c0,0,0-0.1,0.1-0.1c1.9-0.7,2.7-1.2,3.7-1.8c0.3-0.2,0.7-0.5,1.1-0.7c-0.9-0.2-1.6-0.5-2.7-1c0,0,0,0,0-0.1
		c0,0,0,0,0-0.1l0.3-0.3c-0.4,0-0.8,0-1.2-0.1c-1.6,1-3.3,1.8-5.4,2.7c-1.2,0.5-2.4,1-3.8,1.7c-0.1,0.1-0.1,0.1-0.1,0.1
		c0,0.1,0.1,0.1,0.1,0.1c2.4,0.7,6.5,0.9,10.4,0.6c4-0.3,7-1.1,8.1-2.2C51.5,81.1,49.8,80.9,48.8,80.4z"/>
	<path class="st0" d="M42,77.8c-0.7-0.1-1.4-0.2-2-0.5c-1.7,0.9-3,1.3-4.6,1.8c-0.5,0.2-1.1,0.3-1.7,0.5c0,0-0.1,0-0.1-0.1
		c0,0,0-0.1,0.1-0.1c0.7-0.3,1.3-0.5,1.8-0.8c1.5-0.6,2.4-1,3.5-1.9l-0.5-0.2c0,0,0,0,0-0.1v-0.1c0.3-0.3,0.7-0.5,1.2-0.7
		c-0.7,0-1.4-0.1-2-0.2c-1,1-3.3,1.9-5.6,2.8c-1.6,0.7-3.3,1.3-4.7,2.1c-0.1,0.1-0.1,0.1-0.1,0.1c0,0.1,0.1,0.1,0.2,0.1
		C33.1,82.2,41.3,79.3,42,77.8z"/>
	<path class="st0" d="M28.5,60.9c3.4,0.7,6.8,0.5,8.6,0.3c2.4-0.3,3.9-0.7,4.3-0.9c-0.7-0.3-1.3-0.7-1.6-1c-2.9,0.4-6.3,0.2-9.7-0.5
		c-0.1,0-0.1,0-0.1-0.1s0.1-0.1,0.1-0.1c4.4,0.4,7.7,0.3,9.5-0.2c2.9-0.9,5.2-1.4,7.3-1.8c-3.1-0.3-16.7-1.3-25.2,0.4
		C22.9,58.8,25.2,60.2,28.5,60.9z"/>
	<path class="st0" d="M29.9,61.7c-0.2,0.1-0.4,0.1-0.6,0.2c-1.4,0.4-3,0.8-4.1,1.2c2.2,1.4,5.5,2,7.3,2.2c3.5-0.3,10.6-1.4,11.6-2.7
		c-0.5-0.1-1.2-0.4-1.9-0.8c-2.3,1.1-4.6,1.8-7.9,1.4c0,0-0.1,0-0.1-0.1c0,0,0-0.1,0.1-0.1c3.2-0.1,5.7-0.7,7.3-1.5
		c-0.3-0.2-0.5-0.4-0.8-0.6C39.3,61.6,32.2,62.1,29.9,61.7z"/>
	<path class="st0" d="M45,66.1l-0.9-0.4L44,65.6c0,0,0-0.1,0.1-0.1l1.6-0.8c-0.4,0-0.8-0.1-1.1-0.2c-0.4,0.3-2.2,1-2.6,1.1
		c-0.8,0.3-2.9,1-4.2,1.3c-0.6,0.1-1,0.1-1.1-0.1c0,0,0,0,0-0.1s0-0.1,0.1-0.1h0.1c0.4,0.1,4.1-1.1,6.2-1.9c0.5-0.2,0.7-0.4,0.8-0.6
		l-1-0.3c-1.4,0.6-3.3,0.9-5.3,1.2c-1.5,0.2-3.1,0.5-4.5,0.9c-1.2,0.3-3.3,1-4.6,1.9C33.1,69.7,38.3,69.1,45,66.1z"/>
	<path class="st0" d="M30.5,70.4c4.4,3.1,9.6,2.6,16.5-1.6l-0.1-0.1c0,0,0,0-0.1-0.1c0,0,0,0,0-0.1c0.5-0.7,1.1-1.3,2-1.7H48
		c-0.5,0.2-7,3.4-8.9,3.2C39,70,39,69.9,39,69.9s0-0.1,0.1-0.1c1.3-0.3,6.5-2.3,7.9-3.2c-0.6-0.1-1.2-0.2-1.8-0.5
		c-0.8,0.4-6.5,3.2-11.6,3.2c-0.9,0.4-1.9,0.6-2.7,0.8C30.7,70.3,30.6,70.4,30.5,70.4z"/>
	<path class="st0" d="M49.2,71.3l-0.7-0.6c0,0,0,0,0-0.1v-0.1c0.5-0.4,0.9-0.7,1.5-1h-0.5c-0.2,0.1-1.8,1.1-3.5,2
		c-3.7,2-3.9,1.6-4.1,1.5c0,0,0,0,0-0.1c0,0,0-0.1,0.1-0.1h0.1c0.4-0.1,5.3-2.6,6.6-3.5c-0.5-0.1-1-0.2-1.4-0.4
		c-2.7,2.2-6.6,3.3-9.6,4.3c-0.9,0.3-1.7,0.5-2.4,0.7C40.4,76.4,42,75.6,49.2,71.3z"/>
	<path class="st0" d="M47.5,76.7c2.2-0.9,4-2.5,5.1-3.4c-0.6,0.1-1.3,0-1.5,0c-0.2,0.1-1.5,0.9-2.8,1.6c-2.6,1.4-3.1,1.2-3.3,1
		c0,0,0-0.1,0.1-0.1h0.1c0.3,0,3.8-1.5,5.9-3c0.5-0.5,0.8-0.9,1-1.2c-0.9,0.1-1.6,0.1-2.2,0h-0.2c-3.3,2.7-6.5,3.9-9.6,4.9
		c-0.2,0.1-0.3,0.1-0.5,0.2C42.2,77.7,44.9,77.7,47.5,76.7z"/>
	<path class="st0" d="M48.2,79.1c3.1-0.5,6-3.1,6.6-4.3l0.6-1.4c-1.1,1-4.5,3.9-5.7,3.8l-0.1-0.1c0,0,0-0.1,0.1-0.1
		c0.9-0.5,4-2.2,5.1-4c-0.3,0.1-0.8,0.1-1.2,0.1c-0.1,0-0.3,0-0.4,0c-0.9,0.9-2.2,1.8-3.6,2.7c-2.1,1.3-3,1.5-3.7,1.6
		c-0.2,0-0.3,0.1-0.5,0.1c-0.6,0.3-0.9,0.4-1,0.5C45.9,79,47.1,79.3,48.2,79.1z"/>
	<path class="st0" d="M58.3,75.7l0.3-1c-0.3,0.2-0.9,0.5-1.4,0.6c-0.9,1.4-3.5,3.4-4.1,3.3c0,0-0.1,0-0.1-0.1v-0.1
		c1.8-1.3,2.9-2.4,3.3-3.1c-0.4,0.1-0.9,0.1-1.4,0c-1.2,1.6-2.8,2.7-4.4,3.5c-0.8,0.3-1,1-1.1,1.2c1.3,0.5,2.4,0.6,3.3,0.5
		C55.9,79.9,57.8,76.7,58.3,75.7z"/>
	<path class="st0" d="M60.8,77.2c-0.1,0-0.2,0-0.2,0c-0.1,0-0.1,0-0.1-0.1c0-0.1,0-0.2,0-0.3c0-0.4,0.1-0.8,0.2-1.2l-1,0.7
		c-0.7,1.5-1.6,2.8-2.6,3.8H57V80c0,0,0,0,0-0.1c1-1.2,1.8-2.5,2.3-3.7l-0.8,0.1c-0.6,1.2-1.5,2.2-2.7,3.3c-0.2,0.3-0.7,1.1-0.7,1.9
		c0,0.1,0,0.3,0.1,0.4C57.8,81.2,59.6,78.9,60.8,77.2z"/>
	<path class="st0" d="M64,76.9c-0.5,0.3-1,0.5-1.5,0.6c-0.4,1-1.2,2.4-2.3,3.5h-0.1v-0.1v-0.1c0.7-1.1,1.6-2.6,2.2-4.1
		c-0.3,0.2-0.9,0.4-1.1,0.5c-0.2,0.4-1.1,1.9-2.1,2.7c-0.8,0.7-0.9,2.8-0.9,3.3c1.5-0.2,2.6-1.3,3.4-2.2C62.5,80,63.4,78.4,64,76.9z
		"/>
	<path class="st0" d="M64.4,81.7c0.8-1.3,1.4-2.6,1.8-4.1c-0.2,0.1-0.5,0.3-0.7,0.3h-0.1c-0.2-0.2-0.3-0.4-0.3-0.7
		c-0.4,1.4-0.9,2.7-2.1,3.8h-0.1v-0.1c1-1.4,1.8-3,2-4.3c-0.1,0.1-0.2,0.1-0.3,0.1c0,0.1-0.1,0.3-0.3,0.5c-0.5,1-1.6,3.2-2.5,3.9
		c-0.3,0.3-0.6,2.2-0.6,2.9c0,0.1,0,0.1,0,0.2c1.3-0.3,2.1-1.3,2.9-2.1C64.2,82,64.3,81.8,64.4,81.7z"/>
	<path class="st0" d="M67.1,78.8c-0.4,1.1-1,2.2-1.8,3.3c0,0.1-0.1,0.1-0.1,0L65.1,82c0.9-1.3,1.4-2.4,1.6-3.5c0-0.1,0-0.2,0-0.3
		c0-0.3,0-0.6,0.1-0.8c-0.1,0.1-0.2,0.1-0.2,0.2v0.1c-0.1,0.3-0.4,1.2-0.9,2.4c-0.3,0.8-0.9,1.6-1.4,2.4c-0.1,0.2-0.2,0.5-0.2,0.9
		c0,0.5,0.1,1,0.2,1.3c2.2-1.8,3.2-4.3,4.1-6.6C68.1,78.4,67.6,78.6,67.1,78.8z"/>
	<path class="st0" d="M70.6,78.1V78c-0.3,0.3-0.5,0.6-1,0.7c-0.3,1.1-1,2.7-1.8,3.6c0,0.1-0.1,0.1-0.1,0c0,0,0,0,0-0.1v-0.1
		c0.8-1.3,1.1-2.1,1.4-3.5c-0.1-0.2-0.2-0.4-0.2-0.6c-0.7,1.7-1.5,3.3-2,4.3c-0.1,0.2-0.2,0.6-0.2,1c0,0.5,0.1,1.2,0.2,1.6
		c2.2-1.6,3.2-4.3,3.7-6.4C70.6,78.4,70.6,78.3,70.6,78.1z"/>
	<path class="st0" d="M75.1,79.3c0-0.6-0.1-0.8-0.1-1.2c-0.1-0.1-0.3-0.3-0.3-0.5c-0.1,0.3-0.1,0.7-0.2,1c-0.1,0.5-0.2,1-0.3,1.5
		l-0.4,1.5c0,0.1-0.1,0.1-0.1,0.1c-0.1,0-0.1-0.1-0.1-0.1c0.2-1.1,0.6-2.8,0.7-3.9c-0.2,0.2-0.5,0.3-0.8,0.4c0,0-0.1,0-0.1-0.1
		c0-0.1-0.1-0.3-0.1-0.5c0-0.1,0-0.1,0-0.2c-0.1,0.1-0.2,0.1-0.3,0.2c-0.1,0.1-0.2,0.1-0.3,0.2c-0.1,0-0.1,0.1-0.1,0.1
		c-0.1,0.3-0.3,0.7-0.3,1c-0.3,0.9-0.6,1.7-0.9,2.6l-0.1,0.1l-0.1-0.1c0.3-1.1,0.7-2.6,0.9-3.2c-0.3,0.2-0.7,0.4-1.1,0.6l-0.1,0.4
		c-0.5,1.6-0.9,2.8-0.9,4c0,0.6,0.1,1.2,0.4,1.8c1-0.9,1.5-2.2,2.1-3.5c0.1-0.4,0.3-0.9,0.5-1.2c0,0,0.1-0.1,0.1,0
		c0,0,0.1,0,0.1,0.1c-0.2,0.7-0.4,1.4-0.4,2.2c0,0.9,0.2,1.6,0.5,2.4c0.6-0.9,1-1.7,1.4-2.9c0.1-0.5,0.3-1,0.3-1.5
		C75.1,80.2,75.1,79.7,75.1,79.3z"/>
	<path class="st0" d="M76.1,77.6c0.3,1,0.4,2,0.4,3.2c0,0.3,0,0.5,0,0.7c0,0.1-0.1,0.1-0.1,0.1c-0.1,0-0.1,0-0.1-0.1
		c0-0.2,0-0.4-0.1-0.6c-0.1-1-0.2-2.1-0.5-3c-0.1,0.1-0.2,0.1-0.3,0.2c-0.1,1-0.3,2.4-0.5,3.4c0.3,1.1,0.8,1.8,1.5,2.5
		c0.5-1.3,0.7-2.3,0.7-3.2c0-1-0.3-2-0.7-3.4C76.4,77.5,76.3,77.6,76.1,77.6z"/>
	<path class="st0" d="M40.2,58.7c1.5,1.4,4,2.2,7.1,2.4c2.7,0.2,5.6-0.1,7.6-0.9l0.7-0.1c-0.2,0-0.4-0.1-0.7-0.1
		c-1.6-0.1-4.9-0.5-7.2-1.1c-0.1,0-0.1-0.1-0.1-0.1l0.1-0.1c2.4,0.4,4.9,0.8,7,0.9c-0.2-0.1-0.3-0.3-0.4-0.5c0,0,0-0.1,0.1-0.1
		c0.1-0.1,0.1-0.1,0.2-0.1c0.1-0.1,0.3-0.2,0.5-0.2C50.4,57.5,44.4,57.5,40.2,58.7z"/>
	<path class="st0" d="M54.1,61.8c0.3-0.2,0.6-0.3,1-0.3c0.1,0,0.1,0,0.1,0c-0.3-0.1-0.5-0.3-0.7-0.5c-0.3,0.1-0.5,0.1-0.8,0.1
		c-2.8,0.5-6.1,1-11.3-0.4c-0.1-0.1-0.7,0-1,0.1c3.4,2.4,7.5,2.1,11.4,1.9h0.4l1.2-0.2L54,62.2c-1.1,0.1-2.3,0.1-3.5-0.2
		c-0.2,0-0.2-0.1-0.1-0.2C51.8,61.9,53,62,54.1,61.8z"/>
	<path class="st0" d="M55,63l-0.5-0.2c-2.2,0.3-5.5,0.5-6.3,0.5c-2.2-0.4-3.5-0.4-4.8,0.3c2.3,0.9,7.4,1.7,11.6,0.3v-0.1
		c0.1-0.2,0.3-0.3,0.5-0.5h-0.1c-1.4,0.2-3.9,0.5-5,0.3c0,0,0-0.1,0-0.1C52,63.6,53.7,63.2,55,63z"/>
	<path class="st0" d="M49,65.4c0.1,0.1,1.6,0,2.7-0.1c1.4-0.2,3.1-0.6,3.9-0.8c-0.1-0.1-0.3-0.1-0.4-0.2c-0.1,0-0.7,0.1-1.3,0.2
		c-0.7,0.1-1.6,0.3-2.4,0.3c-1.7,0.1-3.6,0.1-4.2,0c-0.8-0.1-1.9,0.5-2.2,0.8c1.5,0.7,3.9,0.9,5.8,0.9c0.4-0.1,0.9-0.1,1.2-0.1
		c0.5,0,1-0.1,1.4-0.1c1.4-0.3,2.7-0.8,3.9-1.3c-0.3,0-0.7-0.1-1-0.3c-0.3,0.1-2.4,0.9-4.3,1c-1.7,0.1-3.1-0.1-3.1-0.1
		S48.9,65.6,49,65.4C48.9,65.4,48.9,65.4,49,65.4z"/>
	<path class="st0" d="M57.3,65.5c-2,0.8-4.6,1.3-7.7,1.6c-1.1,0.5-1.8,0.9-2.2,1.4c1.1,0.6,2.4,0.5,4.1,0.4c1.7-0.1,5.2-0.7,7.6-2.3
		c-0.6,0.1-1.2,0-1.6-0.1c-2.1,0.7-4.2,1.2-6.5,1.3c-0.1,0-0.1,0-0.1,0c1.9-0.4,4.2-0.8,5.9-1.6C56.9,65.9,57.1,65.7,57.3,65.5z"/>
	<path class="st0" d="M53.3,69.6c1.7-0.5,3.4-0.9,4.8-1.9c-2.1,0.7-4.3,1.4-6.5,1.6c-0.2,0.1-0.4,0.2-0.6,0.3
		c-0.6,0.3-1.1,0.6-1.6,1c0.7,0.3,1.6,0.5,2.9,0.4c2.2-0.2,6.1-2,7.7-3.2c-0.3,0-0.6,0-1-0.1c-1.7,1-3.6,1.9-5.8,2.1
		c-0.2,0.1-0.3,0-0.2-0.1L53.3,69.6z"/>
	<path class="st0" d="M58.9,74c1.2-0.6,2.4-1.2,3.2-2.4l-0.3-0.1c0,0-0.1,0-0.1-0.1v-0.1c0.1-0.2,0.3-0.4,0.3-0.7
		c0.1-0.3,0.3-0.5,0.5-0.8L61.9,70c-1.1,1.2-2,1.9-3.5,2.8h-0.1v-0.1v-0.1l3-2.7c-0.1,0-0.1,0-0.2,0c-0.1,0-0.1,0-0.2,0h-0.1
		c0,0,0,0,0-0.1c0-0.5,0.2-0.8,0.5-1.1c-0.2,0.1-0.4,0.1-0.6,0c-1.4,1.1-3.1,1.8-4.8,2.4c0,0-0.1,0-0.1-0.1c0-0.1,0-0.1,0.1-0.1
		c1.7-0.7,3.1-1.4,4.3-2.2c-0.2,0-0.5,0-0.7-0.1c0,0,0,0,0-0.1v-0.1l0.2-0.2c-1.5,1.1-3.6,2.4-6.2,2.9c-0.5,0.2-0.9,0.6-1.2,1
		c-0.2,0.2-0.4,0.4-0.6,0.6c4.1,0.1,6.3-0.9,8.4-2.3c0.1,0,0.1,0,0.1,0v0.1c0,0,0,0,0,0.1c-0.9,1-2.1,1.5-3.4,2.1
		c-0.6,0.6-1.3,1.5-1.5,2.3C57,75.1,57.9,74.7,58.9,74z"/>
	<path class="st0" d="M63.4,72.9c0.2-0.2,0.3-0.4,0.5-0.6c0-0.1,0-0.2,0-0.3c0-0.3,0.1-0.6,0.1-0.9c0-0.1,0-0.1,0-0.1
		c-1,1.1-2.2,2.4-3.7,3.3h-0.1c0,0,0-0.1,0.1-0.1c1.2-0.9,2.2-1.8,2.9-2.7c-0.2,0-0.5,0.1-0.7,0.1c-0.1,0.3-0.7,1.3-3.3,2.8
		c-0.3,0.2-0.5,1-0.5,1.5C61.1,75.5,62.3,74.2,63.4,72.9z"/>
	<path class="st0" d="M61.3,76.9c1-0.2,3.2-1.8,4.5-3.9c-0.1,0-0.2,0-0.2,0s-0.1,0-0.1-0.1c-0.1-0.3-0.1-0.5-0.1-0.8
		c-0.7,1-1.5,1.9-2.6,2.9h-0.1v-0.1c0,0,0,0,0-0.1c1-1,1.7-1.8,2.2-2.6c-0.1,0.1-0.3,0.1-0.5,0.2c-0.2,0.3-1.7,2-2.9,2.8
		c-0.1,0.2-0.5,1.1-0.5,1.4c0,0.1,0,0.1,0,0.1C61,76.9,61.1,76.9,61.3,76.9z"/>
	<path class="st0" d="M68.5,71.9c-0.3,0.3-0.7,0.5-1.1,0.7h-0.1c0,0-0.1,0-0.1-0.1c-0.1-0.1-0.1-0.3-0.1-0.5v-0.1
		c-0.2,0.2-0.5,0.5-0.8,0.7c-0.2,0.9-1.1,2.1-1.6,2.7c0,0-0.1,0.1-0.1,0v-0.1c0.1-0.1,0.3-0.5,0.5-0.9c0.1-0.1,0.1-0.1,0.1-0.2
		c-0.6,0.8-1.2,1.5-2.1,2.2c-0.2,0.1-0.5,0.5-0.5,0.7c1,0,2.9-1.5,3.9-2.4c0-0.1,0.1-0.1,0.1,0v0.1c-0.2,0.4-0.8,1-1.1,1.2
		c-0.1,0.1-0.2,0.4-0.2,0.8c0,0.3,0.1,0.6,0.2,0.8c3.2-1.7,4.2-4.7,4.3-5.2c-0.2-0.1-0.5-0.3-0.7-0.5c-0.2,0.4-0.4,0.7-0.6,1.1
		c-0.4,0.8-0.8,1.6-1.4,2.4c0,0.1-0.1,0.1-0.1,0c0,0-0.1,0-0.1-0.1v-0.1C67.7,74.1,68.2,73,68.5,71.9z"/>
	<path class="st0" d="M69,75.4c0.6-0.9,1.2-1.7,1.5-2.7c-0.1,0-0.2-0.1-0.3-0.1c-0.9,2-1.8,3.4-2.9,4.3c-0.2,0.5-0.2,0.9-0.2,1.2
		c0,0.1,0,0.3,0,0.3c3.5-1.5,4.3-4.6,4.4-5.1c-0.1,0-0.1-0.1-0.2-0.1c-0.2-0.1-0.3-0.1-0.5-0.3c-0.5,1-1.1,2-1.8,2.7h-0.1L69,75.4
		L69,75.4z"/>
	<path class="st0" d="M69.3,77.5c-0.1,0.1-0.1,0.2-0.1,0.4s0.1,0.5,0.2,0.7c0,0,0.1,0,0.1-0.1c0.2-0.1,0.4-0.2,0.5-0.3
		c1.1-1,2.2-2.5,3-4.4c-0.4-0.1-0.7-0.2-1-0.4C71.8,74.3,70.9,76.1,69.3,77.5z"/>
	<path class="st0" d="M71,78.4C71,78.5,71,78.5,71,78.4c0.7-0.2,1.3-0.6,1.8-0.9c0.5-0.4,0.8-0.7,0.8-0.8l0.1-0.1l0.1,0.1L73.7,77
		c0,0-0.1,0.5-0.1,0.7v0.1c0.2-0.1,0.9-0.6,1.4-1.2c0.4-0.6,0.8-1.2,0.9-1.3c-0.7-1.2-1.7-1.3-2.4-1.4c-0.3,0.4-1.6,2.9-2.1,3.4
		C71,77.6,71,78.1,71,78.4z"/>
	<path class="st0" d="M75.2,77.9c0.2-0.1,0.6-0.3,0.9-0.5c0.2-0.2,0.3-0.4,0.3-0.5c0-0.3,0-1-0.4-1.3c-0.1,0.1-0.4,0.4-1,1.5
		C75,77.4,75.1,77.9,75.2,77.9z"/>
	<path class="st0" d="M63.1,60.1c0.1-0.1,0.1-0.1,0.1-0.1c-0.4-0.1-2.1-0.5-4.1-0.9c-2.5-0.5-3.5-0.2-4.3,0.1c0.5,0.6,2.7,1.1,4,1.4
		h0.1l0.1,0.1l-0.1,0.1c-0.4,0-0.7-0.1-1-0.1c-1-0.1-2-0.2-3.1-0.1c0.8,0.7,2.4,1.2,4,1.2c0.1,0,0.1,0,0.1,0.1c0,0.1,0,0.1-0.1,0.1
		c-0.5,0.1-2.4,0-3.3-0.3c-0.3,0-0.8,0.2-1.2,0.4c2.9,2.1,7.5,0.7,9.8-1c-0.1,0-0.2,0-0.3,0c0,0-0.1,0-0.1-0.1v-0.1
		c0.1-0.1,0.1-0.1,0.2-0.2c-0.3-0.2-0.6-0.3-0.9-0.3c0,0-0.1,0-0.1-0.1c0,0,0,0,0-0.1C63,60.2,63.1,60.2,63.1,60.1z"/>
	<path class="st0" d="M57.4,63.5c-1.1-0.3-1.6-0.1-2,0.5c2.1,0.8,3.9,0.8,6.3,0.2c0,0,0.1,0,0.1,0.1c0,0,0,0.1-0.1,0.1
		c-1,0.5-2.2,0.6-3.7,0.8c-0.4,0.3-0.8,0.6-0.9,1c2.8,0.6,5.1-0.2,7.1-2.3l-0.1-2.3C63.1,62.5,58.5,63.9,57.4,63.5z"/>
	<path class="st0" d="M61.3,66.2c-0.2,0.1-0.4,0.1-0.6,0.1c-0.4,0.1-0.8,0.2-1.1,0.4c-0.2,0.1-0.3,0.3-0.4,0.5l-0.1,0.1
		c2.2,0.3,3.7-1,5.3-2.4l-0.1-0.6C63.8,64.7,62.1,65.9,61.3,66.2z"/>
	<path class="st0" d="M60.9,67.7L60,68.5c1.6,0.2,3.1-0.6,4.5-2.3l-0.1-0.7C63.4,66.3,62.3,67.1,60.9,67.7z"/>
	<path class="st0" d="M63.2,67.9c-0.3,0.2-0.6,0.4-0.9,0.7c-0.4,0.4-0.7,0.8-1,1.2c1.4-0.1,2.9-1,3.9-2.2l-0.3-1
		C64.3,67.1,63.7,67.5,63.2,67.9z"/>
	<path class="st0" d="M64.3,68.8c-0.4,0.3-0.8,0.7-1.2,1c-0.4,0.3-0.6,0.9-0.9,1.4c1.6,0.2,2.9-1.3,3.8-2.6
		c-0.2-0.3-0.4-0.6-0.5-0.9C65.2,68.1,64.7,68.5,64.3,68.8z"/>
	<path class="st0" d="M64.6,70.7c-0.1,0.1-0.4,0.7-0.4,1.2c0,0.1,0,0.1,0,0.2c1-0.5,1.8-1.4,2.5-2.7c-0.1-0.1-0.3-0.3-0.4-0.6
		L64.6,70.7z"/>
	<path class="st0" d="M67,69.7c-0.1,0.1-0.1,0.2-0.2,0.3c-0.3,0.5-0.5,0.9-0.9,1.4c-0.1,0.3-0.2,0.6-0.2,0.9c0,0.1,0,0.2,0,0.3
		c0.6-0.3,1.3-0.9,1.3-0.9s0.5-0.4,0.6,0.1c0,0.1-0.1,0.2-0.1,0.3v0.1c0.3-0.2,0.6-0.5,0.9-0.7l-0.7-0.8C67.4,70.3,67.2,70,67,69.7z
		"/>
	<path class="st0" d="M76.4,72c-0.8-1.2-1.4-1.2-2.4-1.3c-1.4,0-3.4-0.1-7-3.6c-0.7-1.3-1-2.6-1-3.9c0-0.7,0.1-1.2,0.1-1.7
		c0.1-0.4,0.1-0.7,0.1-1c0-1-0.5-1.5-3-1.8c-5.4-1.2-10.3-1.9-14.8-2.1l-3,0.9c6.2-0.2,12.6,0.9,17.9,2.1c1.4,0.5,1.5,1.5,1.5,2.7
		c0,0.1,0,0.3,0,0.4c0,0.2,0,0.3,0,0.5c0,0.9,0.1,1.9,0.5,3l0.1,0.1c1.7,2.9,3.6,6.3,8.4,7.1c2.8,0.4,3.2,2.3,3.6,4.6
		c0.3,1.6,0.7,3.5,2.1,5c-0.3-1.2-0.5-2.4-0.8-3.6C78,76.8,77.4,74.1,76.4,72z"/>
	<path class="st0" d="M159.7,61.9c-5.2-3.3-17-4.7-17.9-4.8c-0.5,0.7-1.2,1.5-2.3,2.2c2.4,0.5,5.4,0.7,8.4,1
		c1.4,0.1,2.8,0.2,4.1,0.4c0.1,0,0.1,0.1,0.1,0.1c0,0.1,0,0.1-0.1,0.1c-0.1,0.1-6.6-0.2-6.7-0.2c-3-0.1-6.6-0.3-7.3-0.5
		c-0.6,0.6-2.4,1.1-3.4,1.3c-0.1,0-0.3,0.1-0.4,0.1c0.6,0.2,2.2,0.7,4.2,1c4.8,0.7,18.2,0.1,21.1-0.5
		C159.6,62.1,159.7,62,159.7,61.9C159.8,62,159.8,62,159.7,61.9z"/>
	<path class="st0" d="M146.5,63.6c-2.8-0.1-5.3-0.1-7-0.2c-0.7,0-1.2,0-1.6-0.1c-0.3,0.4-1,0.7-1.4,0.9c2.8,0.6,6.9,0.7,11.6,0.5
		c0.1,0,0.1,0.1,0.1,0.1s0,0.1-0.1,0.1c-4.6,0.7-8.6,0.7-13.5,0.1l-4.3,0.8c4.1,1.2,9.5,1.7,14.4,1.4c5.8-0.3,10.6-1.7,13.5-3.9
		c0.2,0,0.3,0,0.2-0.1C156,63.4,151.4,63.5,146.5,63.6z"/>
	<path class="st0" d="M155.8,66.5c-0.5,0.1-1.1,0.1-1.7,0.2c-0.9,0.1-1.8,0.2-2.6,0.4c-5.8,0.9-12.8,1-17.8,0l0.7,0.6
		c0.3,0.1,1.6,0.6,3.7,0.9c2,0.3,4.7,0.4,7.6,0.2c0.1,0,0.1,0,0.1,0.1c0,0.1,0,0.1-0.1,0.1c-2.2,0.3-4.1,0.6-5.7,0.5
		c-1.5-0.1-3-0.4-4.3-0.7c-0.7-0.1-1.4-0.3-2-0.4c-0.7,0.2-2.1,0.7-3.7,0.9c1.6,0.5,4.3,1.2,6.6,1.6c3.5,0.5,7.8,0.4,11.6-0.4
		c4-0.8,6.8-2.2,7.7-3.8v-0.1C155.9,66.6,155.9,66.5,155.8,66.5z"/>
	<path class="st0" d="M151.3,71.3c-0.2,0-0.5,0.1-0.8,0.1c-1.7,0.2-5,0.6-8.4,0.5c-4.2-0.1-8.2-0.9-9.3-1.2
		c-0.1,0.1-0.3,0.3-1.1,0.7c0.8,0.5,3.2,0.9,6.6,1.3c1.4,0.1,3,0.3,4.7,0.3c0,0,0.1,0,0.1,0.1c0,0,0,0.1-0.1,0.1
		c-4.5,0.7-11.3-1.2-12-1.4c-0.2,0.2-1,0.5-1.4,0.6c1.1,1,7.7,2.7,11.7,2.7c3.5,0,8.4-1.6,10.1-3.4c0,0,0.1-0.1,0.1-0.2
		C151.5,71.4,151.4,71.3,151.3,71.3z"/>
	<path class="st0" d="M139.6,75.6c-3.7-0.3-8.1-1.5-10.6-2.9c-0.7,0.3-1.4,0.5-2.1,0.5c2.2,1.2,4.9,2.7,8.7,3.6c0,0,0.1,0,0.1,0.1
		c0,0.1,0,0.1-0.1,0.1c-2.7,0.1-4.8-1-7-2.2c-0.3-0.1-0.5-0.3-0.8-0.4c-0.8,0.6-1.8,0.9-2.5,1.2c2,1.4,4.4,2.6,7.2,3.3
		c3.7,0.8,7.4,0.2,10.9-1.7c0.1,0,0.1-0.1,0.1-0.1v-0.5c-0.3-0.1-0.7-0.2-1-0.3C141.6,76,140.7,75.6,139.6,75.6z"/>
	<path class="st0" d="M128.5,82.3c-1.4-0.7-2.6-1.2-3.7-1.7c-2-0.9-3.8-1.6-5.4-2.7c-0.4,0.1-0.8,0.1-1.2,0.1l0.3,0.3v0.1v0.1
		c-1.1,0.6-1.8,0.9-2.7,1c0.4,0.2,0.8,0.5,1.1,0.7c0.9,0.6,1.8,1.2,3.7,1.8c0,0,0.1,0,0.1,0.1c0,0.1-0.1,0.1-0.1,0.1
		c-2.3-0.1-4.7-1.6-6.3-2.7c-0.4-0.1-0.8-0.2-1.2-0.3c0.3,0.3,0.5,0.7,0.7,1v0.1c-1,0.6-2.7,0.7-3.7,0.7c1.1,1.1,4.1,1.9,8.1,2.2
		c3.9,0.3,8,0.1,10.4-0.6l0.1-0.1C128.6,82.5,128.6,82.4,128.5,82.3z"/>
	<path class="st0" d="M135,80.5c-1.4-0.8-3.1-1.4-4.7-2.1c-2.4-0.9-4.6-1.8-5.6-2.8c-0.6,0.1-1.3,0.2-2,0.2c0.5,0.2,0.9,0.4,1.2,0.7
		v0.1c0,0,0,0.1-0.1,0.1l-0.5,0.2c1.1,0.9,2.1,1.3,3.5,1.9c0.5,0.2,1.1,0.5,1.8,0.8v0.1c0,0.1-0.1,0.1-0.1,0.1
		c-0.6-0.2-1.2-0.4-1.7-0.5c-1.5-0.5-2.8-0.9-4.6-1.8c-0.6,0.3-1.3,0.4-2,0.5c0.7,1.5,8.9,4.4,14.5,3c0.1,0,0.2-0.1,0.2-0.1
		C135.2,80.6,135.2,80.6,135,80.5z"/>
	<path class="st0" d="M132.4,58.4C132.5,58.4,132.5,58.4,132.4,58.4c0.1,0.2,0.1,0.2,0,0.2c-3.4,0.8-6.8,0.9-9.7,0.5
		c-0.3,0.4-0.9,0.8-1.6,1c0.3,0.2,1.8,0.7,4.2,0.9c1.8,0.2,5.2,0.5,8.6-0.3c3.3-0.7,5.6-2,6.8-4c-8.5-1.7-22.1-0.7-25.2-0.4
		c2.2,0.4,4.5,1,7.3,1.8C124.7,58.8,128,58.8,132.4,58.4z"/>
	<path class="st0" d="M133.2,61.8c-0.2-0.1-0.4-0.1-0.6-0.2c-2.3,0.5-9.4,0-10.9-0.7c-0.2,0.2-0.5,0.4-0.8,0.6
		c1.6,0.8,4.1,1.4,7.2,1.6c0.1,0,0.1,0.1,0.1,0.1c0,0.1,0,0.1-0.1,0.1c-3.3,0.3-5.6-0.3-7.9-1.4c-0.7,0.4-1.4,0.6-1.9,0.8
		c1,1.2,8.2,2.4,11.7,2.6c1.8-0.2,5-0.8,7.3-2.2C136.2,62.6,134.6,62.2,133.2,61.8z"/>
	<path class="st0" d="M129.2,65.9c-1.4-0.4-2.9-0.6-4.5-0.9c-2-0.3-3.9-0.6-5.3-1.2l-1,0.3c0.1,0.1,0.4,0.4,0.8,0.6
		c2.2,0.9,5.9,2,6.2,1.9h0.1c0,0,0.1,0,0.1,0.1c0,0,0,0,0,0.1c-0.1,0.2-0.5,0.2-1.1,0.1c-1.3-0.2-3.3-1-4.1-1.3
		c-0.4-0.1-2.2-0.8-2.6-1.1c-0.3,0.1-0.7,0.2-1.1,0.2l1.6,0.8v0.1v0.1l-0.9,0.4c6.7,3.1,11.8,3.6,16.3,1.7
		C132.5,66.9,130.4,66.2,129.2,65.9z"/>
	<path class="st0" d="M131.6,70.3c-0.8-0.2-1.8-0.4-2.7-0.8c-5.2,0-10.9-2.8-11.6-3.2c-0.6,0.2-1.2,0.4-1.8,0.5
		c1.4,0.9,6.5,2.9,7.9,3.2l0.1,0.1c0,0,0,0.1-0.1,0.1c-1.8,0.3-8.4-2.9-8.9-3.2h-0.8c0.9,0.5,1.6,1,2.1,1.7v0.1v0.1l-0.1,0.1
		c6.9,4.2,12.1,4.7,16.5,1.6C131.9,70.4,131.7,70.3,131.6,70.3z"/>
	<path class="st0" d="M124.8,73.2c-3.1-0.9-6.9-2-9.6-4.3c-0.4,0.2-0.9,0.4-1.4,0.4c1.4,0.9,6.2,3.4,6.6,3.5h0.1l0.1,0.1V73
		c-0.1,0.1-0.4,0.5-4.1-1.5c-1.7-0.9-3.3-1.9-3.5-2h-0.5c0.6,0.3,1,0.5,1.5,1v0.1v0.1l-0.7,0.6c7.2,4.3,8.8,5.1,14,2.7
		C126.5,73.7,125.7,73.5,124.8,73.2z"/>
	<path class="st0" d="M122.9,76.5c-0.2-0.1-0.3-0.1-0.5-0.2c-3.1-1-6.3-2.2-9.6-4.9h-0.2c-0.7,0.1-1.4,0.1-2.2,0
		c0.2,0.3,0.5,0.8,1,1.2c2.1,1.5,5.6,3,5.9,3h0.1l0.1,0.1c-0.2,0.3-0.7,0.4-3.3-1c-1.3-0.7-2.6-1.5-2.8-1.6c-0.2,0-0.9,0.1-1.5,0
		c1,0.9,2.9,2.5,5.1,3.4C117.6,77.7,120.3,77.7,122.9,76.5z"/>
	<path class="st0" d="M114.2,79.1c1.1,0.1,2.3-0.1,3.7-0.8c-0.1-0.1-0.4-0.3-0.9-0.5c-0.2-0.1-0.3-0.1-0.5-0.1
		c-0.7-0.1-1.6-0.3-3.7-1.6c-1.4-0.9-2.7-1.8-3.6-2.7c-0.1,0-0.2,0-0.3,0c-0.4,0-0.9,0-1.2-0.1c1.1,1.7,4.2,3.5,5.1,4c0,0,0,0,0,0.1
		c0,0,0,0.1-0.1,0.1c-1.2,0.1-4.6-2.8-5.7-3.8l0.7,1.4C108.2,76,111.2,78.6,114.2,79.1z"/>
	<path class="st0" d="M113,80c0-0.2-0.3-0.8-1.1-1.2c-1.6-0.7-3.2-1.9-4.5-3.5c-0.4,0.1-0.9,0.1-1.4,0c0.4,0.8,1.5,1.8,3.3,3.1v0.1
		c0,0,0,0.1-0.1,0.1c-0.5,0.1-3.1-2-4.1-3.3c-0.6-0.1-1.2-0.5-1.4-0.6l0.3,1c0.5,1,2.4,4.2,5.6,4.8C110.6,80.7,111.7,80.5,113,80z"
		/>
	<path class="st0" d="M104,76.3l-0.8-0.1c0.5,1.2,1.3,2.5,2.3,3.7V80v0.1h-0.1c-1-1-1.9-2.3-2.6-3.8l-1-0.7c0.1,0.3,0.2,0.8,0.2,1.2
		c0,0.1,0,0.2,0,0.3c0,0.1-0.1,0.1-0.1,0.1c-0.1,0-0.1,0-0.2,0c1.1,1.8,3,4,5.7,4.8c0-0.1,0.1-0.3,0.1-0.4c0-0.9-0.5-1.6-0.7-1.9
		C105.5,78.6,104.6,77.6,104,76.3z"/>
	<path class="st0" d="M101.2,77.2c-0.3,0-0.8-0.3-1.1-0.5c0.6,1.6,1.5,3,2.2,4.1c0,0,0,0,0,0.1c0,0,0,0,0,0.1c-0.1,0-0.1,0-0.1,0
		c-1.1-1.1-1.8-2.5-2.3-3.5c-0.5-0.1-1.1-0.3-1.5-0.6c0.6,1.5,1.5,3,2.4,4.1c0.9,0.9,1.9,2,3.4,2.2c0-0.5-0.1-2.6-0.9-3.3
		C102.4,79.1,101.4,77.6,101.2,77.2z"/>
	<path class="st0" d="M98.2,77.3c-0.1-0.3-0.2-0.5-0.3-0.5c-0.1-0.1-0.3-0.1-0.3-0.1c0.3,1.3,1,2.9,2,4.3v0.1c-0.1,0-0.1,0-0.1,0
		c-1.2-1.1-1.6-2.5-2.1-3.8c-0.1,0.2-0.1,0.5-0.3,0.7H97c-0.2,0-0.5-0.1-0.7-0.3c0.4,1.5,1,2.8,1.9,4.1c0.1,0.1,0.2,0.2,0.3,0.4
		c0.7,0.9,1.5,1.8,2.9,2.1c0,0,0-0.1,0-0.2c0-0.8-0.3-2.6-0.6-2.9C99.8,80.5,98.7,78.3,98.2,77.3z"/>
	<path class="st0" d="M96.7,80c-0.5-1.2-0.8-2.2-0.9-2.4v-0.1c-0.1,0-0.1-0.1-0.2-0.2c0.1,0.3,0.1,0.6,0.1,0.8c0,0.1,0,0.3-0.1,0.3
		c0.3,1.1,0.8,2.2,1.7,3.5V82h-0.1c-0.8-1-1.4-2.2-1.8-3.3c-0.5-0.1-1-0.4-1.4-0.7c1,2.4,2,4.8,4.2,6.6c0.1-0.3,0.2-0.8,0.2-1.3
		c0-0.4-0.1-0.7-0.2-0.9C97.6,81.6,97,80.8,96.7,80z"/>
	<path class="st0" d="M93.5,78.2c0,0.2-0.1,0.4-0.2,0.6c0.3,1.3,0.6,2.1,1.4,3.5c0,0,0,0,0,0.1v0.1c-0.1,0-0.1,0-0.1,0
		c-0.7-0.9-1.4-2.5-1.8-3.6c-0.4-0.2-0.7-0.5-0.9-0.7v0.1c0,0.2,0,0.3,0,0.5c0,0.1,0,0.1,0,0.1c0.5,2.1,1.5,4.8,3.7,6.4
		c0.1-0.4,0.2-1,0.2-1.6c0-0.5-0.1-0.8-0.2-1C95,81.5,94.2,80,93.5,78.2z"/>
	<path class="st0" d="M91.6,78.8c-0.4-0.1-0.9-0.4-1.2-0.6c0.2,0.7,0.7,2.1,0.9,3.2c0,0,0,0.1-0.1,0.1c0,0-0.1,0-0.1-0.1
		c-0.4-0.9-0.6-1.7-0.9-2.6c-0.1-0.3-0.2-0.7-0.3-1c-0.1,0-0.1-0.1-0.1-0.1c-0.1-0.1-0.2-0.1-0.3-0.2c-0.1-0.1-0.2-0.1-0.3-0.2
		c0,0.1,0,0.1,0,0.2c0,0.2,0,0.3-0.1,0.5L89,78.1c-0.3-0.1-0.6-0.2-0.8-0.4c0,0,0,0-0.1,0c0.1,1.2,0.5,2.8,0.7,3.9
		c0,0,0,0.1-0.1,0.1c-0.1,0-0.1,0-0.1-0.1l-0.5-1.5c-0.1-0.5-0.2-1-0.3-1.5c-0.1-0.3-0.1-0.7-0.2-1c-0.1,0.2-0.2,0.4-0.3,0.5
		c0,0.3-0.1,0.6-0.1,0.9c0,0.4,0,0.9,0.1,1.3c0.1,0.5,0.2,1,0.4,1.5c0.4,1.2,0.8,2.1,1.4,2.9c0.3-0.7,0.5-1.5,0.5-2.4
		c0-0.7-0.1-1.5-0.4-2.2c0-0.1,0-0.1,0.1-0.1c0.1,0,0.1,0,0.1,0c0.2,0.4,0.3,0.8,0.5,1.2c0.5,1.3,1,2.7,2.1,3.5
		c0.3-0.6,0.4-1.2,0.4-1.8c0-1.1-0.4-2.4-0.9-4L91.6,78.8z"/>
	<path class="st0" d="M86.7,77.9c-0.3,0.9-0.4,2-0.5,3c0,0.2-0.1,0.4-0.1,0.6c0,0,0,0.1-0.1,0.1c-0.1,0-0.1,0-0.1-0.1
		c0-0.3,0-0.5,0-0.7c0-1.2,0.1-2.2,0.4-3.2c-0.1-0.1-0.3-0.2-0.4-0.3c-0.5,1.4-0.7,2.4-0.7,3.4s0.2,2,0.7,3.2
		c0.7-0.7,1.2-1.4,1.5-2.5C87.2,80.4,87,79,87,78C86.9,78.1,86.8,78,86.7,77.9z"/>
	<path class="st0" d="M107.3,58.7c0.2,0.1,0.4,0.1,0.5,0.2c0.1,0.1,0.1,0.1,0.2,0.1v0.1c-0.1,0.2-0.2,0.4-0.4,0.5
		c2.1-0.1,4.6-0.5,7-0.9c0,0,0.1,0,0.1,0.1c0,0,0,0.1-0.1,0.1c-2.4,0.5-5.6,1-7.2,1.1c-0.3,0-0.5,0.1-0.7,0.1l0.7,0.1
		c2,0.8,4.9,1.1,7.6,0.9c3.1-0.2,5.6-1.1,7.1-2.4C118.1,57.5,112,57.5,107.3,58.7z"/>
	<path class="st0" d="M120.1,60.7c-5.3,1.5-8.5,0.9-11.4,0.4c-0.3-0.1-0.5-0.1-0.8-0.1c-0.2,0.2-0.4,0.4-0.7,0.5c0.1,0,0.1,0,0.1,0
		c0.4,0.1,0.8,0.1,1,0.3c1.1,0.3,2.4,0.1,3.6,0h0.1c0,0,0.1,0,0.1,0.1c0,0.1,0,0.1-0.1,0.1c-1.2,0.3-2.4,0.3-3.5,0.2l-0.3,0.3
		l1.1,0.2h0.4c3.9,0.2,8,0.5,11.4-1.9C120.8,60.7,120.3,60.6,120.1,60.7z"/>
	<path class="st0" d="M114.1,63.3c-0.8,0.1-4.1-0.2-6.3-0.5l-0.5,0.2c1.3,0.3,3,0.6,4.6,0.5c0,0,0.1,0,0.1,0.1c0,0.1,0,0.1-0.1,0.1
		c-1.1,0.2-3.6-0.1-5-0.3h-0.1c0.2,0.1,0.3,0.3,0.4,0.5l0.1,0.1c4.2,1.3,9.2,0.5,11.6-0.3C117.6,62.8,116.4,62.9,114.1,63.3z"/>
	<path class="st0" d="M115.2,64.9c-0.5,0.1-2.5,0.1-4.1,0c-0.8-0.1-1.7-0.2-2.4-0.3c-0.6-0.1-1.2-0.2-1.3-0.2
		c-0.2,0-0.3,0.1-0.4,0.1c0.8,0.2,2.5,0.6,3.9,0.8c1.1,0.1,2.6,0.2,2.6,0.1c0,0,0.1,0,0.1,0.1c0,0.1,0,0.1-0.1,0.1
		c0,0-1.4,0.2-2.9,0.1c-2-0.1-4.1-0.9-4.3-1c-0.4,0.1-0.8,0.2-1,0.3c1.2,0.5,2.5,1,3.9,1.3c0.4,0.1,0.9,0.1,1.4,0.1
		c0.4,0.1,0.8,0.1,1.2,0.1c1.8,0.1,4.3-0.2,5.8-0.9C117.1,65.4,116.1,64.8,115.2,64.9z"/>
	<path class="st0" d="M112.9,67.1c-3.2-0.3-5.7-0.9-7.7-1.6c0.2,0.2,0.4,0.4,0.5,0.7c1.7,0.8,4.1,1.2,6,1.6l0.1,0.1
		c0,0,0,0.1-0.1,0.1c-2.4-0.1-4.5-0.6-6.5-1.3c-0.5,0.1-1,0.1-1.6,0.1c2.4,1.6,5.8,2.2,7.6,2.3c1.5,0,2.8,0.1,3.9-0.6
		C114.7,68,114,67.5,112.9,67.1z"/>
	<path class="st0" d="M102.7,67.9c1.6,1.2,5.5,3,7.7,3.2c1.3,0.1,2.2,0,2.9-0.4c-0.5-0.4-1.1-0.7-1.6-1c-0.2-0.1-0.4-0.2-0.6-0.3
		c-2.2-0.2-4.4-0.9-6.5-1.6c1.4,0.9,3.1,1.4,4.8,1.9l0.1,0c0,0,0,0.1,0,0.2c-2.2-0.2-4.1-1.1-5.8-2.1
		C103.4,67.9,103,67.9,102.7,67.9z"/>
	<path class="st0" d="M107.2,75c-0.2-0.8-0.9-1.7-1.5-2.3c-1.3-0.6-2.5-1.1-3.4-2.1v-0.1v-0.1h0.1c2.2,1.5,4.4,2.4,8.4,2.3
		c-0.2-0.2-0.4-0.4-0.6-0.6c-0.3-0.4-0.7-0.8-1.2-1c-2.6-0.5-4.7-1.8-6.3-2.9l0.2,0.2c0,0,0,0,0,0.1c0,0,0,0,0,0.1
		c-0.2,0.1-0.5,0.1-0.7,0.1c1.1,0.8,2.5,1.5,4.3,2.2c0,0,0,0,0,0.1l-0.1,0.1c-1.6-0.6-3.4-1.2-4.8-2.4c-0.2,0.1-0.4,0-0.6,0
		c0.3,0.3,0.5,0.7,0.5,1.1v0.1c0,0,0,0-0.1,0c-0.1,0-0.2,0-0.2,0c-0.1,0-0.2,0-0.2,0l3,2.7v0.1c0,0,0,0,0,0.1h-0.1
		c-1.4-0.9-2.4-1.6-3.5-2.8l-0.6-0.2c0.2,0.3,0.3,0.5,0.5,0.8c0.1,0.2,0.2,0.5,0.3,0.7c0,0,0,0,0,0.1c0,0,0,0-0.1,0.1l-0.3,0.1
		c0.9,1.2,2,1.8,3.2,2.4C104.6,74.7,105.4,75.1,107.2,75z"/>
	<path class="st0" d="M103.3,74.4c-2.6-1.5-3.1-2.5-3.3-2.8c-0.3,0-0.5,0-0.8-0.1c0.7,0.9,1.6,1.8,2.9,2.7v0.1c0,0.1-0.1,0.1-0.1,0
		c-1.5-1-2.6-2.2-3.7-3.3v0.1c0.1,0.3,0.1,0.6,0.1,0.9c0,0.1,0,0.2,0,0.3c0.2,0.2,0.4,0.4,0.5,0.6c1.2,1.3,2.3,2.5,4.8,2.9
		C103.7,75.4,103.5,74.6,103.3,74.4z"/>
	<path class="st0" d="M101.6,76.8C101.6,76.8,101.6,76.8,101.6,76.8c0-0.5-0.4-1.3-0.5-1.5c-1.2-0.8-2.7-2.6-2.9-2.8
		c-0.2,0-0.3-0.1-0.5-0.2c0.5,0.7,1.2,1.6,2.2,2.6V75v0.1h-0.1c-1.1-1-2-1.9-2.6-2.9c0,0.3,0,0.5-0.1,0.8c0,0,0,0.1-0.1,0.1
		c0,0-0.1,0-0.2,0c1.2,2.1,3.4,3.7,4.5,3.9C101.3,76.9,101.5,76.9,101.6,76.8z"/>
	<path class="st0" d="M99.8,77c-0.1-0.2-0.4-0.6-0.5-0.7c-0.9-0.7-1.6-1.4-2.1-2.2c0.1,0.1,0.1,0.2,0.1,0.2c0.2,0.4,0.4,0.7,0.5,0.9
		c0,0,0,0.1-0.1,0.1h-0.1c-0.5-0.7-1.4-1.9-1.6-2.7c-0.3-0.2-0.6-0.5-0.8-0.7c0,0.1,0,0.1,0,0.1c0,0.2,0,0.3-0.1,0.5
		c0,0,0,0.1-0.1,0.1h-0.1c-0.5-0.2-0.8-0.4-1.1-0.7c0.3,1.1,0.9,2.2,1.5,3.3c0,0,0,0,0,0.1v0.1h-0.1c-0.6-0.8-1-1.6-1.4-2.4
		c-0.2-0.3-0.4-0.7-0.6-1.1c-0.2,0.2-0.5,0.4-0.7,0.5c0.1,0.5,1,3.5,4.3,5.2c0.1-0.2,0.2-0.5,0.2-0.8c0-0.4-0.1-0.7-0.2-0.8
		c-0.3-0.2-0.9-0.8-1.1-1.2l0.1-0.2h0.1C96.9,75.6,98.8,77,99.8,77z"/>
	<path class="st0" d="M95.3,78c0-0.3,0-0.7-0.2-1.2c-1-0.9-2-2.3-2.9-4.3c-0.1,0.1-0.2,0.1-0.3,0.1c0.3,1,0.9,1.8,1.5,2.7v0.1v0.1
		c-0.1,0-0.1,0-0.1,0c-0.7-0.8-1.3-1.7-1.8-2.7c-0.2,0.1-0.3,0.2-0.5,0.3c-0.1,0-0.1,0.1-0.2,0.1c0.1,0.5,0.9,3.6,4.5,5.1
		C95.3,78.3,95.3,78.1,95.3,78z"/>
	<path class="st0" d="M93.3,77.9c0-0.2-0.1-0.3-0.1-0.4c-1.7-1.4-2.5-3.2-2.7-4.1c-0.3,0.2-0.7,0.3-1,0.4c0.9,1.9,1.9,3.4,3,4.4
		c0.2,0.1,0.3,0.2,0.5,0.3C93.2,78.4,93.3,78.1,93.3,77.9z"/>
	<path class="st0" d="M88.8,76.5c0,0.1,0.1,0.1,0.1,0.1c0,0.1,0.3,0.4,0.8,0.8c0.5,0.3,1.1,0.7,1.8,1v-0.1c0-0.3-0.1-0.8-0.4-1.1
		c-0.6-0.5-1.8-2.9-2-3.4H89c-0.7,0.1-1.7,0.3-2.4,1.4c0.1,0.1,0.5,0.8,0.9,1.3c0.5,0.7,1.2,1.1,1.4,1.2c0,0,0,0,0-0.1
		c0-0.2-0.1-0.7-0.1-0.7l-0.1-0.3C88.7,76.6,88.7,76.5,88.8,76.5z"/>
	<path class="st0" d="M86.1,76.9c0,0.1,0.1,0.3,0.3,0.5c0.3,0.2,0.7,0.5,0.9,0.5c0.2,0,0.2-0.5,0.2-0.8c-0.7-1-1-1.4-1-1.5
		C86.1,75.9,86.1,76.6,86.1,76.9z"/>
	<path class="st0" d="M98.6,61.1c-0.1,0-0.2,0-0.3,0c2.3,1.7,6.8,3.1,9.8,1c-0.4-0.2-0.9-0.4-1.2-0.4c-0.9,0.3-2.8,0.5-3.3,0.3
		c-0.1,0-0.1,0-0.1-0.1c0-0.1,0.1-0.1,0.1-0.1c1.6-0.1,3.3-0.5,4.1-1.2c-1.1-0.2-2-0.1-3.1,0.1c-0.3,0-0.7,0.1-1,0.1
		c-0.1,0-0.1,0-0.1-0.1c0,0,0-0.1,0.1-0.1h0.1c1.3-0.3,3.6-0.8,4-1.4c-0.8-0.3-1.9-0.6-4.3-0.1c-2,0.4-3.7,0.8-4.1,0.9l0.1,0.1
		c0.1,0,0.1,0.1,0.1,0.1s0,0,0,0.1c0,0,0,0.1-0.1,0.1c-0.3,0-0.6,0.1-0.9,0.3c0.1,0.1,0.1,0.1,0.2,0.2c0,0,0,0,0,0.1
		C98.7,61.1,98.6,61.1,98.6,61.1z"/>
	<path class="st0" d="M105.3,66.2c-0.2-0.4-0.5-0.7-0.9-1c-1.4-0.1-2.7-0.3-3.7-0.8l-0.1-0.1c0-0.1,0.1-0.1,0.1-0.1
		c2.3,0.6,4.2,0.5,6.3-0.2c-0.4-0.6-0.9-0.8-2-0.5c-1.1,0.4-5.6-1.1-6.7-1.9l-0.1,2.3C100.1,66,102.5,66.8,105.3,66.2z"/>
	<path class="st0" d="M98.1,65c1.6,1.4,3.1,2.7,5.3,2.4c0-0.1,0-0.1-0.1-0.1c-0.1-0.2-0.3-0.4-0.4-0.5c-0.3-0.2-0.7-0.3-1.1-0.4
		c-0.2,0-0.4-0.1-0.6-0.1c-0.8-0.3-2.5-1.5-3-1.9L98.1,65z"/>
	<path class="st0" d="M97.9,66.2c1.4,1.7,3,2.4,4.6,2.3l-0.9-0.7c-1.4-0.7-2.6-1.4-3.5-2.2L97.9,66.2z"/>
	<path class="st0" d="M97.3,67.6c1,1.2,2.5,2,3.9,2.2c-0.2-0.5-0.5-0.9-1-1.2c-0.3-0.2-0.6-0.4-0.9-0.7c-0.6-0.4-1.2-0.8-1.6-1.3
		L97.3,67.6z"/>
	<path class="st0" d="M96.4,68.6c1,1.3,2.3,2.8,3.8,2.6c-0.2-0.6-0.4-1.1-0.8-1.4c-0.4-0.3-0.8-0.7-1.2-1c-0.5-0.3-0.9-0.7-1.3-1.1
		C96.8,68.1,96.6,68.4,96.4,68.6z"/>
	<path class="st0" d="M95.7,69.4c0.7,1.3,1.4,2.2,2.5,2.7c0-0.1,0-0.1,0-0.2c0-0.5-0.3-1.1-0.4-1.2l-1.7-1.8
		C96,69.1,95.8,69.3,95.7,69.4z"/>
	<path class="st0" d="M95.5,69.7c-0.2,0.3-0.5,0.6-0.8,0.9L94,71.4c0.2,0.3,0.5,0.5,0.9,0.7c0-0.1,0-0.1,0-0.1c0-0.1,0-0.2,0-0.3
		c0.1-0.5,0.5-0.1,0.5-0.1s0.7,0.7,1.3,0.9c0-0.1,0-0.2,0-0.3c0-0.3-0.1-0.6-0.2-0.9c-0.3-0.4-0.6-0.9-0.9-1.4
		C95.6,69.9,95.6,69.8,95.5,69.7z"/>
	<path class="st0" d="M88.8,73.4c4.8-0.9,6.7-4.2,8.4-7.1l0.1-0.1c0.4-1.1,0.5-2.1,0.5-3c0-0.2,0-0.3,0-0.5c0-0.1,0-0.3,0-0.4
		c0-1.2,0.1-2.2,1.5-2.7c5.4-1.1,11.7-2.3,17.9-2.1l-3-0.9c-4.5,0.2-9.4,0.9-14.8,2.1c-2.6,0.3-3,0.9-3,1.8c0,0.3,0,0.7,0.1,1
		c0.1,0.5,0.1,1.1,0.1,1.7c0,1.3-0.3,2.6-1,3.9c-3.6,3.5-5.6,3.5-7,3.6c-1,0-1.6,0.1-2.4,1.3c-1,2.1-1.6,4.8-2.1,7.4
		c-0.3,1.2-0.5,2.4-0.8,3.6c1.4-1.6,1.8-3.4,2.1-5C85.7,75.7,86,73.8,88.8,73.4z"/>
</g>
</svg>
